WARNING: File "event_disabler/usage_disable_no_input.cif": Semantic warning at line 15, column 15: Event "ns" is not used anywhere in the specification.
WARNING: File "event_disabler/usage_disable_no_input.cif": Semantic warning at line 15, column 19: Event "nu" is not used anywhere in the specification.
WARNING: File "event_disabler/usage_disable_no_input.cif": Semantic warning at line 18, column 17: Event "g.ns" is not used anywhere in the specification.
WARNING: File "event_disabler/usage_disable_no_input.cif": Semantic warning at line 18, column 21: Event "g.nu" is not used anywhere in the specification.
WARNING: File "event_disabler/usage_disable_no_input.cif": Semantic warning at line 21, column 19: Event "g.a.ns" is not used anywhere in the specification.
WARNING: File "event_disabler/usage_disable_no_input.cif": Semantic warning at line 21, column 23: Event "g.a.nu" is not used anywhere in the specification.
