<?xml version="1.0" encoding="UTF-8" standalone="no"?>
<graphml xmlns:xsi="http://www.w3.org/2001/XMLSchema-instance" xmlns:y="http://www.yworks.com/xml/graphml" xsi:schemaLocation="http://graphml.graphdrawing.org/xmlns http://www.yworks.com/xml/schema/graphml/1.1/ygraphml.xsd" xmlns="http://graphml.graphdrawing.org/xmlns">
  <key for="node" id="ng" yfiles.type="nodegraphics"/>
  <key for="edge" id="eg" yfiles.type="edgegraphics"/>
  <key attr.name="description" attr.type="string" for="node" id="dn"/>
  <graph edgedefault="undirected" id="cif:">
    <node id="cif::box0" yfiles.foldertype="folder">
      <graph edgedefault="undirected" id="cif::box0:">
        <node id="cif:A" yfiles.foldertype="folder">
          <data key="dn">automaton def A()</data>
          <data key="ng">
            <y:ProxyAutoBoundsNode>
              <y:Realizers active="1">
                <y:GroupNode>
                  <y:NodeLabel alignment="left" autoSizePolicy="node_width" backgroundColor="#40c0ff" fontStyle="plain" modelName="internal" modelPosition="t">&lt;html&gt;&amp;nbsp;&amp;nbsp;&amp;nbsp;&amp;nbsp;&amp;nbsp;&lt;span style="color:#0000ff;"&gt;automaton&lt;/span&gt;&amp;nbsp;&lt;span style="color:#0000ff;"&gt;def&lt;/span&gt;&amp;nbsp;&lt;span style="color:#000000;"&gt;A&lt;/span&gt;&lt;span style="color:#402020;"&gt;()&lt;/span&gt;&lt;/html&gt;</y:NodeLabel>
                  <y:Fill color="#eeeeee"/>
                  <y:Shape type="rectangle"/>
                  <y:State closed="false"/>
                </y:GroupNode>
                <y:GroupNode>
                  <y:Geometry height="30.0" width="147.0"/>
                  <y:NodeLabel alignment="left" autoSizePolicy="node_width" backgroundColor="#40c0ff" fontStyle="plain" modelName="internal" modelPosition="t">&lt;html&gt;&amp;nbsp;&amp;nbsp;&amp;nbsp;&amp;nbsp;&amp;nbsp;&lt;span style="color:#0000ff;"&gt;automaton&lt;/span&gt;&amp;nbsp;&lt;span style="color:#0000ff;"&gt;def&lt;/span&gt;&amp;nbsp;&lt;span style="color:#000000;"&gt;A&lt;/span&gt;&lt;span style="color:#402020;"&gt;()&lt;/span&gt;&lt;/html&gt;</y:NodeLabel>
                  <y:Fill color="#cccccc"/>
                  <y:Shape type="rectangle"/>
                  <y:State closed="true"/>
                </y:GroupNode>
              </y:Realizers>
            </y:ProxyAutoBoundsNode>
          </data>
          <graph edgedefault="undirected" id="cif:A:">
            <node id="cif:A:p">
              <data key="dn">alg p</data>
              <data key="ng">
                <y:ShapeNode>
                  <y:Geometry width="37.0"/>
                  <y:NodeLabel alignment="center">&lt;html&gt;&lt;span style="color:#0000ff;"&gt;alg&lt;/span&gt;&amp;nbsp;&lt;span style="color:#000000;"&gt;p&lt;/span&gt;&lt;/html&gt;</y:NodeLabel>
                  <y:BorderStyle type="dashed"/>
                  <y:Fill color="#c0e0ff"/>
                  <y:Shape type="octagon"/>
                </y:ShapeNode>
              </data>
            </node>
            <node id="cif:A::dataref1">
              <data key="dn">p</data>
              <data key="ng">
                <y:ShapeNode>
                  <y:Geometry height="30" width="30"/>
                  <y:Fill color="#80c0ff"/>
                  <y:Shape type="ellipse"/>
                </y:ShapeNode>
              </data>
            </node>
            <node id="cif:A::dataref0">
              <data key="dn">v</data>
              <data key="ng">
                <y:ShapeNode>
                  <y:Geometry height="30" width="30"/>
                  <y:Fill color="#80c0ff"/>
                  <y:Shape type="ellipse"/>
                </y:ShapeNode>
              </data>
            </node>
            <node id="cif:A:v">
              <data key="dn">disc v</data>
              <data key="ng">
                <y:ShapeNode>
                  <y:Geometry width="41.0"/>
                  <y:NodeLabel alignment="center">&lt;html&gt;&lt;span style="color:#0000ff;"&gt;disc&lt;/span&gt;&amp;nbsp;&lt;span style="color:#000000;"&gt;v&lt;/span&gt;&lt;/html&gt;</y:NodeLabel>
                  <y:BorderStyle width="2.0"/>
                  <y:Fill color="#00c0ff"/>
                  <y:Shape type="rectangle"/>
                </y:ShapeNode>
              </data>
            </node>
          </graph>
        </node>
        <node id="cif:G" yfiles.foldertype="folder">
          <data key="dn">group def G()</data>
          <data key="ng">
            <y:ProxyAutoBoundsNode>
              <y:Realizers active="1">
                <y:GroupNode>
                  <y:NodeLabel alignment="left" autoSizePolicy="node_width" backgroundColor="#40c0ff" fontStyle="italic" modelName="internal" modelPosition="t">&lt;html&gt;&amp;nbsp;&amp;nbsp;&amp;nbsp;&amp;nbsp;&amp;nbsp;&lt;span style="color:#0000ff;"&gt;group&lt;/span&gt;&amp;nbsp;&lt;span style="color:#0000ff;"&gt;def&lt;/span&gt;&amp;nbsp;&lt;span style="color:#000000;"&gt;G&lt;/span&gt;&lt;span style="color:#402020;"&gt;()&lt;/span&gt;&lt;/html&gt;</y:NodeLabel>
                  <y:Fill color="#eeeeee"/>
                  <y:Shape type="rectangle"/>
                  <y:State closed="false"/>
                </y:GroupNode>
                <y:GroupNode>
                  <y:Geometry height="30.0" width="122.0"/>
                  <y:NodeLabel alignment="left" autoSizePolicy="node_width" backgroundColor="#40c0ff" fontStyle="italic" modelName="internal" modelPosition="t">&lt;html&gt;&amp;nbsp;&amp;nbsp;&amp;nbsp;&amp;nbsp;&amp;nbsp;&lt;span style="color:#0000ff;"&gt;group&lt;/span&gt;&amp;nbsp;&lt;span style="color:#0000ff;"&gt;def&lt;/span&gt;&amp;nbsp;&lt;span style="color:#000000;"&gt;G&lt;/span&gt;&lt;span style="color:#402020;"&gt;()&lt;/span&gt;&lt;/html&gt;</y:NodeLabel>
                  <y:Fill color="#cccccc"/>
                  <y:Shape type="rectangle"/>
                  <y:State closed="true"/>
                </y:GroupNode>
              </y:Realizers>
            </y:ProxyAutoBoundsNode>
          </data>
          <graph edgedefault="undirected" id="cif:G:">
            <node id="cif:G:p">
              <data key="dn">alg p</data>
              <data key="ng">
                <y:ShapeNode>
                  <y:Geometry width="37.0"/>
                  <y:NodeLabel alignment="center">&lt;html&gt;&lt;span style="color:#0000ff;"&gt;alg&lt;/span&gt;&amp;nbsp;&lt;span style="color:#000000;"&gt;p&lt;/span&gt;&lt;/html&gt;</y:NodeLabel>
                  <y:BorderStyle type="dashed"/>
                  <y:Fill color="#c0e0ff"/>
                  <y:Shape type="octagon"/>
                </y:ShapeNode>
              </data>
            </node>
            <node id="cif:G::dataref2">
              <data key="dn">p</data>
              <data key="ng">
                <y:ShapeNode>
                  <y:Geometry height="30" width="30"/>
                  <y:Fill color="#80c0ff"/>
                  <y:Shape type="ellipse"/>
                </y:ShapeNode>
              </data>
            </node>
            <node id="cif:G:pp">
              <data key="dn">alg pp</data>
              <data key="ng">
                <y:ShapeNode>
                  <y:Geometry width="44.0"/>
                  <y:NodeLabel alignment="center">&lt;html&gt;&lt;span style="color:#0000ff;"&gt;alg&lt;/span&gt;&amp;nbsp;&lt;span style="color:#000000;"&gt;pp&lt;/span&gt;&lt;/html&gt;</y:NodeLabel>
                  <y:BorderStyle width="2.0"/>
                  <y:Fill color="#00c0ff"/>
                  <y:Shape type="rectangle"/>
                </y:ShapeNode>
              </data>
            </node>
          </graph>
        </node>
      </graph>
      <data key="dn">Component definitions</data>
      <data key="ng">
        <y:ProxyAutoBoundsNode>
          <y:Realizers active="1">
            <y:GroupNode>
              <y:NodeLabel alignment="left" autoSizePolicy="node_width" backgroundColor="#80ff40" modelName="internal" modelPosition="t">     Component definitions</y:NodeLabel>
              <y:Fill color="#eeeeee"/>
              <y:Shape type="rectangle"/>
              <y:State closed="false"/>
            </y:GroupNode>
            <y:GroupNode>
              <y:Geometry height="30.0" width="175.0"/>
              <y:NodeLabel alignment="left" autoSizePolicy="node_width" backgroundColor="#80ff40" modelName="internal" modelPosition="t">     Component definitions</y:NodeLabel>
              <y:Fill color="#cccccc"/>
              <y:Shape type="rectangle"/>
              <y:State closed="true"/>
            </y:GroupNode>
          </y:Realizers>
        </y:ProxyAutoBoundsNode>
      </data>
    </node>
    <node id="cif::box1" yfiles.foldertype="folder">
      <graph edgedefault="undirected" id="cif::box1:">
        <node id="cif:a1" yfiles.foldertype="folder">
          <data key="dn">a1: A()</data>
          <data key="ng">
            <y:ProxyAutoBoundsNode>
              <y:Realizers active="1">
                <y:GroupNode>
                  <y:NodeLabel alignment="left" autoSizePolicy="node_width" backgroundColor="#ff8000" fontStyle="plain" modelName="internal" modelPosition="t">&lt;html&gt;&amp;nbsp;&amp;nbsp;&amp;nbsp;&amp;nbsp;&amp;nbsp;&lt;span style="color:#000000;"&gt;a1&lt;/span&gt;&lt;span style="color:#402020;"&gt;:&lt;/span&gt;&amp;nbsp;&lt;span style="color:#000000;"&gt;A&lt;/span&gt;&lt;span style="color:#402020;"&gt;()&lt;/span&gt;&lt;/html&gt;</y:NodeLabel>
                  <y:Fill color="#eeeeee"/>
                  <y:Shape type="rectangle"/>
                  <y:State closed="false"/>
                </y:GroupNode>
                <y:GroupNode>
                  <y:Geometry height="30.0" width="85.0"/>
                  <y:NodeLabel alignment="left" autoSizePolicy="node_width" backgroundColor="#ff8000" fontStyle="plain" modelName="internal" modelPosition="t">&lt;html&gt;&amp;nbsp;&amp;nbsp;&amp;nbsp;&amp;nbsp;&amp;nbsp;&lt;span style="color:#000000;"&gt;a1&lt;/span&gt;&lt;span style="color:#402020;"&gt;:&lt;/span&gt;&amp;nbsp;&lt;span style="color:#000000;"&gt;A&lt;/span&gt;&lt;span style="color:#402020;"&gt;()&lt;/span&gt;&lt;/html&gt;</y:NodeLabel>
                  <y:Fill color="#cccccc"/>
                  <y:Shape type="rectangle"/>
                  <y:State closed="true"/>
                </y:GroupNode>
              </y:Realizers>
            </y:ProxyAutoBoundsNode>
          </data>
          <graph edgedefault="undirected" id="cif:a1:">
            <node id="cif:a1:p">
              <data key="dn">alg p</data>
              <data key="ng">
                <y:ShapeNode>
                  <y:Geometry width="37.0"/>
                  <y:NodeLabel alignment="center">&lt;html&gt;&lt;span style="color:#0000ff;"&gt;alg&lt;/span&gt;&amp;nbsp;&lt;span style="color:#000000;"&gt;p&lt;/span&gt;&lt;/html&gt;</y:NodeLabel>
                  <y:BorderStyle type="dashed"/>
                  <y:Fill color="#c0e0ff"/>
                  <y:Shape type="octagon"/>
                </y:ShapeNode>
              </data>
            </node>
          </graph>
        </node>
        <node id="cif:a2" yfiles.foldertype="folder">
          <data key="dn">a2: A()</data>
          <data key="ng">
            <y:ProxyAutoBoundsNode>
              <y:Realizers active="1">
                <y:GroupNode>
                  <y:NodeLabel alignment="left" autoSizePolicy="node_width" backgroundColor="#ff8000" fontStyle="plain" modelName="internal" modelPosition="t">&lt;html&gt;&amp;nbsp;&amp;nbsp;&amp;nbsp;&amp;nbsp;&amp;nbsp;&lt;span style="color:#000000;"&gt;a2&lt;/span&gt;&lt;span style="color:#402020;"&gt;:&lt;/span&gt;&amp;nbsp;&lt;span style="color:#000000;"&gt;A&lt;/span&gt;&lt;span style="color:#402020;"&gt;()&lt;/span&gt;&lt;/html&gt;</y:NodeLabel>
                  <y:Fill color="#eeeeee"/>
                  <y:Shape type="rectangle"/>
                  <y:State closed="false"/>
                </y:GroupNode>
                <y:GroupNode>
                  <y:Geometry height="30.0" width="85.0"/>
                  <y:NodeLabel alignment="left" autoSizePolicy="node_width" backgroundColor="#ff8000" fontStyle="plain" modelName="internal" modelPosition="t">&lt;html&gt;&amp;nbsp;&amp;nbsp;&amp;nbsp;&amp;nbsp;&amp;nbsp;&lt;span style="color:#000000;"&gt;a2&lt;/span&gt;&lt;span style="color:#402020;"&gt;:&lt;/span&gt;&amp;nbsp;&lt;span style="color:#000000;"&gt;A&lt;/span&gt;&lt;span style="color:#402020;"&gt;()&lt;/span&gt;&lt;/html&gt;</y:NodeLabel>
                  <y:Fill color="#cccccc"/>
                  <y:Shape type="rectangle"/>
                  <y:State closed="true"/>
                </y:GroupNode>
              </y:Realizers>
            </y:ProxyAutoBoundsNode>
          </data>
          <graph edgedefault="undirected" id="cif:a2:">
            <node id="cif:a2:v">
              <data key="dn">disc v</data>
              <data key="ng">
                <y:ShapeNode>
                  <y:Geometry width="41.0"/>
                  <y:NodeLabel alignment="center">&lt;html&gt;&lt;span style="color:#0000ff;"&gt;disc&lt;/span&gt;&amp;nbsp;&lt;span style="color:#000000;"&gt;v&lt;/span&gt;&lt;/html&gt;</y:NodeLabel>
                  <y:BorderStyle width="2.0"/>
                  <y:Fill color="#00c0ff"/>
                  <y:Shape type="rectangle"/>
                </y:ShapeNode>
              </data>
            </node>
          </graph>
        </node>
        <node id="cif:aut1" yfiles.foldertype="folder">
          <data key="dn">automaton aut1</data>
          <data key="ng">
            <y:ProxyAutoBoundsNode>
              <y:Realizers active="1">
                <y:GroupNode>
                  <y:NodeLabel alignment="left" autoSizePolicy="node_width" backgroundColor="#ff0000" fontStyle="plain" modelName="internal" modelPosition="t">&lt;html&gt;&amp;nbsp;&amp;nbsp;&amp;nbsp;&amp;nbsp;&amp;nbsp;&lt;span style="color:#0000ff;"&gt;automaton&lt;/span&gt;&amp;nbsp;&lt;span style="color:#000000;"&gt;aut1&lt;/span&gt;&lt;/html&gt;</y:NodeLabel>
                  <y:Fill color="#eeeeee"/>
                  <y:Shape type="rectangle"/>
                  <y:State closed="false"/>
                </y:GroupNode>
                <y:GroupNode>
                  <y:Geometry height="30.0" width="136.0"/>
                  <y:NodeLabel alignment="left" autoSizePolicy="node_width" backgroundColor="#ff0000" fontStyle="plain" modelName="internal" modelPosition="t">&lt;html&gt;&amp;nbsp;&amp;nbsp;&amp;nbsp;&amp;nbsp;&amp;nbsp;&lt;span style="color:#0000ff;"&gt;automaton&lt;/span&gt;&amp;nbsp;&lt;span style="color:#000000;"&gt;aut1&lt;/span&gt;&lt;/html&gt;</y:NodeLabel>
                  <y:Fill color="#cccccc"/>
                  <y:Shape type="rectangle"/>
                  <y:State closed="true"/>
                </y:GroupNode>
              </y:Realizers>
            </y:ProxyAutoBoundsNode>
          </data>
          <graph edgedefault="undirected" id="cif:aut1:">
            <node id="cif:aut1:l2">
              <data key="dn">location l2</data>
              <data key="ng">
                <y:ShapeNode>
                  <y:Geometry width="66.0"/>
                  <y:NodeLabel alignment="center">&lt;html&gt;&lt;span style="color:#0000ff;"&gt;location&lt;/span&gt;&amp;nbsp;&lt;span style="color:#000000;"&gt;l2&lt;/span&gt;&lt;/html&gt;</y:NodeLabel>
                  <y:BorderStyle width="2.0"/>
                  <y:Fill color="#00c0ff"/>
                  <y:Shape type="rectangle"/>
                </y:ShapeNode>
              </data>
            </node>
            <node id="cif:aut1:l1">
              <data key="dn">location l1</data>
              <data key="ng">
                <y:ShapeNode>
                  <y:Geometry width="66.0"/>
                  <y:NodeLabel alignment="center">&lt;html&gt;&lt;span style="color:#0000ff;"&gt;location&lt;/span&gt;&amp;nbsp;&lt;span style="color:#000000;"&gt;l1&lt;/span&gt;&lt;/html&gt;</y:NodeLabel>
                  <y:BorderStyle width="2.0"/>
                  <y:Fill color="#00c0ff"/>
                  <y:Shape type="rectangle"/>
                </y:ShapeNode>
              </data>
            </node>
            <node id="cif:aut1:c3">
              <data key="dn">cont c3</data>
              <data key="ng">
                <y:ShapeNode>
                  <y:Geometry width="49.0"/>
                  <y:NodeLabel alignment="center">&lt;html&gt;&lt;span style="color:#0000ff;"&gt;cont&lt;/span&gt;&amp;nbsp;&lt;span style="color:#000000;"&gt;c3&lt;/span&gt;&lt;/html&gt;</y:NodeLabel>
                  <y:BorderStyle width="2.0"/>
                  <y:Fill color="#00c0ff"/>
                  <y:Shape type="rectangle"/>
                </y:ShapeNode>
              </data>
            </node>
          </graph>
        </node>
        <node id="cif:aut2" yfiles.foldertype="folder">
          <data key="dn">automaton aut2</data>
          <data key="ng">
            <y:ProxyAutoBoundsNode>
              <y:Realizers active="1">
                <y:GroupNode>
                  <y:NodeLabel alignment="left" autoSizePolicy="node_width" backgroundColor="#ff0000" fontStyle="plain" modelName="internal" modelPosition="t">&lt;html&gt;&amp;nbsp;&amp;nbsp;&amp;nbsp;&amp;nbsp;&amp;nbsp;&lt;span style="color:#0000ff;"&gt;automaton&lt;/span&gt;&amp;nbsp;&lt;span style="color:#000000;"&gt;aut2&lt;/span&gt;&lt;/html&gt;</y:NodeLabel>
                  <y:Fill color="#eeeeee"/>
                  <y:Shape type="rectangle"/>
                  <y:State closed="false"/>
                </y:GroupNode>
                <y:GroupNode>
                  <y:Geometry height="30.0" width="136.0"/>
                  <y:NodeLabel alignment="left" autoSizePolicy="node_width" backgroundColor="#ff0000" fontStyle="plain" modelName="internal" modelPosition="t">&lt;html&gt;&amp;nbsp;&amp;nbsp;&amp;nbsp;&amp;nbsp;&amp;nbsp;&lt;span style="color:#0000ff;"&gt;automaton&lt;/span&gt;&amp;nbsp;&lt;span style="color:#000000;"&gt;aut2&lt;/span&gt;&lt;/html&gt;</y:NodeLabel>
                  <y:Fill color="#cccccc"/>
                  <y:Shape type="rectangle"/>
                  <y:State closed="true"/>
                </y:GroupNode>
              </y:Realizers>
            </y:ProxyAutoBoundsNode>
          </data>
          <graph edgedefault="undirected" id="cif:aut2:">
            <node id="cif:aut2:c4">
              <data key="dn">cont c4</data>
              <data key="ng">
                <y:ShapeNode>
                  <y:Geometry width="49.0"/>
                  <y:NodeLabel alignment="center">&lt;html&gt;&lt;span style="color:#0000ff;"&gt;cont&lt;/span&gt;&amp;nbsp;&lt;span style="color:#000000;"&gt;c4&lt;/span&gt;&lt;/html&gt;</y:NodeLabel>
                  <y:BorderStyle width="2.0"/>
                  <y:Fill color="#00c0ff"/>
                  <y:Shape type="rectangle"/>
                </y:ShapeNode>
              </data>
            </node>
          </graph>
        </node>
        <node id="cif:g1" yfiles.foldertype="folder">
          <data key="dn">g1: G()</data>
          <data key="ng">
            <y:ProxyAutoBoundsNode>
              <y:Realizers active="1">
                <y:GroupNode>
                  <y:NodeLabel alignment="left" autoSizePolicy="node_width" backgroundColor="#ff8000" fontStyle="italic" modelName="internal" modelPosition="t">&lt;html&gt;&amp;nbsp;&amp;nbsp;&amp;nbsp;&amp;nbsp;&amp;nbsp;&lt;span style="color:#000000;"&gt;g1&lt;/span&gt;&lt;span style="color:#402020;"&gt;:&lt;/span&gt;&amp;nbsp;&lt;span style="color:#000000;"&gt;G&lt;/span&gt;&lt;span style="color:#402020;"&gt;()&lt;/span&gt;&lt;/html&gt;</y:NodeLabel>
                  <y:Fill color="#eeeeee"/>
                  <y:Shape type="rectangle"/>
                  <y:State closed="false"/>
                </y:GroupNode>
                <y:GroupNode>
                  <y:Geometry height="30.0" width="87.0"/>
                  <y:NodeLabel alignment="left" autoSizePolicy="node_width" backgroundColor="#ff8000" fontStyle="italic" modelName="internal" modelPosition="t">&lt;html&gt;&amp;nbsp;&amp;nbsp;&amp;nbsp;&amp;nbsp;&amp;nbsp;&lt;span style="color:#000000;"&gt;g1&lt;/span&gt;&lt;span style="color:#402020;"&gt;:&lt;/span&gt;&amp;nbsp;&lt;span style="color:#000000;"&gt;G&lt;/span&gt;&lt;span style="color:#402020;"&gt;()&lt;/span&gt;&lt;/html&gt;</y:NodeLabel>
                  <y:Fill color="#cccccc"/>
                  <y:Shape type="rectangle"/>
                  <y:State closed="true"/>
                </y:GroupNode>
              </y:Realizers>
            </y:ProxyAutoBoundsNode>
          </data>
          <graph edgedefault="undirected" id="cif:g1:">
            <node id="cif:g1:p">
              <data key="dn">alg p</data>
              <data key="ng">
                <y:ShapeNode>
                  <y:Geometry width="37.0"/>
                  <y:NodeLabel alignment="center">&lt;html&gt;&lt;span style="color:#0000ff;"&gt;alg&lt;/span&gt;&amp;nbsp;&lt;span style="color:#000000;"&gt;p&lt;/span&gt;&lt;/html&gt;</y:NodeLabel>
                  <y:BorderStyle type="dashed"/>
                  <y:Fill color="#c0e0ff"/>
                  <y:Shape type="octagon"/>
                </y:ShapeNode>
              </data>
            </node>
          </graph>
        </node>
        <node id="cif:g2" yfiles.foldertype="folder">
          <data key="dn">g2: G()</data>
          <data key="ng">
            <y:ProxyAutoBoundsNode>
              <y:Realizers active="1">
                <y:GroupNode>
                  <y:NodeLabel alignment="left" autoSizePolicy="node_width" backgroundColor="#ff8000" fontStyle="italic" modelName="internal" modelPosition="t">&lt;html&gt;&amp;nbsp;&amp;nbsp;&amp;nbsp;&amp;nbsp;&amp;nbsp;&lt;span style="color:#000000;"&gt;g2&lt;/span&gt;&lt;span style="color:#402020;"&gt;:&lt;/span&gt;&amp;nbsp;&lt;span style="color:#000000;"&gt;G&lt;/span&gt;&lt;span style="color:#402020;"&gt;()&lt;/span&gt;&lt;/html&gt;</y:NodeLabel>
                  <y:Fill color="#eeeeee"/>
                  <y:Shape type="rectangle"/>
                  <y:State closed="false"/>
                </y:GroupNode>
                <y:GroupNode>
                  <y:Geometry height="30.0" width="87.0"/>
                  <y:NodeLabel alignment="left" autoSizePolicy="node_width" backgroundColor="#ff8000" fontStyle="italic" modelName="internal" modelPosition="t">&lt;html&gt;&amp;nbsp;&amp;nbsp;&amp;nbsp;&amp;nbsp;&amp;nbsp;&lt;span style="color:#000000;"&gt;g2&lt;/span&gt;&lt;span style="color:#402020;"&gt;:&lt;/span&gt;&amp;nbsp;&lt;span style="color:#000000;"&gt;G&lt;/span&gt;&lt;span style="color:#402020;"&gt;()&lt;/span&gt;&lt;/html&gt;</y:NodeLabel>
                  <y:Fill color="#cccccc"/>
                  <y:Shape type="rectangle"/>
                  <y:State closed="true"/>
                </y:GroupNode>
              </y:Realizers>
            </y:ProxyAutoBoundsNode>
          </data>
          <graph edgedefault="undirected" id="cif:g2:">
            <node id="cif:g2:p">
              <data key="dn">alg p</data>
              <data key="ng">
                <y:ShapeNode>
                  <y:Geometry width="37.0"/>
                  <y:NodeLabel alignment="center">&lt;html&gt;&lt;span style="color:#0000ff;"&gt;alg&lt;/span&gt;&amp;nbsp;&lt;span style="color:#000000;"&gt;p&lt;/span&gt;&lt;/html&gt;</y:NodeLabel>
                  <y:BorderStyle type="dashed"/>
                  <y:Fill color="#c0e0ff"/>
                  <y:Shape type="octagon"/>
                </y:ShapeNode>
              </data>
            </node>
          </graph>
        </node>
        <node id="cif:aut3" yfiles.foldertype="folder">
          <data key="dn">automaton aut3</data>
          <data key="ng">
            <y:ProxyAutoBoundsNode>
              <y:Realizers active="1">
                <y:GroupNode>
                  <y:NodeLabel alignment="left" autoSizePolicy="node_width" backgroundColor="#ff0000" fontStyle="plain" modelName="internal" modelPosition="t">&lt;html&gt;&amp;nbsp;&amp;nbsp;&amp;nbsp;&amp;nbsp;&amp;nbsp;&lt;span style="color:#0000ff;"&gt;automaton&lt;/span&gt;&amp;nbsp;&lt;span style="color:#000000;"&gt;aut3&lt;/span&gt;&lt;/html&gt;</y:NodeLabel>
                  <y:Fill color="#eeeeee"/>
                  <y:Shape type="rectangle"/>
                  <y:State closed="false"/>
                </y:GroupNode>
                <y:GroupNode>
                  <y:Geometry height="30.0" width="136.0"/>
                  <y:NodeLabel alignment="left" autoSizePolicy="node_width" backgroundColor="#ff0000" fontStyle="plain" modelName="internal" modelPosition="t">&lt;html&gt;&amp;nbsp;&amp;nbsp;&amp;nbsp;&amp;nbsp;&amp;nbsp;&lt;span style="color:#0000ff;"&gt;automaton&lt;/span&gt;&amp;nbsp;&lt;span style="color:#000000;"&gt;aut3&lt;/span&gt;&lt;/html&gt;</y:NodeLabel>
                  <y:Fill color="#cccccc"/>
                  <y:Shape type="rectangle"/>
                  <y:State closed="true"/>
                </y:GroupNode>
              </y:Realizers>
            </y:ProxyAutoBoundsNode>
          </data>
          <graph edgedefault="undirected" id="cif:aut3:">
            <node id="cif:aut3::dataref9">
              <data key="dn">x</data>
              <data key="ng">
                <y:ShapeNode>
                  <y:Geometry height="30" width="30"/>
                  <y:Fill color="#80c0ff"/>
                  <y:Shape type="ellipse"/>
                </y:ShapeNode>
              </data>
            </node>
            <node id="cif:aut3:y">
              <data key="dn">disc y</data>
              <data key="ng">
                <y:ShapeNode>
                  <y:Geometry width="41.0"/>
                  <y:NodeLabel alignment="center">&lt;html&gt;&lt;span style="color:#0000ff;"&gt;disc&lt;/span&gt;&amp;nbsp;&lt;span style="color:#000000;"&gt;y&lt;/span&gt;&lt;/html&gt;</y:NodeLabel>
                  <y:BorderStyle width="2.0"/>
                  <y:Fill color="#00c0ff"/>
                  <y:Shape type="rectangle"/>
                </y:ShapeNode>
              </data>
            </node>
            <node id="cif:aut3:x">
              <data key="dn">disc x</data>
              <data key="ng">
                <y:ShapeNode>
                  <y:Geometry width="41.0"/>
                  <y:NodeLabel alignment="center">&lt;html&gt;&lt;span style="color:#0000ff;"&gt;disc&lt;/span&gt;&amp;nbsp;&lt;span style="color:#000000;"&gt;x&lt;/span&gt;&lt;/html&gt;</y:NodeLabel>
                  <y:BorderStyle width="2.0"/>
                  <y:Fill color="#00c0ff"/>
                  <y:Shape type="rectangle"/>
                </y:ShapeNode>
              </data>
            </node>
            <node id="cif:aut3:z">
              <data key="dn">disc z</data>
              <data key="ng">
                <y:ShapeNode>
                  <y:Geometry width="41.0"/>
                  <y:NodeLabel alignment="center">&lt;html&gt;&lt;span style="color:#0000ff;"&gt;disc&lt;/span&gt;&amp;nbsp;&lt;span style="color:#000000;"&gt;z&lt;/span&gt;&lt;/html&gt;</y:NodeLabel>
                  <y:BorderStyle width="2.0"/>
                  <y:Fill color="#00c0ff"/>
                  <y:Shape type="rectangle"/>
                </y:ShapeNode>
              </data>
            </node>
          </graph>
        </node>
        <node id="cif:aut4" yfiles.foldertype="folder">
          <data key="dn">automaton aut4</data>
          <data key="ng">
            <y:ProxyAutoBoundsNode>
              <y:Realizers active="1">
                <y:GroupNode>
                  <y:NodeLabel alignment="left" autoSizePolicy="node_width" backgroundColor="#ff0000" fontStyle="plain" modelName="internal" modelPosition="t">&lt;html&gt;&amp;nbsp;&amp;nbsp;&amp;nbsp;&amp;nbsp;&amp;nbsp;&lt;span style="color:#0000ff;"&gt;automaton&lt;/span&gt;&amp;nbsp;&lt;span style="color:#000000;"&gt;aut4&lt;/span&gt;&lt;/html&gt;</y:NodeLabel>
                  <y:Fill color="#eeeeee"/>
                  <y:Shape type="rectangle"/>
                  <y:State closed="false"/>
                </y:GroupNode>
                <y:GroupNode>
                  <y:Geometry height="30.0" width="136.0"/>
                  <y:NodeLabel alignment="left" autoSizePolicy="node_width" backgroundColor="#ff0000" fontStyle="plain" modelName="internal" modelPosition="t">&lt;html&gt;&amp;nbsp;&amp;nbsp;&amp;nbsp;&amp;nbsp;&amp;nbsp;&lt;span style="color:#0000ff;"&gt;automaton&lt;/span&gt;&amp;nbsp;&lt;span style="color:#000000;"&gt;aut4&lt;/span&gt;&lt;/html&gt;</y:NodeLabel>
                  <y:Fill color="#cccccc"/>
                  <y:Shape type="rectangle"/>
                  <y:State closed="true"/>
                </y:GroupNode>
              </y:Realizers>
            </y:ProxyAutoBoundsNode>
          </data>
          <graph edgedefault="undirected" id="cif:aut4:">
            <node id="cif:aut4:l1">
              <data key="dn">location l1</data>
              <data key="ng">
                <y:ShapeNode>
                  <y:Geometry width="66.0"/>
                  <y:NodeLabel alignment="center">&lt;html&gt;&lt;span style="color:#0000ff;"&gt;location&lt;/span&gt;&amp;nbsp;&lt;span style="color:#000000;"&gt;l1&lt;/span&gt;&lt;/html&gt;</y:NodeLabel>
                  <y:BorderStyle width="2.0"/>
                  <y:Fill color="#00c0ff"/>
                  <y:Shape type="rectangle"/>
                </y:ShapeNode>
              </data>
            </node>
            <node id="cif:aut4:b1">
              <data key="dn">alg b1</data>
              <data key="ng">
                <y:ShapeNode>
                  <y:Geometry width="44.0"/>
                  <y:NodeLabel alignment="center">&lt;html&gt;&lt;span style="color:#0000ff;"&gt;alg&lt;/span&gt;&amp;nbsp;&lt;span style="color:#000000;"&gt;b1&lt;/span&gt;&lt;/html&gt;</y:NodeLabel>
                  <y:BorderStyle width="2.0"/>
                  <y:Fill color="#00c0ff"/>
                  <y:Shape type="rectangle"/>
                </y:ShapeNode>
              </data>
            </node>
          </graph>
        </node>
        <node id="cif:x">
          <data key="dn">alg x</data>
          <data key="ng">
            <y:ShapeNode>
              <y:Geometry width="35.0"/>
              <y:NodeLabel alignment="center">&lt;html&gt;&lt;span style="color:#0000ff;"&gt;alg&lt;/span&gt;&amp;nbsp;&lt;span style="color:#000000;"&gt;x&lt;/span&gt;&lt;/html&gt;</y:NodeLabel>
              <y:BorderStyle width="2.0"/>
              <y:Fill color="#00c0ff"/>
              <y:Shape type="rectangle"/>
            </y:ShapeNode>
          </data>
        </node>
        <node id="cif:y">
          <data key="dn">alg y</data>
          <data key="ng">
            <y:ShapeNode>
              <y:Geometry width="35.0"/>
              <y:NodeLabel alignment="center">&lt;html&gt;&lt;span style="color:#0000ff;"&gt;alg&lt;/span&gt;&amp;nbsp;&lt;span style="color:#000000;"&gt;y&lt;/span&gt;&lt;/html&gt;</y:NodeLabel>
              <y:BorderStyle width="2.0"/>
              <y:Fill color="#00c0ff"/>
              <y:Shape type="rectangle"/>
            </y:ShapeNode>
          </data>
        </node>
        <node id="cif:z">
          <data key="dn">alg z</data>
          <data key="ng">
            <y:ShapeNode>
              <y:Geometry width="35.0"/>
              <y:NodeLabel alignment="center">&lt;html&gt;&lt;span style="color:#0000ff;"&gt;alg&lt;/span&gt;&amp;nbsp;&lt;span style="color:#000000;"&gt;z&lt;/span&gt;&lt;/html&gt;</y:NodeLabel>
              <y:BorderStyle width="2.0"/>
              <y:Fill color="#00c0ff"/>
              <y:Shape type="rectangle"/>
            </y:ShapeNode>
          </data>
        </node>
        <node id="cif:r">
          <data key="dn">alg r</data>
          <data key="ng">
            <y:ShapeNode>
              <y:Geometry width="34.0"/>
              <y:NodeLabel alignment="center">&lt;html&gt;&lt;span style="color:#0000ff;"&gt;alg&lt;/span&gt;&amp;nbsp;&lt;span style="color:#000000;"&gt;r&lt;/span&gt;&lt;/html&gt;</y:NodeLabel>
              <y:BorderStyle width="2.0"/>
              <y:Fill color="#00c0ff"/>
              <y:Shape type="rectangle"/>
            </y:ShapeNode>
          </data>
        </node>
        <node id="cif:c1">
          <data key="dn">cont c1</data>
          <data key="ng">
            <y:ShapeNode>
              <y:Geometry width="49.0"/>
              <y:NodeLabel alignment="center">&lt;html&gt;&lt;span style="color:#0000ff;"&gt;cont&lt;/span&gt;&amp;nbsp;&lt;span style="color:#000000;"&gt;c1&lt;/span&gt;&lt;/html&gt;</y:NodeLabel>
              <y:BorderStyle width="2.0"/>
              <y:Fill color="#00c0ff"/>
              <y:Shape type="rectangle"/>
            </y:ShapeNode>
          </data>
        </node>
        <node id="cif:c2">
          <data key="dn">cont c2</data>
          <data key="ng">
            <y:ShapeNode>
              <y:Geometry width="49.0"/>
              <y:NodeLabel alignment="center">&lt;html&gt;&lt;span style="color:#0000ff;"&gt;cont&lt;/span&gt;&amp;nbsp;&lt;span style="color:#000000;"&gt;c2&lt;/span&gt;&lt;/html&gt;</y:NodeLabel>
              <y:BorderStyle width="2.0"/>
              <y:Fill color="#00c0ff"/>
              <y:Shape type="rectangle"/>
            </y:ShapeNode>
          </data>
        </node>
        <node id="cif:c5">
          <data key="dn">cont c5</data>
          <data key="ng">
            <y:ShapeNode>
              <y:Geometry width="49.0"/>
              <y:NodeLabel alignment="center">&lt;html&gt;&lt;span style="color:#0000ff;"&gt;cont&lt;/span&gt;&amp;nbsp;&lt;span style="color:#000000;"&gt;c5&lt;/span&gt;&lt;/html&gt;</y:NodeLabel>
              <y:BorderStyle width="2.0"/>
              <y:Fill color="#00c0ff"/>
              <y:Shape type="rectangle"/>
            </y:ShapeNode>
          </data>
        </node>
        <node id="cif:c6">
          <data key="dn">cont c6</data>
          <data key="ng">
            <y:ShapeNode>
              <y:Geometry width="49.0"/>
              <y:NodeLabel alignment="center">&lt;html&gt;&lt;span style="color:#0000ff;"&gt;cont&lt;/span&gt;&amp;nbsp;&lt;span style="color:#000000;"&gt;c6&lt;/span&gt;&lt;/html&gt;</y:NodeLabel>
              <y:BorderStyle width="2.0"/>
              <y:Fill color="#00c0ff"/>
              <y:Shape type="rectangle"/>
            </y:ShapeNode>
          </data>
        </node>
        <node id="cif:c7">
          <data key="dn">cont c7</data>
          <data key="ng">
            <y:ShapeNode>
              <y:Geometry width="49.0"/>
              <y:NodeLabel alignment="center">&lt;html&gt;&lt;span style="color:#0000ff;"&gt;cont&lt;/span&gt;&amp;nbsp;&lt;span style="color:#000000;"&gt;c7&lt;/span&gt;&lt;/html&gt;</y:NodeLabel>
              <y:BorderStyle width="2.0"/>
              <y:Fill color="#00c0ff"/>
              <y:Shape type="rectangle"/>
            </y:ShapeNode>
          </data>
        </node>
      </graph>
      <data key="dn">Components</data>
      <data key="ng">
        <y:ProxyAutoBoundsNode>
          <y:Realizers active="1">
            <y:GroupNode>
              <y:NodeLabel alignment="left" autoSizePolicy="node_width" backgroundColor="#80ff40" modelName="internal" modelPosition="t">     Components</y:NodeLabel>
              <y:Fill color="#eeeeee"/>
              <y:Shape type="rectangle"/>
              <y:State closed="false"/>
            </y:GroupNode>
            <y:GroupNode>
              <y:Geometry height="30.0" width="122.0"/>
              <y:NodeLabel alignment="left" autoSizePolicy="node_width" backgroundColor="#80ff40" modelName="internal" modelPosition="t">     Components</y:NodeLabel>
              <y:Fill color="#cccccc"/>
              <y:Shape type="rectangle"/>
              <y:State closed="true"/>
            </y:GroupNode>
          </y:Realizers>
        </y:ProxyAutoBoundsNode>
      </data>
    </node>
    <edge directed="true" source="cif:A:v" target="cif:A::dataref0">
      <data key="eg">
        <y:PolyLineEdge>
          <y:Arrows source="none" target="arrow"/>
          <y:BendStyle smoothed="true"/>
        </y:PolyLineEdge>
      </data>
    </edge>
    <edge directed="true" source="cif:A:p" target="cif:A::dataref1">
      <data key="eg">
        <y:PolyLineEdge>
          <y:Arrows source="none" target="arrow"/>
          <y:BendStyle smoothed="true"/>
        </y:PolyLineEdge>
      </data>
    </edge>
    <edge directed="true" source="cif:G:p" target="cif:G:pp">
      <data key="eg">
        <y:PolyLineEdge>
          <y:Arrows source="none" target="arrow"/>
          <y:BendStyle smoothed="true"/>
        </y:PolyLineEdge>
      </data>
    </edge>
    <edge directed="true" source="cif:G:p" target="cif:G::dataref2">
      <data key="eg">
        <y:PolyLineEdge>
          <y:Arrows source="none" target="arrow"/>
          <y:BendStyle smoothed="true"/>
        </y:PolyLineEdge>
      </data>
    </edge>
    <edge directed="true" source="cif:a2:v" target="cif:a1:p">
      <data key="eg">
        <y:PolyLineEdge>
          <y:Arrows source="none" target="arrow"/>
          <y:BendStyle smoothed="true"/>
        </y:PolyLineEdge>
      </data>
    </edge>
    <edge directed="true" source="cif:r" target="cif:aut1:c3">
      <data key="eg">
        <y:PolyLineEdge>
          <y:Arrows source="none" target="arrow"/>
          <y:BendStyle smoothed="true"/>
        </y:PolyLineEdge>
      </data>
    </edge>
    <edge directed="true" source="cif:r" target="cif:aut2:c4">
      <data key="eg">
        <y:PolyLineEdge>
          <y:Arrows source="none" target="arrow"/>
          <y:BendStyle smoothed="true"/>
        </y:PolyLineEdge>
      </data>
    </edge>
    <edge directed="true" source="cif:x" target="cif:g1:p">
      <data key="eg">
        <y:PolyLineEdge>
          <y:Arrows source="none" target="arrow"/>
          <y:BendStyle smoothed="true"/>
        </y:PolyLineEdge>
      </data>
    </edge>
    <edge directed="true" source="cif:y" target="cif:g1:p">
      <data key="eg">
        <y:PolyLineEdge>
          <y:Arrows source="none" target="arrow"/>
          <y:BendStyle smoothed="true"/>
        </y:PolyLineEdge>
      </data>
    </edge>
    <edge directed="true" source="cif:x" target="cif:g2:p">
      <data key="eg">
        <y:PolyLineEdge>
          <y:Arrows source="none" target="arrow"/>
          <y:BendStyle smoothed="true"/>
        </y:PolyLineEdge>
      </data>
    </edge>
    <edge directed="true" source="cif:y" target="cif:g2:p">
      <data key="eg">
        <y:PolyLineEdge>
          <y:Arrows source="none" target="arrow"/>
          <y:BendStyle smoothed="true"/>
        </y:PolyLineEdge>
      </data>
    </edge>
    <edge directed="true" source="cif:aut3:y" target="cif:aut3:z">
      <data key="eg">
        <y:PolyLineEdge>
          <y:Arrows source="none" target="arrow"/>
          <y:BendStyle smoothed="true"/>
        </y:PolyLineEdge>
      </data>
    </edge>
    <edge directed="true" source="cif:aut3:y" target="cif:aut3:x">
      <data key="eg">
        <y:PolyLineEdge>
          <y:Arrows source="none" target="arrow"/>
          <y:BendStyle smoothed="true"/>
        </y:PolyLineEdge>
      </data>
    </edge>
    <edge directed="true" source="cif:aut3:z" target="cif:aut3:x">
      <data key="eg">
        <y:PolyLineEdge>
          <y:Arrows source="none" target="arrow"/>
          <y:BendStyle smoothed="true"/>
        </y:PolyLineEdge>
      </data>
    </edge>
    <edge directed="true" source="cif:aut3:x" target="cif:aut3::dataref9">
      <data key="eg">
        <y:PolyLineEdge>
          <y:Arrows source="none" target="arrow"/>
          <y:BendStyle smoothed="true"/>
        </y:PolyLineEdge>
      </data>
    </edge>
    <edge directed="false" source="cif:aut4:l1" target="cif:aut4:b1">
      <data key="eg">
        <y:PolyLineEdge>
          <y:Arrows source="arrow" target="arrow"/>
          <y:BendStyle smoothed="true"/>
        </y:PolyLineEdge>
      </data>
    </edge>
    <edge directed="true" source="cif:y" target="cif:x">
      <data key="eg">
        <y:PolyLineEdge>
          <y:Arrows source="none" target="arrow"/>
          <y:BendStyle smoothed="true"/>
        </y:PolyLineEdge>
      </data>
    </edge>
    <edge directed="true" source="cif:x" target="cif:z">
      <data key="eg">
        <y:PolyLineEdge>
          <y:Arrows source="none" target="arrow"/>
          <y:BendStyle smoothed="true"/>
        </y:PolyLineEdge>
      </data>
    </edge>
    <edge directed="true" source="cif:y" target="cif:z">
      <data key="eg">
        <y:PolyLineEdge>
          <y:Arrows source="none" target="arrow"/>
          <y:BendStyle smoothed="true"/>
        </y:PolyLineEdge>
      </data>
    </edge>
    <edge directed="true" source="cif:r" target="cif:c1">
      <data key="eg">
        <y:PolyLineEdge>
          <y:Arrows source="none" target="arrow"/>
          <y:BendStyle smoothed="true"/>
        </y:PolyLineEdge>
      </data>
    </edge>
    <edge directed="true" source="cif:r" target="cif:c2">
      <data key="eg">
        <y:PolyLineEdge>
          <y:Arrows source="none" target="arrow"/>
          <y:BendStyle smoothed="true"/>
        </y:PolyLineEdge>
      </data>
    </edge>
    <edge directed="false" source="cif:c6" target="cif:c5">
      <data key="eg">
        <y:PolyLineEdge>
          <y:Arrows source="arrow" target="arrow"/>
          <y:BendStyle smoothed="true"/>
        </y:PolyLineEdge>
      </data>
    </edge>
    <edge directed="true" source="cif:c7" target="cif:c7">
      <data key="eg">
        <y:PolyLineEdge>
          <y:Arrows source="none" target="arrow"/>
          <y:BendStyle smoothed="true"/>
        </y:PolyLineEdge>
      </data>
    </edge>
  </graph>
</graphml>
