<?xml version="1.0" encoding="UTF-8" standalone="no"?>
<graphml xmlns:xsi="http://www.w3.org/2001/XMLSchema-instance" xmlns:y="http://www.yworks.com/xml/graphml" xsi:schemaLocation="http://graphml.graphdrawing.org/xmlns http://www.yworks.com/xml/schema/graphml/1.1/ygraphml.xsd" xmlns="http://graphml.graphdrawing.org/xmlns">
  <key for="node" id="ng" yfiles.type="nodegraphics"/>
  <key for="edge" id="eg" yfiles.type="edgegraphics"/>
  <key attr.name="description" attr.type="string" for="node" id="dn"/>
  <graph edgedefault="directed" id="cif:">
    <node id="cif:B" yfiles.foldertype="group">
      <data key="dn">automaton def B()</data>
      <data key="ng">
        <y:ProxyAutoBoundsNode>
          <y:Realizers active="0">
            <y:GroupNode>
              <y:NodeLabel alignment="left" autoSizePolicy="node_width" backgroundColor="#40c0ff" fontStyle="plain" modelName="internal" modelPosition="t">&lt;html&gt;&amp;nbsp;&amp;nbsp;&amp;nbsp;&amp;nbsp;&amp;nbsp;&lt;span style="color:#0000ff;"&gt;automaton&lt;/span&gt;&amp;nbsp;&lt;span style="color:#0000ff;"&gt;def&lt;/span&gt;&amp;nbsp;&lt;span style="color:#000000;"&gt;B&lt;/span&gt;&lt;span style="color:#402020;"&gt;()&lt;/span&gt;&lt;/html&gt;</y:NodeLabel>
              <y:Fill color="#eeeeee"/>
              <y:Shape type="rectangle"/>
              <y:State closed="false"/>
            </y:GroupNode>
            <y:GroupNode>
              <y:Geometry height="30.0" width="148.0"/>
              <y:NodeLabel alignment="left" autoSizePolicy="node_width" backgroundColor="#40c0ff" fontStyle="plain" modelName="internal" modelPosition="t">&lt;html&gt;&amp;nbsp;&amp;nbsp;&amp;nbsp;&amp;nbsp;&amp;nbsp;&lt;span style="color:#0000ff;"&gt;automaton&lt;/span&gt;&amp;nbsp;&lt;span style="color:#0000ff;"&gt;def&lt;/span&gt;&amp;nbsp;&lt;span style="color:#000000;"&gt;B&lt;/span&gt;&lt;span style="color:#402020;"&gt;()&lt;/span&gt;&lt;/html&gt;</y:NodeLabel>
              <y:Fill color="#cccccc"/>
              <y:Shape type="rectangle"/>
              <y:State closed="true"/>
            </y:GroupNode>
          </y:Realizers>
        </y:ProxyAutoBoundsNode>
      </data>
      <graph edgedefault="directed" id="cif:B:">
        <node id="cif:B::loc0">
          <data key="dn">location</data>
          <data key="ng">
            <y:ShapeNode>
              <y:Geometry height="30.0" width="60.0"/>
              <y:NodeLabel alignment="left" autoSizePolicy="content" modelName="internal" modelPosition="c">&lt;html&gt;&lt;/html&gt;</y:NodeLabel>
              <y:Fill color="#ccccff"/>
              <y:Shape type="roundrectangle"/>
            </y:ShapeNode>
          </data>
        </node>
        <node id="cif:B::loc0::init">
          <data key="dn">&lt;init&gt;</data>
          <data key="ng">
            <y:ShapeNode>
              <y:Geometry height="1" width="1"/>
              <y:BorderStyle hasColor="false"/>
              <y:Fill transparent="true"/>
            </y:ShapeNode>
          </data>
        </node>
        <edge source="cif:B::loc0::init" target="cif:B::loc0">
          <data key="eg">
            <y:PolyLineEdge>
              <y:Arrows source="none" target="arrow"/>
              <y:BendStyle smoothed="true"/>
            </y:PolyLineEdge>
          </data>
        </edge>
      </graph>
    </node>
    <node id="cif:C" yfiles.foldertype="group">
      <data key="dn">group def C(alg int y)</data>
      <data key="ng">
        <y:ProxyAutoBoundsNode>
          <y:Realizers active="0">
            <y:GroupNode>
              <y:NodeLabel alignment="left" autoSizePolicy="node_width" backgroundColor="#40c0ff" fontStyle="italic" modelName="internal" modelPosition="t">&lt;html&gt;&amp;nbsp;&amp;nbsp;&amp;nbsp;&amp;nbsp;&amp;nbsp;&lt;span style="color:#0000ff;"&gt;group&lt;/span&gt;&amp;nbsp;&lt;span style="color:#0000ff;"&gt;def&lt;/span&gt;&amp;nbsp;&lt;span style="color:#000000;"&gt;C&lt;/span&gt;&lt;span style="color:#402020;"&gt;(&lt;/span&gt;&lt;span style="color:#0000ff;"&gt;alg&lt;/span&gt;&amp;nbsp;&lt;span style="color:#0000ff;"&gt;int&lt;/span&gt;&amp;nbsp;&lt;span style="color:#000000;"&gt;y&lt;/span&gt;&lt;span style="color:#402020;"&gt;)&lt;/span&gt;&lt;/html&gt;</y:NodeLabel>
              <y:Fill color="#eeeeee"/>
              <y:Shape type="rectangle"/>
              <y:State closed="false"/>
            </y:GroupNode>
            <y:GroupNode>
              <y:Geometry height="30.0" width="163.0"/>
              <y:NodeLabel alignment="left" autoSizePolicy="node_width" backgroundColor="#40c0ff" fontStyle="italic" modelName="internal" modelPosition="t">&lt;html&gt;&amp;nbsp;&amp;nbsp;&amp;nbsp;&amp;nbsp;&amp;nbsp;&lt;span style="color:#0000ff;"&gt;group&lt;/span&gt;&amp;nbsp;&lt;span style="color:#0000ff;"&gt;def&lt;/span&gt;&amp;nbsp;&lt;span style="color:#000000;"&gt;C&lt;/span&gt;&lt;span style="color:#402020;"&gt;(&lt;/span&gt;&lt;span style="color:#0000ff;"&gt;alg&lt;/span&gt;&amp;nbsp;&lt;span style="color:#0000ff;"&gt;int&lt;/span&gt;&amp;nbsp;&lt;span style="color:#000000;"&gt;y&lt;/span&gt;&lt;span style="color:#402020;"&gt;)&lt;/span&gt;&lt;/html&gt;</y:NodeLabel>
              <y:Fill color="#cccccc"/>
              <y:Shape type="rectangle"/>
              <y:State closed="true"/>
            </y:GroupNode>
          </y:Realizers>
        </y:ProxyAutoBoundsNode>
      </data>
      <graph edgedefault="directed" id="cif:C:">
        <node id="cif:C:g" yfiles.foldertype="group">
          <data key="dn">group g</data>
          <data key="ng">
            <y:ProxyAutoBoundsNode>
              <y:Realizers active="0">
                <y:GroupNode>
                  <y:NodeLabel alignment="left" autoSizePolicy="node_width" backgroundColor="#ff0000" fontStyle="italic" modelName="internal" modelPosition="t">&lt;html&gt;&amp;nbsp;&amp;nbsp;&amp;nbsp;&amp;nbsp;&amp;nbsp;&lt;span style="color:#0000ff;"&gt;group&lt;/span&gt;&amp;nbsp;&lt;span style="color:#000000;"&gt;g&lt;/span&gt;&lt;/html&gt;</y:NodeLabel>
                  <y:Fill color="#eeeeee"/>
                  <y:Shape type="rectangle"/>
                  <y:State closed="false"/>
                </y:GroupNode>
                <y:GroupNode>
                  <y:Geometry height="30.0" width="92.0"/>
                  <y:NodeLabel alignment="left" autoSizePolicy="node_width" backgroundColor="#ff0000" fontStyle="italic" modelName="internal" modelPosition="t">&lt;html&gt;&amp;nbsp;&amp;nbsp;&amp;nbsp;&amp;nbsp;&amp;nbsp;&lt;span style="color:#0000ff;"&gt;group&lt;/span&gt;&amp;nbsp;&lt;span style="color:#000000;"&gt;g&lt;/span&gt;&lt;/html&gt;</y:NodeLabel>
                  <y:Fill color="#cccccc"/>
                  <y:Shape type="rectangle"/>
                  <y:State closed="true"/>
                </y:GroupNode>
              </y:Realizers>
            </y:ProxyAutoBoundsNode>
          </data>
          <graph edgedefault="directed" id="cif:C:g:">
            <node id="cif:C:g::code" yfiles.foldertype="group">
              <data key="dn">Declarations</data>
              <data key="ng">
                <y:ProxyAutoBoundsNode>
                  <y:Realizers active="0">
                    <y:GroupNode>
                      <y:Geometry height="82.28125" width="113.0"/>
                      <y:NodeLabel alignment="left" autoSizePolicy="node_width" backgroundColor="#eeee80" modelName="internal" modelPosition="t">     Declarations</y:NodeLabel>
                      <y:NodeLabel alignment="left" autoSizePolicy="content" borderDistance="18" bottomInset="3" leftInset="3" modelName="internal" modelPosition="t" rightInset="3" topInset="3">&lt;html&gt;&lt;span style="color:#0000ff;"&gt;const&lt;/span&gt;&amp;nbsp;&lt;span style="color:#0000ff;"&gt;int&lt;/span&gt;&lt;span style="color:#402020;"&gt;[&lt;/span&gt;&lt;span style="color:#006100;"&gt;5&lt;/span&gt;&lt;span style="color:#402020;"&gt;..&lt;/span&gt;&lt;span style="color:#006100;"&gt;5&lt;/span&gt;&lt;span style="color:#402020;"&gt;]&lt;/span&gt;&amp;nbsp;&lt;span style="color:#000000;"&gt;x&lt;/span&gt;&amp;nbsp;&lt;span style="color:#402020;"&gt;=&lt;/span&gt;&amp;nbsp;&lt;span style="color:#006100;"&gt;5&lt;/span&gt;&lt;span style="color:#402020;"&gt;;&lt;/span&gt;&lt;br&gt;&lt;br&gt;&lt;span style="color:#0000ff;"&gt;invariant&lt;/span&gt;&amp;nbsp;&lt;span style="color:#000000;"&gt;x&lt;/span&gt;&amp;nbsp;&lt;span style="color:#402020;"&gt;=&lt;/span&gt;&amp;nbsp;&lt;span style="color:#000000;"&gt;y&lt;/span&gt;&lt;span style="color:#402020;"&gt;;&lt;/span&gt;&lt;/html&gt;</y:NodeLabel>
                      <y:BorderStyle lineType="dashed"/>
                      <y:Fill color="#ffffcc"/>
                      <y:Shape type="rectangle"/>
                      <y:State closed="false"/>
                    </y:GroupNode>
                    <y:GroupNode>
                      <y:Geometry height="54.0" width="95.0"/>
                      <y:NodeLabel alignment="left" autoSizePolicy="node_width" backgroundColor="#eeee80" modelName="internal" modelPosition="t">     Declarations</y:NodeLabel>
                      <y:NodeLabel alignment="left" autoSizePolicy="content" borderDistance="18" bottomInset="3" leftInset="3" modelName="internal" modelPosition="t" rightInset="3" topInset="3">...</y:NodeLabel>
                      <y:BorderStyle lineType="dashed"/>
                      <y:Fill color="#ffffcc"/>
                      <y:Shape type="rectangle"/>
                      <y:State closed="true"/>
                    </y:GroupNode>
                  </y:Realizers>
                </y:ProxyAutoBoundsNode>
              </data>
            </node>
          </graph>
        </node>
      </graph>
    </node>
    <node id="cif:D" yfiles.foldertype="group">
      <data key="dn">group def D(event e)</data>
      <data key="ng">
        <y:ProxyAutoBoundsNode>
          <y:Realizers active="0">
            <y:GroupNode>
              <y:NodeLabel alignment="left" autoSizePolicy="node_width" backgroundColor="#40c0ff" fontStyle="italic" modelName="internal" modelPosition="t">&lt;html&gt;&amp;nbsp;&amp;nbsp;&amp;nbsp;&amp;nbsp;&amp;nbsp;&lt;span style="color:#0000ff;"&gt;group&lt;/span&gt;&amp;nbsp;&lt;span style="color:#0000ff;"&gt;def&lt;/span&gt;&amp;nbsp;&lt;span style="color:#000000;"&gt;D&lt;/span&gt;&lt;span style="color:#402020;"&gt;(&lt;/span&gt;&lt;span style="color:#0000ff;"&gt;event&lt;/span&gt;&amp;nbsp;&lt;span style="color:#000000;"&gt;e&lt;/span&gt;&lt;span style="color:#402020;"&gt;)&lt;/span&gt;&lt;/html&gt;</y:NodeLabel>
              <y:Fill color="#eeeeee"/>
              <y:Shape type="rectangle"/>
              <y:State closed="false"/>
            </y:GroupNode>
            <y:GroupNode>
              <y:Geometry height="30.0" width="161.0"/>
              <y:NodeLabel alignment="left" autoSizePolicy="node_width" backgroundColor="#40c0ff" fontStyle="italic" modelName="internal" modelPosition="t">&lt;html&gt;&amp;nbsp;&amp;nbsp;&amp;nbsp;&amp;nbsp;&amp;nbsp;&lt;span style="color:#0000ff;"&gt;group&lt;/span&gt;&amp;nbsp;&lt;span style="color:#0000ff;"&gt;def&lt;/span&gt;&amp;nbsp;&lt;span style="color:#000000;"&gt;D&lt;/span&gt;&lt;span style="color:#402020;"&gt;(&lt;/span&gt;&lt;span style="color:#0000ff;"&gt;event&lt;/span&gt;&amp;nbsp;&lt;span style="color:#000000;"&gt;e&lt;/span&gt;&lt;span style="color:#402020;"&gt;)&lt;/span&gt;&lt;/html&gt;</y:NodeLabel>
              <y:Fill color="#cccccc"/>
              <y:Shape type="rectangle"/>
              <y:State closed="true"/>
            </y:GroupNode>
          </y:Realizers>
        </y:ProxyAutoBoundsNode>
      </data>
      <graph edgedefault="directed" id="cif:D:">
        <node id="cif:D:g" yfiles.foldertype="group">
          <data key="dn">group g</data>
          <data key="ng">
            <y:ProxyAutoBoundsNode>
              <y:Realizers active="0">
                <y:GroupNode>
                  <y:NodeLabel alignment="left" autoSizePolicy="node_width" backgroundColor="#ff0000" fontStyle="italic" modelName="internal" modelPosition="t">&lt;html&gt;&amp;nbsp;&amp;nbsp;&amp;nbsp;&amp;nbsp;&amp;nbsp;&lt;span style="color:#0000ff;"&gt;group&lt;/span&gt;&amp;nbsp;&lt;span style="color:#000000;"&gt;g&lt;/span&gt;&lt;/html&gt;</y:NodeLabel>
                  <y:Fill color="#eeeeee"/>
                  <y:Shape type="rectangle"/>
                  <y:State closed="false"/>
                </y:GroupNode>
                <y:GroupNode>
                  <y:Geometry height="30.0" width="92.0"/>
                  <y:NodeLabel alignment="left" autoSizePolicy="node_width" backgroundColor="#ff0000" fontStyle="italic" modelName="internal" modelPosition="t">&lt;html&gt;&amp;nbsp;&amp;nbsp;&amp;nbsp;&amp;nbsp;&amp;nbsp;&lt;span style="color:#0000ff;"&gt;group&lt;/span&gt;&amp;nbsp;&lt;span style="color:#000000;"&gt;g&lt;/span&gt;&lt;/html&gt;</y:NodeLabel>
                  <y:Fill color="#cccccc"/>
                  <y:Shape type="rectangle"/>
                  <y:State closed="true"/>
                </y:GroupNode>
              </y:Realizers>
            </y:ProxyAutoBoundsNode>
          </data>
          <graph edgedefault="directed" id="cif:D:g:">
            <node id="cif:D:g::code" yfiles.foldertype="group">
              <data key="dn">Declarations</data>
              <data key="ng">
                <y:ProxyAutoBoundsNode>
                  <y:Realizers active="0">
                    <y:GroupNode>
                      <y:Geometry height="82.28125" width="113.0"/>
                      <y:NodeLabel alignment="left" autoSizePolicy="node_width" backgroundColor="#eeee80" modelName="internal" modelPosition="t">     Declarations</y:NodeLabel>
                      <y:NodeLabel alignment="left" autoSizePolicy="content" borderDistance="18" bottomInset="3" leftInset="3" modelName="internal" modelPosition="t" rightInset="3" topInset="3">&lt;html&gt;&lt;span style="color:#0000ff;"&gt;const&lt;/span&gt;&amp;nbsp;&lt;span style="color:#0000ff;"&gt;int&lt;/span&gt;&lt;span style="color:#402020;"&gt;[&lt;/span&gt;&lt;span style="color:#006100;"&gt;5&lt;/span&gt;&lt;span style="color:#402020;"&gt;..&lt;/span&gt;&lt;span style="color:#006100;"&gt;5&lt;/span&gt;&lt;span style="color:#402020;"&gt;]&lt;/span&gt;&amp;nbsp;&lt;span style="color:#000000;"&gt;x&lt;/span&gt;&amp;nbsp;&lt;span style="color:#402020;"&gt;=&lt;/span&gt;&amp;nbsp;&lt;span style="color:#006100;"&gt;5&lt;/span&gt;&lt;span style="color:#402020;"&gt;;&lt;/span&gt;&lt;br&gt;&lt;br&gt;&lt;span style="color:#0000ff;"&gt;invariant&lt;/span&gt;&amp;nbsp;&lt;span style="color:#000000;"&gt;x&lt;/span&gt;&amp;nbsp;&lt;span style="color:#402020;"&gt;=&lt;/span&gt;&amp;nbsp;&lt;span style="color:#006100;"&gt;5&lt;/span&gt;&lt;span style="color:#402020;"&gt;;&lt;/span&gt;&lt;/html&gt;</y:NodeLabel>
                      <y:BorderStyle lineType="dashed"/>
                      <y:Fill color="#ffffcc"/>
                      <y:Shape type="rectangle"/>
                      <y:State closed="false"/>
                    </y:GroupNode>
                    <y:GroupNode>
                      <y:Geometry height="54.0" width="95.0"/>
                      <y:NodeLabel alignment="left" autoSizePolicy="node_width" backgroundColor="#eeee80" modelName="internal" modelPosition="t">     Declarations</y:NodeLabel>
                      <y:NodeLabel alignment="left" autoSizePolicy="content" borderDistance="18" bottomInset="3" leftInset="3" modelName="internal" modelPosition="t" rightInset="3" topInset="3">...</y:NodeLabel>
                      <y:BorderStyle lineType="dashed"/>
                      <y:Fill color="#ffffcc"/>
                      <y:Shape type="rectangle"/>
                      <y:State closed="true"/>
                    </y:GroupNode>
                  </y:Realizers>
                </y:ProxyAutoBoundsNode>
              </data>
            </node>
          </graph>
        </node>
        <node id="cif:D:h" yfiles.foldertype="group">
          <data key="dn">group h</data>
          <data key="ng">
            <y:ProxyAutoBoundsNode>
              <y:Realizers active="0">
                <y:GroupNode>
                  <y:NodeLabel alignment="left" autoSizePolicy="node_width" backgroundColor="#ff0000" fontStyle="italic" modelName="internal" modelPosition="t">&lt;html&gt;&amp;nbsp;&amp;nbsp;&amp;nbsp;&amp;nbsp;&amp;nbsp;&lt;span style="color:#0000ff;"&gt;group&lt;/span&gt;&amp;nbsp;&lt;span style="color:#000000;"&gt;h&lt;/span&gt;&lt;/html&gt;</y:NodeLabel>
                  <y:Fill color="#eeeeee"/>
                  <y:Shape type="rectangle"/>
                  <y:State closed="false"/>
                </y:GroupNode>
                <y:GroupNode>
                  <y:Geometry height="30.0" width="92.0"/>
                  <y:NodeLabel alignment="left" autoSizePolicy="node_width" backgroundColor="#ff0000" fontStyle="italic" modelName="internal" modelPosition="t">&lt;html&gt;&amp;nbsp;&amp;nbsp;&amp;nbsp;&amp;nbsp;&amp;nbsp;&lt;span style="color:#0000ff;"&gt;group&lt;/span&gt;&amp;nbsp;&lt;span style="color:#000000;"&gt;h&lt;/span&gt;&lt;/html&gt;</y:NodeLabel>
                  <y:Fill color="#cccccc"/>
                  <y:Shape type="rectangle"/>
                  <y:State closed="true"/>
                </y:GroupNode>
              </y:Realizers>
            </y:ProxyAutoBoundsNode>
          </data>
          <graph edgedefault="directed" id="cif:D:h:"/>
        </node>
        <node id="cif:D:a" yfiles.foldertype="group">
          <data key="dn">automaton a</data>
          <data key="ng">
            <y:ProxyAutoBoundsNode>
              <y:Realizers active="0">
                <y:GroupNode>
                  <y:NodeLabel alignment="left" autoSizePolicy="node_width" backgroundColor="#ff0000" fontStyle="plain" modelName="internal" modelPosition="t">&lt;html&gt;&amp;nbsp;&amp;nbsp;&amp;nbsp;&amp;nbsp;&amp;nbsp;&lt;span style="color:#0000ff;"&gt;automaton&lt;/span&gt;&amp;nbsp;&lt;span style="color:#000000;"&gt;a&lt;/span&gt;&lt;/html&gt;</y:NodeLabel>
                  <y:Fill color="#eeeeee"/>
                  <y:Shape type="rectangle"/>
                  <y:State closed="false"/>
                </y:GroupNode>
                <y:GroupNode>
                  <y:Geometry height="30.0" width="119.0"/>
                  <y:NodeLabel alignment="left" autoSizePolicy="node_width" backgroundColor="#ff0000" fontStyle="plain" modelName="internal" modelPosition="t">&lt;html&gt;&amp;nbsp;&amp;nbsp;&amp;nbsp;&amp;nbsp;&amp;nbsp;&lt;span style="color:#0000ff;"&gt;automaton&lt;/span&gt;&amp;nbsp;&lt;span style="color:#000000;"&gt;a&lt;/span&gt;&lt;/html&gt;</y:NodeLabel>
                  <y:Fill color="#cccccc"/>
                  <y:Shape type="rectangle"/>
                  <y:State closed="true"/>
                </y:GroupNode>
              </y:Realizers>
            </y:ProxyAutoBoundsNode>
          </data>
          <graph edgedefault="directed" id="cif:D:a:">
            <node id="cif:D:a::loc0">
              <data key="dn">location</data>
              <data key="ng">
                <y:ShapeNode>
                  <y:Geometry height="30.0" width="60.0"/>
                  <y:NodeLabel alignment="left" autoSizePolicy="content" modelName="internal" modelPosition="c">&lt;html&gt;&lt;/html&gt;</y:NodeLabel>
                  <y:Fill color="#ccccff"/>
                  <y:Shape type="roundrectangle"/>
                </y:ShapeNode>
              </data>
            </node>
            <node id="cif:D:a::loc0::init">
              <data key="dn">&lt;init&gt;</data>
              <data key="ng">
                <y:ShapeNode>
                  <y:Geometry height="1" width="1"/>
                  <y:BorderStyle hasColor="false"/>
                  <y:Fill transparent="true"/>
                </y:ShapeNode>
              </data>
            </node>
            <edge source="cif:D:a::loc0::init" target="cif:D:a::loc0">
              <data key="eg">
                <y:PolyLineEdge>
                  <y:Arrows source="none" target="arrow"/>
                  <y:BendStyle smoothed="true"/>
                </y:PolyLineEdge>
              </data>
            </edge>
            <edge source="cif:D:a::loc0" target="cif:D:a::loc0">
              <data key="eg">
                <y:PolyLineEdge>
                  <y:Arrows source="none" target="arrow"/>
                  <y:BendStyle smoothed="true"/>
                  <y:EdgeLabel alignment="center" backgroundColor="#eeeeee">&lt;html&gt;&lt;span style="color:#000000;"&gt;e&lt;/span&gt;&lt;/html&gt;</y:EdgeLabel>
                </y:PolyLineEdge>
              </data>
            </edge>
          </graph>
        </node>
      </graph>
    </node>
    <node id="cif:E" yfiles.foldertype="group">
      <data key="dn">group def E()</data>
      <data key="ng">
        <y:ProxyAutoBoundsNode>
          <y:Realizers active="0">
            <y:GroupNode>
              <y:NodeLabel alignment="left" autoSizePolicy="node_width" backgroundColor="#40c0ff" fontStyle="italic" modelName="internal" modelPosition="t">&lt;html&gt;&amp;nbsp;&amp;nbsp;&amp;nbsp;&amp;nbsp;&amp;nbsp;&lt;span style="color:#0000ff;"&gt;group&lt;/span&gt;&amp;nbsp;&lt;span style="color:#0000ff;"&gt;def&lt;/span&gt;&amp;nbsp;&lt;span style="color:#000000;"&gt;E&lt;/span&gt;&lt;span style="color:#402020;"&gt;()&lt;/span&gt;&lt;/html&gt;</y:NodeLabel>
              <y:Fill color="#eeeeee"/>
              <y:Shape type="rectangle"/>
              <y:State closed="false"/>
            </y:GroupNode>
            <y:GroupNode>
              <y:Geometry height="30.0" width="121.0"/>
              <y:NodeLabel alignment="left" autoSizePolicy="node_width" backgroundColor="#40c0ff" fontStyle="italic" modelName="internal" modelPosition="t">&lt;html&gt;&amp;nbsp;&amp;nbsp;&amp;nbsp;&amp;nbsp;&amp;nbsp;&lt;span style="color:#0000ff;"&gt;group&lt;/span&gt;&amp;nbsp;&lt;span style="color:#0000ff;"&gt;def&lt;/span&gt;&amp;nbsp;&lt;span style="color:#000000;"&gt;E&lt;/span&gt;&lt;span style="color:#402020;"&gt;()&lt;/span&gt;&lt;/html&gt;</y:NodeLabel>
              <y:Fill color="#cccccc"/>
              <y:Shape type="rectangle"/>
              <y:State closed="true"/>
            </y:GroupNode>
          </y:Realizers>
        </y:ProxyAutoBoundsNode>
      </data>
      <graph edgedefault="directed" id="cif:E:">
        <node id="cif:E:i" yfiles.foldertype="group">
          <data key="dn">group i</data>
          <data key="ng">
            <y:ProxyAutoBoundsNode>
              <y:Realizers active="0">
                <y:GroupNode>
                  <y:NodeLabel alignment="left" autoSizePolicy="node_width" backgroundColor="#ff0000" fontStyle="italic" modelName="internal" modelPosition="t">&lt;html&gt;&amp;nbsp;&amp;nbsp;&amp;nbsp;&amp;nbsp;&amp;nbsp;&lt;span style="color:#0000ff;"&gt;group&lt;/span&gt;&amp;nbsp;&lt;span style="color:#000000;"&gt;i&lt;/span&gt;&lt;/html&gt;</y:NodeLabel>
                  <y:Fill color="#eeeeee"/>
                  <y:Shape type="rectangle"/>
                  <y:State closed="false"/>
                </y:GroupNode>
                <y:GroupNode>
                  <y:Geometry height="30.0" width="88.0"/>
                  <y:NodeLabel alignment="left" autoSizePolicy="node_width" backgroundColor="#ff0000" fontStyle="italic" modelName="internal" modelPosition="t">&lt;html&gt;&amp;nbsp;&amp;nbsp;&amp;nbsp;&amp;nbsp;&amp;nbsp;&lt;span style="color:#0000ff;"&gt;group&lt;/span&gt;&amp;nbsp;&lt;span style="color:#000000;"&gt;i&lt;/span&gt;&lt;/html&gt;</y:NodeLabel>
                  <y:Fill color="#cccccc"/>
                  <y:Shape type="rectangle"/>
                  <y:State closed="true"/>
                </y:GroupNode>
              </y:Realizers>
            </y:ProxyAutoBoundsNode>
          </data>
          <graph edgedefault="directed" id="cif:E:i:"/>
        </node>
      </graph>
    </node>
    <node id="cif:a" yfiles.foldertype="group">
      <data key="dn">automaton a</data>
      <data key="ng">
        <y:ProxyAutoBoundsNode>
          <y:Realizers active="0">
            <y:GroupNode>
              <y:NodeLabel alignment="left" autoSizePolicy="node_width" backgroundColor="#ff0000" fontStyle="plain" modelName="internal" modelPosition="t">&lt;html&gt;&amp;nbsp;&amp;nbsp;&amp;nbsp;&amp;nbsp;&amp;nbsp;&lt;span style="color:#0000ff;"&gt;automaton&lt;/span&gt;&amp;nbsp;&lt;span style="color:#000000;"&gt;a&lt;/span&gt;&lt;/html&gt;</y:NodeLabel>
              <y:Fill color="#eeeeee"/>
              <y:Shape type="rectangle"/>
              <y:State closed="false"/>
            </y:GroupNode>
            <y:GroupNode>
              <y:Geometry height="30.0" width="119.0"/>
              <y:NodeLabel alignment="left" autoSizePolicy="node_width" backgroundColor="#ff0000" fontStyle="plain" modelName="internal" modelPosition="t">&lt;html&gt;&amp;nbsp;&amp;nbsp;&amp;nbsp;&amp;nbsp;&amp;nbsp;&lt;span style="color:#0000ff;"&gt;automaton&lt;/span&gt;&amp;nbsp;&lt;span style="color:#000000;"&gt;a&lt;/span&gt;&lt;/html&gt;</y:NodeLabel>
              <y:Fill color="#cccccc"/>
              <y:Shape type="rectangle"/>
              <y:State closed="true"/>
            </y:GroupNode>
          </y:Realizers>
        </y:ProxyAutoBoundsNode>
      </data>
      <graph edgedefault="directed" id="cif:a:">
        <node id="cif:a::loc0">
          <data key="dn">location</data>
          <data key="ng">
            <y:ShapeNode>
              <y:Geometry height="30.0" width="60.0"/>
              <y:NodeLabel alignment="left" autoSizePolicy="content" modelName="internal" modelPosition="c">&lt;html&gt;&lt;/html&gt;</y:NodeLabel>
              <y:Fill color="#ccccff"/>
              <y:Shape type="roundrectangle"/>
            </y:ShapeNode>
          </data>
        </node>
        <node id="cif:a::loc0::init">
          <data key="dn">&lt;init&gt;</data>
          <data key="ng">
            <y:ShapeNode>
              <y:Geometry height="1" width="1"/>
              <y:BorderStyle hasColor="false"/>
              <y:Fill transparent="true"/>
            </y:ShapeNode>
          </data>
        </node>
        <edge source="cif:a::loc0::init" target="cif:a::loc0">
          <data key="eg">
            <y:PolyLineEdge>
              <y:Arrows source="none" target="arrow"/>
              <y:BendStyle smoothed="true"/>
            </y:PolyLineEdge>
          </data>
        </edge>
      </graph>
    </node>
    <node id="cif:g1" yfiles.foldertype="group">
      <data key="dn">group g1</data>
      <data key="ng">
        <y:ProxyAutoBoundsNode>
          <y:Realizers active="0">
            <y:GroupNode>
              <y:NodeLabel alignment="left" autoSizePolicy="node_width" backgroundColor="#ff0000" fontStyle="italic" modelName="internal" modelPosition="t">&lt;html&gt;&amp;nbsp;&amp;nbsp;&amp;nbsp;&amp;nbsp;&amp;nbsp;&lt;span style="color:#0000ff;"&gt;group&lt;/span&gt;&amp;nbsp;&lt;span style="color:#000000;"&gt;g1&lt;/span&gt;&lt;/html&gt;</y:NodeLabel>
              <y:Fill color="#eeeeee"/>
              <y:Shape type="rectangle"/>
              <y:State closed="false"/>
            </y:GroupNode>
            <y:GroupNode>
              <y:Geometry height="30.0" width="99.0"/>
              <y:NodeLabel alignment="left" autoSizePolicy="node_width" backgroundColor="#ff0000" fontStyle="italic" modelName="internal" modelPosition="t">&lt;html&gt;&amp;nbsp;&amp;nbsp;&amp;nbsp;&amp;nbsp;&amp;nbsp;&lt;span style="color:#0000ff;"&gt;group&lt;/span&gt;&amp;nbsp;&lt;span style="color:#000000;"&gt;g1&lt;/span&gt;&lt;/html&gt;</y:NodeLabel>
              <y:Fill color="#cccccc"/>
              <y:Shape type="rectangle"/>
              <y:State closed="true"/>
            </y:GroupNode>
          </y:Realizers>
        </y:ProxyAutoBoundsNode>
      </data>
      <graph edgedefault="directed" id="cif:g1:"/>
    </node>
    <node id="cif:g2" yfiles.foldertype="group">
      <data key="dn">group g2</data>
      <data key="ng">
        <y:ProxyAutoBoundsNode>
          <y:Realizers active="0">
            <y:GroupNode>
              <y:NodeLabel alignment="left" autoSizePolicy="node_width" backgroundColor="#ff0000" fontStyle="italic" modelName="internal" modelPosition="t">&lt;html&gt;&amp;nbsp;&amp;nbsp;&amp;nbsp;&amp;nbsp;&amp;nbsp;&lt;span style="color:#0000ff;"&gt;group&lt;/span&gt;&amp;nbsp;&lt;span style="color:#000000;"&gt;g2&lt;/span&gt;&lt;/html&gt;</y:NodeLabel>
              <y:Fill color="#eeeeee"/>
              <y:Shape type="rectangle"/>
              <y:State closed="false"/>
            </y:GroupNode>
            <y:GroupNode>
              <y:Geometry height="30.0" width="99.0"/>
              <y:NodeLabel alignment="left" autoSizePolicy="node_width" backgroundColor="#ff0000" fontStyle="italic" modelName="internal" modelPosition="t">&lt;html&gt;&amp;nbsp;&amp;nbsp;&amp;nbsp;&amp;nbsp;&amp;nbsp;&lt;span style="color:#0000ff;"&gt;group&lt;/span&gt;&amp;nbsp;&lt;span style="color:#000000;"&gt;g2&lt;/span&gt;&lt;/html&gt;</y:NodeLabel>
              <y:Fill color="#cccccc"/>
              <y:Shape type="rectangle"/>
              <y:State closed="true"/>
            </y:GroupNode>
          </y:Realizers>
        </y:ProxyAutoBoundsNode>
      </data>
      <graph edgedefault="directed" id="cif:g2:">
        <node id="cif:g2:g3" yfiles.foldertype="group">
          <data key="dn">group g3</data>
          <data key="ng">
            <y:ProxyAutoBoundsNode>
              <y:Realizers active="0">
                <y:GroupNode>
                  <y:NodeLabel alignment="left" autoSizePolicy="node_width" backgroundColor="#ff0000" fontStyle="italic" modelName="internal" modelPosition="t">&lt;html&gt;&amp;nbsp;&amp;nbsp;&amp;nbsp;&amp;nbsp;&amp;nbsp;&lt;span style="color:#0000ff;"&gt;group&lt;/span&gt;&amp;nbsp;&lt;span style="color:#000000;"&gt;g3&lt;/span&gt;&lt;/html&gt;</y:NodeLabel>
                  <y:Fill color="#eeeeee"/>
                  <y:Shape type="rectangle"/>
                  <y:State closed="false"/>
                </y:GroupNode>
                <y:GroupNode>
                  <y:Geometry height="30.0" width="99.0"/>
                  <y:NodeLabel alignment="left" autoSizePolicy="node_width" backgroundColor="#ff0000" fontStyle="italic" modelName="internal" modelPosition="t">&lt;html&gt;&amp;nbsp;&amp;nbsp;&amp;nbsp;&amp;nbsp;&amp;nbsp;&lt;span style="color:#0000ff;"&gt;group&lt;/span&gt;&amp;nbsp;&lt;span style="color:#000000;"&gt;g3&lt;/span&gt;&lt;/html&gt;</y:NodeLabel>
                  <y:Fill color="#cccccc"/>
                  <y:Shape type="rectangle"/>
                  <y:State closed="true"/>
                </y:GroupNode>
              </y:Realizers>
            </y:ProxyAutoBoundsNode>
          </data>
          <graph edgedefault="directed" id="cif:g2:g3:">
            <node id="cif:g2:g3:g4" yfiles.foldertype="group">
              <data key="dn">group g4</data>
              <data key="ng">
                <y:ProxyAutoBoundsNode>
                  <y:Realizers active="0">
                    <y:GroupNode>
                      <y:NodeLabel alignment="left" autoSizePolicy="node_width" backgroundColor="#ff0000" fontStyle="italic" modelName="internal" modelPosition="t">&lt;html&gt;&amp;nbsp;&amp;nbsp;&amp;nbsp;&amp;nbsp;&amp;nbsp;&lt;span style="color:#0000ff;"&gt;group&lt;/span&gt;&amp;nbsp;&lt;span style="color:#000000;"&gt;g4&lt;/span&gt;&lt;/html&gt;</y:NodeLabel>
                      <y:Fill color="#eeeeee"/>
                      <y:Shape type="rectangle"/>
                      <y:State closed="false"/>
                    </y:GroupNode>
                    <y:GroupNode>
                      <y:Geometry height="30.0" width="99.0"/>
                      <y:NodeLabel alignment="left" autoSizePolicy="node_width" backgroundColor="#ff0000" fontStyle="italic" modelName="internal" modelPosition="t">&lt;html&gt;&amp;nbsp;&amp;nbsp;&amp;nbsp;&amp;nbsp;&amp;nbsp;&lt;span style="color:#0000ff;"&gt;group&lt;/span&gt;&amp;nbsp;&lt;span style="color:#000000;"&gt;g4&lt;/span&gt;&lt;/html&gt;</y:NodeLabel>
                      <y:Fill color="#cccccc"/>
                      <y:Shape type="rectangle"/>
                      <y:State closed="true"/>
                    </y:GroupNode>
                  </y:Realizers>
                </y:ProxyAutoBoundsNode>
              </data>
              <graph edgedefault="directed" id="cif:g2:g3:g4:"/>
            </node>
          </graph>
        </node>
        <node id="cif:g2:g5" yfiles.foldertype="group">
          <data key="dn">group g5</data>
          <data key="ng">
            <y:ProxyAutoBoundsNode>
              <y:Realizers active="0">
                <y:GroupNode>
                  <y:NodeLabel alignment="left" autoSizePolicy="node_width" backgroundColor="#ff0000" fontStyle="italic" modelName="internal" modelPosition="t">&lt;html&gt;&amp;nbsp;&amp;nbsp;&amp;nbsp;&amp;nbsp;&amp;nbsp;&lt;span style="color:#0000ff;"&gt;group&lt;/span&gt;&amp;nbsp;&lt;span style="color:#000000;"&gt;g5&lt;/span&gt;&lt;/html&gt;</y:NodeLabel>
                  <y:Fill color="#eeeeee"/>
                  <y:Shape type="rectangle"/>
                  <y:State closed="false"/>
                </y:GroupNode>
                <y:GroupNode>
                  <y:Geometry height="30.0" width="99.0"/>
                  <y:NodeLabel alignment="left" autoSizePolicy="node_width" backgroundColor="#ff0000" fontStyle="italic" modelName="internal" modelPosition="t">&lt;html&gt;&amp;nbsp;&amp;nbsp;&amp;nbsp;&amp;nbsp;&amp;nbsp;&lt;span style="color:#0000ff;"&gt;group&lt;/span&gt;&amp;nbsp;&lt;span style="color:#000000;"&gt;g5&lt;/span&gt;&lt;/html&gt;</y:NodeLabel>
                  <y:Fill color="#cccccc"/>
                  <y:Shape type="rectangle"/>
                  <y:State closed="true"/>
                </y:GroupNode>
              </y:Realizers>
            </y:ProxyAutoBoundsNode>
          </data>
          <graph edgedefault="directed" id="cif:g2:g5:"/>
        </node>
      </graph>
    </node>
    <node id="cif:g6" yfiles.foldertype="group">
      <data key="dn">group g6</data>
      <data key="ng">
        <y:ProxyAutoBoundsNode>
          <y:Realizers active="0">
            <y:GroupNode>
              <y:NodeLabel alignment="left" autoSizePolicy="node_width" backgroundColor="#ff0000" fontStyle="italic" modelName="internal" modelPosition="t">&lt;html&gt;&amp;nbsp;&amp;nbsp;&amp;nbsp;&amp;nbsp;&amp;nbsp;&lt;span style="color:#0000ff;"&gt;group&lt;/span&gt;&amp;nbsp;&lt;span style="color:#000000;"&gt;g6&lt;/span&gt;&lt;/html&gt;</y:NodeLabel>
              <y:Fill color="#eeeeee"/>
              <y:Shape type="rectangle"/>
              <y:State closed="false"/>
            </y:GroupNode>
            <y:GroupNode>
              <y:Geometry height="30.0" width="99.0"/>
              <y:NodeLabel alignment="left" autoSizePolicy="node_width" backgroundColor="#ff0000" fontStyle="italic" modelName="internal" modelPosition="t">&lt;html&gt;&amp;nbsp;&amp;nbsp;&amp;nbsp;&amp;nbsp;&amp;nbsp;&lt;span style="color:#0000ff;"&gt;group&lt;/span&gt;&amp;nbsp;&lt;span style="color:#000000;"&gt;g6&lt;/span&gt;&lt;/html&gt;</y:NodeLabel>
              <y:Fill color="#cccccc"/>
              <y:Shape type="rectangle"/>
              <y:State closed="true"/>
            </y:GroupNode>
          </y:Realizers>
        </y:ProxyAutoBoundsNode>
      </data>
      <graph edgedefault="directed" id="cif:g6:">
        <node id="cif:g6:g7" yfiles.foldertype="group">
          <data key="dn">group g7</data>
          <data key="ng">
            <y:ProxyAutoBoundsNode>
              <y:Realizers active="0">
                <y:GroupNode>
                  <y:NodeLabel alignment="left" autoSizePolicy="node_width" backgroundColor="#ff0000" fontStyle="italic" modelName="internal" modelPosition="t">&lt;html&gt;&amp;nbsp;&amp;nbsp;&amp;nbsp;&amp;nbsp;&amp;nbsp;&lt;span style="color:#0000ff;"&gt;group&lt;/span&gt;&amp;nbsp;&lt;span style="color:#000000;"&gt;g7&lt;/span&gt;&lt;/html&gt;</y:NodeLabel>
                  <y:Fill color="#eeeeee"/>
                  <y:Shape type="rectangle"/>
                  <y:State closed="false"/>
                </y:GroupNode>
                <y:GroupNode>
                  <y:Geometry height="30.0" width="99.0"/>
                  <y:NodeLabel alignment="left" autoSizePolicy="node_width" backgroundColor="#ff0000" fontStyle="italic" modelName="internal" modelPosition="t">&lt;html&gt;&amp;nbsp;&amp;nbsp;&amp;nbsp;&amp;nbsp;&amp;nbsp;&lt;span style="color:#0000ff;"&gt;group&lt;/span&gt;&amp;nbsp;&lt;span style="color:#000000;"&gt;g7&lt;/span&gt;&lt;/html&gt;</y:NodeLabel>
                  <y:Fill color="#cccccc"/>
                  <y:Shape type="rectangle"/>
                  <y:State closed="true"/>
                </y:GroupNode>
              </y:Realizers>
            </y:ProxyAutoBoundsNode>
          </data>
          <graph edgedefault="directed" id="cif:g6:g7:">
            <node id="cif:g6:g7::code" yfiles.foldertype="group">
              <data key="dn">Declarations</data>
              <data key="ng">
                <y:ProxyAutoBoundsNode>
                  <y:Realizers active="0">
                    <y:GroupNode>
                      <y:Geometry height="54.0" width="95.0"/>
                      <y:NodeLabel alignment="left" autoSizePolicy="node_width" backgroundColor="#eeee80" modelName="internal" modelPosition="t">     Declarations</y:NodeLabel>
                      <y:NodeLabel alignment="left" autoSizePolicy="content" borderDistance="18" bottomInset="3" leftInset="3" modelName="internal" modelPosition="t" rightInset="3" topInset="3">&lt;html&gt;&lt;span style="color:#0000ff;"&gt;event&lt;/span&gt;&amp;nbsp;&lt;span style="color:#000000;"&gt;e&lt;/span&gt;&lt;span style="color:#402020;"&gt;;&lt;/span&gt;&lt;/html&gt;</y:NodeLabel>
                      <y:BorderStyle lineType="dashed"/>
                      <y:Fill color="#ffffcc"/>
                      <y:Shape type="rectangle"/>
                      <y:State closed="false"/>
                    </y:GroupNode>
                    <y:GroupNode>
                      <y:Geometry height="54.0" width="95.0"/>
                      <y:NodeLabel alignment="left" autoSizePolicy="node_width" backgroundColor="#eeee80" modelName="internal" modelPosition="t">     Declarations</y:NodeLabel>
                      <y:NodeLabel alignment="left" autoSizePolicy="content" borderDistance="18" bottomInset="3" leftInset="3" modelName="internal" modelPosition="t" rightInset="3" topInset="3">...</y:NodeLabel>
                      <y:BorderStyle lineType="dashed"/>
                      <y:Fill color="#ffffcc"/>
                      <y:Shape type="rectangle"/>
                      <y:State closed="true"/>
                    </y:GroupNode>
                  </y:Realizers>
                </y:ProxyAutoBoundsNode>
              </data>
            </node>
          </graph>
        </node>
        <node id="cif:g6:g8" yfiles.foldertype="group">
          <data key="dn">group g8</data>
          <data key="ng">
            <y:ProxyAutoBoundsNode>
              <y:Realizers active="0">
                <y:GroupNode>
                  <y:NodeLabel alignment="left" autoSizePolicy="node_width" backgroundColor="#ff0000" fontStyle="italic" modelName="internal" modelPosition="t">&lt;html&gt;&amp;nbsp;&amp;nbsp;&amp;nbsp;&amp;nbsp;&amp;nbsp;&lt;span style="color:#0000ff;"&gt;group&lt;/span&gt;&amp;nbsp;&lt;span style="color:#000000;"&gt;g8&lt;/span&gt;&lt;/html&gt;</y:NodeLabel>
                  <y:Fill color="#eeeeee"/>
                  <y:Shape type="rectangle"/>
                  <y:State closed="false"/>
                </y:GroupNode>
                <y:GroupNode>
                  <y:Geometry height="30.0" width="99.0"/>
                  <y:NodeLabel alignment="left" autoSizePolicy="node_width" backgroundColor="#ff0000" fontStyle="italic" modelName="internal" modelPosition="t">&lt;html&gt;&amp;nbsp;&amp;nbsp;&amp;nbsp;&amp;nbsp;&amp;nbsp;&lt;span style="color:#0000ff;"&gt;group&lt;/span&gt;&amp;nbsp;&lt;span style="color:#000000;"&gt;g8&lt;/span&gt;&lt;/html&gt;</y:NodeLabel>
                  <y:Fill color="#cccccc"/>
                  <y:Shape type="rectangle"/>
                  <y:State closed="true"/>
                </y:GroupNode>
              </y:Realizers>
            </y:ProxyAutoBoundsNode>
          </data>
          <graph edgedefault="directed" id="cif:g6:g8:"/>
        </node>
        <node id="cif:g6:g9" yfiles.foldertype="group">
          <data key="dn">group g9</data>
          <data key="ng">
            <y:ProxyAutoBoundsNode>
              <y:Realizers active="0">
                <y:GroupNode>
                  <y:NodeLabel alignment="left" autoSizePolicy="node_width" backgroundColor="#ff0000" fontStyle="italic" modelName="internal" modelPosition="t">&lt;html&gt;&amp;nbsp;&amp;nbsp;&amp;nbsp;&amp;nbsp;&amp;nbsp;&lt;span style="color:#0000ff;"&gt;group&lt;/span&gt;&amp;nbsp;&lt;span style="color:#000000;"&gt;g9&lt;/span&gt;&lt;/html&gt;</y:NodeLabel>
                  <y:Fill color="#eeeeee"/>
                  <y:Shape type="rectangle"/>
                  <y:State closed="false"/>
                </y:GroupNode>
                <y:GroupNode>
                  <y:Geometry height="30.0" width="99.0"/>
                  <y:NodeLabel alignment="left" autoSizePolicy="node_width" backgroundColor="#ff0000" fontStyle="italic" modelName="internal" modelPosition="t">&lt;html&gt;&amp;nbsp;&amp;nbsp;&amp;nbsp;&amp;nbsp;&amp;nbsp;&lt;span style="color:#0000ff;"&gt;group&lt;/span&gt;&amp;nbsp;&lt;span style="color:#000000;"&gt;g9&lt;/span&gt;&lt;/html&gt;</y:NodeLabel>
                  <y:Fill color="#cccccc"/>
                  <y:Shape type="rectangle"/>
                  <y:State closed="true"/>
                </y:GroupNode>
              </y:Realizers>
            </y:ProxyAutoBoundsNode>
          </data>
          <graph edgedefault="directed" id="cif:g6:g9:">
            <node id="cif:g6:g9:a" yfiles.foldertype="group">
              <data key="dn">automaton a</data>
              <data key="ng">
                <y:ProxyAutoBoundsNode>
                  <y:Realizers active="0">
                    <y:GroupNode>
                      <y:NodeLabel alignment="left" autoSizePolicy="node_width" backgroundColor="#ff0000" fontStyle="plain" modelName="internal" modelPosition="t">&lt;html&gt;&amp;nbsp;&amp;nbsp;&amp;nbsp;&amp;nbsp;&amp;nbsp;&lt;span style="color:#0000ff;"&gt;automaton&lt;/span&gt;&amp;nbsp;&lt;span style="color:#000000;"&gt;a&lt;/span&gt;&lt;/html&gt;</y:NodeLabel>
                      <y:Fill color="#eeeeee"/>
                      <y:Shape type="rectangle"/>
                      <y:State closed="false"/>
                    </y:GroupNode>
                    <y:GroupNode>
                      <y:Geometry height="30.0" width="119.0"/>
                      <y:NodeLabel alignment="left" autoSizePolicy="node_width" backgroundColor="#ff0000" fontStyle="plain" modelName="internal" modelPosition="t">&lt;html&gt;&amp;nbsp;&amp;nbsp;&amp;nbsp;&amp;nbsp;&amp;nbsp;&lt;span style="color:#0000ff;"&gt;automaton&lt;/span&gt;&amp;nbsp;&lt;span style="color:#000000;"&gt;a&lt;/span&gt;&lt;/html&gt;</y:NodeLabel>
                      <y:Fill color="#cccccc"/>
                      <y:Shape type="rectangle"/>
                      <y:State closed="true"/>
                    </y:GroupNode>
                  </y:Realizers>
                </y:ProxyAutoBoundsNode>
              </data>
              <graph edgedefault="directed" id="cif:g6:g9:a:">
                <node id="cif:g6:g9:a::loc0">
                  <data key="dn">location</data>
                  <data key="ng">
                    <y:ShapeNode>
                      <y:Geometry height="30.0" width="60.0"/>
                      <y:NodeLabel alignment="left" autoSizePolicy="content" modelName="internal" modelPosition="c">&lt;html&gt;&lt;/html&gt;</y:NodeLabel>
                      <y:Fill color="#ccccff"/>
                      <y:Shape type="roundrectangle"/>
                    </y:ShapeNode>
                  </data>
                </node>
                <node id="cif:g6:g9:a::loc0::init">
                  <data key="dn">&lt;init&gt;</data>
                  <data key="ng">
                    <y:ShapeNode>
                      <y:Geometry height="1" width="1"/>
                      <y:BorderStyle hasColor="false"/>
                      <y:Fill transparent="true"/>
                    </y:ShapeNode>
                  </data>
                </node>
                <edge source="cif:g6:g9:a::loc0::init" target="cif:g6:g9:a::loc0">
                  <data key="eg">
                    <y:PolyLineEdge>
                      <y:Arrows source="none" target="arrow"/>
                      <y:BendStyle smoothed="true"/>
                    </y:PolyLineEdge>
                  </data>
                </edge>
                <edge source="cif:g6:g9:a::loc0" target="cif:g6:g9:a::loc0">
                  <data key="eg">
                    <y:PolyLineEdge>
                      <y:Arrows source="none" target="arrow"/>
                      <y:BendStyle smoothed="true"/>
                      <y:EdgeLabel alignment="center" backgroundColor="#eeeeee">&lt;html&gt;&lt;span style="color:#000000;"&gt;g7.e&lt;/span&gt;&lt;/html&gt;</y:EdgeLabel>
                    </y:PolyLineEdge>
                  </data>
                </edge>
              </graph>
            </node>
            <node id="cif:g6:g9:g10" yfiles.foldertype="group">
              <data key="dn">group g10</data>
              <data key="ng">
                <y:ProxyAutoBoundsNode>
                  <y:Realizers active="0">
                    <y:GroupNode>
                      <y:NodeLabel alignment="left" autoSizePolicy="node_width" backgroundColor="#ff0000" fontStyle="italic" modelName="internal" modelPosition="t">&lt;html&gt;&amp;nbsp;&amp;nbsp;&amp;nbsp;&amp;nbsp;&amp;nbsp;&lt;span style="color:#0000ff;"&gt;group&lt;/span&gt;&amp;nbsp;&lt;span style="color:#000000;"&gt;g10&lt;/span&gt;&lt;/html&gt;</y:NodeLabel>
                      <y:Fill color="#eeeeee"/>
                      <y:Shape type="rectangle"/>
                      <y:State closed="false"/>
                    </y:GroupNode>
                    <y:GroupNode>
                      <y:Geometry height="30.0" width="106.0"/>
                      <y:NodeLabel alignment="left" autoSizePolicy="node_width" backgroundColor="#ff0000" fontStyle="italic" modelName="internal" modelPosition="t">&lt;html&gt;&amp;nbsp;&amp;nbsp;&amp;nbsp;&amp;nbsp;&amp;nbsp;&lt;span style="color:#0000ff;"&gt;group&lt;/span&gt;&amp;nbsp;&lt;span style="color:#000000;"&gt;g10&lt;/span&gt;&lt;/html&gt;</y:NodeLabel>
                      <y:Fill color="#cccccc"/>
                      <y:Shape type="rectangle"/>
                      <y:State closed="true"/>
                    </y:GroupNode>
                  </y:Realizers>
                </y:ProxyAutoBoundsNode>
              </data>
              <graph edgedefault="directed" id="cif:g6:g9:g10:">
                <node id="cif:g6:g9:g10::code" yfiles.foldertype="group">
                  <data key="dn">Declarations</data>
                  <data key="ng">
                    <y:ProxyAutoBoundsNode>
                      <y:Realizers active="0">
                        <y:GroupNode>
                          <y:Geometry height="82.28125" width="113.0"/>
                          <y:NodeLabel alignment="left" autoSizePolicy="node_width" backgroundColor="#eeee80" modelName="internal" modelPosition="t">     Declarations</y:NodeLabel>
                          <y:NodeLabel alignment="left" autoSizePolicy="content" borderDistance="18" bottomInset="3" leftInset="3" modelName="internal" modelPosition="t" rightInset="3" topInset="3">&lt;html&gt;&lt;span style="color:#0000ff;"&gt;const&lt;/span&gt;&amp;nbsp;&lt;span style="color:#0000ff;"&gt;int&lt;/span&gt;&lt;span style="color:#402020;"&gt;[&lt;/span&gt;&lt;span style="color:#006100;"&gt;5&lt;/span&gt;&lt;span style="color:#402020;"&gt;..&lt;/span&gt;&lt;span style="color:#006100;"&gt;5&lt;/span&gt;&lt;span style="color:#402020;"&gt;]&lt;/span&gt;&amp;nbsp;&lt;span style="color:#000000;"&gt;x&lt;/span&gt;&amp;nbsp;&lt;span style="color:#402020;"&gt;=&lt;/span&gt;&amp;nbsp;&lt;span style="color:#006100;"&gt;5&lt;/span&gt;&lt;span style="color:#402020;"&gt;;&lt;/span&gt;&lt;br&gt;&lt;br&gt;&lt;span style="color:#0000ff;"&gt;invariant&lt;/span&gt;&amp;nbsp;&lt;span style="color:#000000;"&gt;x&lt;/span&gt;&amp;nbsp;&lt;span style="color:#402020;"&gt;=&lt;/span&gt;&amp;nbsp;&lt;span style="color:#006100;"&gt;5&lt;/span&gt;&lt;span style="color:#402020;"&gt;;&lt;/span&gt;&lt;/html&gt;</y:NodeLabel>
                          <y:BorderStyle lineType="dashed"/>
                          <y:Fill color="#ffffcc"/>
                          <y:Shape type="rectangle"/>
                          <y:State closed="false"/>
                        </y:GroupNode>
                        <y:GroupNode>
                          <y:Geometry height="54.0" width="95.0"/>
                          <y:NodeLabel alignment="left" autoSizePolicy="node_width" backgroundColor="#eeee80" modelName="internal" modelPosition="t">     Declarations</y:NodeLabel>
                          <y:NodeLabel alignment="left" autoSizePolicy="content" borderDistance="18" bottomInset="3" leftInset="3" modelName="internal" modelPosition="t" rightInset="3" topInset="3">...</y:NodeLabel>
                          <y:BorderStyle lineType="dashed"/>
                          <y:Fill color="#ffffcc"/>
                          <y:Shape type="rectangle"/>
                          <y:State closed="true"/>
                        </y:GroupNode>
                      </y:Realizers>
                    </y:ProxyAutoBoundsNode>
                  </data>
                </node>
              </graph>
            </node>
          </graph>
        </node>
      </graph>
    </node>
    <node id="cif::insts" yfiles.foldertype="group">
      <data key="dn">Instantiations</data>
      <data key="ng">
        <y:ProxyAutoBoundsNode>
          <y:Realizers active="0">
            <y:GroupNode>
              <y:Geometry height="114.46875" width="99.0"/>
              <y:NodeLabel alignment="left" autoSizePolicy="node_width" backgroundColor="#ff8000" modelName="internal" modelPosition="t">     Instantiations</y:NodeLabel>
              <y:NodeLabel alignment="left" autoSizePolicy="content" borderDistance="18" bottomInset="3" leftInset="3" modelName="internal" modelPosition="t" rightInset="3" topInset="3">&lt;html&gt;&lt;span style="color:#000000;"&gt;b&lt;/span&gt;&lt;span style="color:#402020;"&gt;:&lt;/span&gt;&amp;nbsp;&lt;span style="color:#000000;"&gt;B&lt;/span&gt;&lt;span style="color:#402020;"&gt;();&lt;/span&gt;&lt;br&gt;&lt;span style="color:#000000;"&gt;c&lt;/span&gt;&lt;span style="color:#402020;"&gt;:&lt;/span&gt;&amp;nbsp;&lt;span style="color:#000000;"&gt;C&lt;/span&gt;&lt;span style="color:#402020;"&gt;(&lt;/span&gt;&lt;span style="color:#006100;"&gt;5&lt;/span&gt;&lt;span style="color:#402020;"&gt;);&lt;/span&gt;&lt;br&gt;&lt;span style="color:#000000;"&gt;d1&lt;/span&gt;&lt;span style="color:#402020;"&gt;:&lt;/span&gt;&amp;nbsp;&lt;span style="color:#000000;"&gt;D&lt;/span&gt;&lt;span style="color:#402020;"&gt;(&lt;/span&gt;&lt;span style="color:#000000;"&gt;g6.g7.e&lt;/span&gt;&lt;span style="color:#402020;"&gt;);&lt;/span&gt;&lt;br&gt;&lt;span style="color:#000000;"&gt;d2&lt;/span&gt;&lt;span style="color:#402020;"&gt;:&lt;/span&gt;&amp;nbsp;&lt;span style="color:#000000;"&gt;D&lt;/span&gt;&lt;span style="color:#402020;"&gt;(&lt;/span&gt;&lt;span style="color:#000000;"&gt;ee&lt;/span&gt;&lt;span style="color:#402020;"&gt;);&lt;/span&gt;&lt;br&gt;&lt;span style="color:#000000;"&gt;e&lt;/span&gt;&lt;span style="color:#402020;"&gt;:&lt;/span&gt;&amp;nbsp;&lt;span style="color:#000000;"&gt;E&lt;/span&gt;&lt;span style="color:#402020;"&gt;();&lt;/span&gt;&lt;/html&gt;</y:NodeLabel>
              <y:Fill color="#eeeeee"/>
              <y:Shape type="rectangle"/>
              <y:State closed="false"/>
            </y:GroupNode>
            <y:GroupNode>
              <y:Geometry height="54.0" width="99.0"/>
              <y:NodeLabel alignment="left" autoSizePolicy="node_width" backgroundColor="#ff8000" modelName="internal" modelPosition="t">     Instantiations</y:NodeLabel>
              <y:NodeLabel alignment="left" autoSizePolicy="content" borderDistance="18" bottomInset="3" leftInset="3" modelName="internal" modelPosition="t" rightInset="3" topInset="3">...</y:NodeLabel>
              <y:Fill color="#cccccc"/>
              <y:Shape type="rectangle"/>
              <y:State closed="true"/>
            </y:GroupNode>
          </y:Realizers>
        </y:ProxyAutoBoundsNode>
      </data>
    </node>
    <node id="cif::code" yfiles.foldertype="group">
      <data key="dn">Declarations</data>
      <data key="ng">
        <y:ProxyAutoBoundsNode>
          <y:Realizers active="0">
            <y:GroupNode>
              <y:Geometry height="54.0" width="95.0"/>
              <y:NodeLabel alignment="left" autoSizePolicy="node_width" backgroundColor="#eeee80" modelName="internal" modelPosition="t">     Declarations</y:NodeLabel>
              <y:NodeLabel alignment="left" autoSizePolicy="content" borderDistance="18" bottomInset="3" leftInset="3" modelName="internal" modelPosition="t" rightInset="3" topInset="3">&lt;html&gt;&lt;span style="color:#0000ff;"&gt;event&lt;/span&gt;&amp;nbsp;&lt;span style="color:#000000;"&gt;ee&lt;/span&gt;&lt;span style="color:#402020;"&gt;;&lt;/span&gt;&lt;/html&gt;</y:NodeLabel>
              <y:BorderStyle lineType="dashed"/>
              <y:Fill color="#ffffcc"/>
              <y:Shape type="rectangle"/>
              <y:State closed="false"/>
            </y:GroupNode>
            <y:GroupNode>
              <y:Geometry height="54.0" width="95.0"/>
              <y:NodeLabel alignment="left" autoSizePolicy="node_width" backgroundColor="#eeee80" modelName="internal" modelPosition="t">     Declarations</y:NodeLabel>
              <y:NodeLabel alignment="left" autoSizePolicy="content" borderDistance="18" bottomInset="3" leftInset="3" modelName="internal" modelPosition="t" rightInset="3" topInset="3">...</y:NodeLabel>
              <y:BorderStyle lineType="dashed"/>
              <y:Fill color="#ffffcc"/>
              <y:Shape type="rectangle"/>
              <y:State closed="true"/>
            </y:GroupNode>
          </y:Realizers>
        </y:ProxyAutoBoundsNode>
      </data>
    </node>
  </graph>
</graphml>
