<?xml version="1.0" encoding="UTF-8" standalone="no"?>
<graphml xmlns:xsi="http://www.w3.org/2001/XMLSchema-instance" xmlns:y="http://www.yworks.com/xml/graphml" xsi:schemaLocation="http://graphml.graphdrawing.org/xmlns http://www.yworks.com/xml/schema/graphml/1.1/ygraphml.xsd" xmlns="http://graphml.graphdrawing.org/xmlns">
  <key for="node" id="ng" yfiles.type="nodegraphics"/>
  <key for="edge" id="eg" yfiles.type="edgegraphics"/>
  <key attr.name="description" attr.type="string" for="node" id="dn"/>
  <graph edgedefault="undirected" id="cif:">
    <node id="cif::box0" yfiles.foldertype="folder">
      <graph edgedefault="undirected" id="cif::box0:">
        <node id="cif:X" yfiles.foldertype="folder">
          <data key="dn">automaton def X()</data>
          <data key="ng">
            <y:ProxyAutoBoundsNode>
              <y:Realizers active="1">
                <y:GroupNode>
                  <y:NodeLabel alignment="left" autoSizePolicy="node_width" backgroundColor="#40c0ff" fontStyle="plain" modelName="internal" modelPosition="t">&lt;html&gt;&amp;nbsp;&amp;nbsp;&amp;nbsp;&amp;nbsp;&amp;nbsp;&lt;span style="color:#0000ff;"&gt;automaton&lt;/span&gt;&amp;nbsp;&lt;span style="color:#0000ff;"&gt;def&lt;/span&gt;&amp;nbsp;&lt;span style="color:#000000;"&gt;X&lt;/span&gt;&lt;span style="color:#402020;"&gt;()&lt;/span&gt;&lt;/html&gt;</y:NodeLabel>
                  <y:Fill color="#eeeeee"/>
                  <y:Shape type="rectangle"/>
                  <y:State closed="false"/>
                </y:GroupNode>
                <y:GroupNode>
                  <y:Geometry height="30.0" width="147.0"/>
                  <y:NodeLabel alignment="left" autoSizePolicy="node_width" backgroundColor="#40c0ff" fontStyle="plain" modelName="internal" modelPosition="t">&lt;html&gt;&amp;nbsp;&amp;nbsp;&amp;nbsp;&amp;nbsp;&amp;nbsp;&lt;span style="color:#0000ff;"&gt;automaton&lt;/span&gt;&amp;nbsp;&lt;span style="color:#0000ff;"&gt;def&lt;/span&gt;&amp;nbsp;&lt;span style="color:#000000;"&gt;X&lt;/span&gt;&lt;span style="color:#402020;"&gt;()&lt;/span&gt;&lt;/html&gt;</y:NodeLabel>
                  <y:Fill color="#cccccc"/>
                  <y:Shape type="rectangle"/>
                  <y:State closed="true"/>
                </y:GroupNode>
              </y:Realizers>
            </y:ProxyAutoBoundsNode>
          </data>
          <graph edgedefault="undirected" id="cif:X:">
            <node id="cif:X:p">
              <data key="dn">event p</data>
              <data key="ng">
                <y:ShapeNode>
                  <y:Geometry width="49.0"/>
                  <y:NodeLabel alignment="center">&lt;html&gt;&lt;span style="color:#0000ff;"&gt;event&lt;/span&gt;&amp;nbsp;&lt;span style="color:#000000;"&gt;p&lt;/span&gt;&lt;/html&gt;</y:NodeLabel>
                  <y:BorderStyle type="dashed"/>
                  <y:Fill color="#ffe0c0"/>
                  <y:Shape type="octagon"/>
                </y:ShapeNode>
              </data>
            </node>
            <node id="cif:X::evtref0">
              <data key="dn">p</data>
              <data key="ng">
                <y:ShapeNode>
                  <y:Geometry height="30" width="30"/>
                  <y:NodeLabel alignment="center" fontSize="20">&lt;html&gt;&lt;/html&gt;</y:NodeLabel>
                  <y:Fill color="#ffc080"/>
                  <y:Shape type="ellipse"/>
                </y:ShapeNode>
              </data>
            </node>
          </graph>
        </node>
        <node id="cif:N" yfiles.foldertype="folder">
          <data key="dn">automaton def N()</data>
          <data key="ng">
            <y:ProxyAutoBoundsNode>
              <y:Realizers active="1">
                <y:GroupNode>
                  <y:NodeLabel alignment="left" autoSizePolicy="node_width" backgroundColor="#40c0ff" fontStyle="plain" modelName="internal" modelPosition="t">&lt;html&gt;&amp;nbsp;&amp;nbsp;&amp;nbsp;&amp;nbsp;&amp;nbsp;&lt;span style="color:#0000ff;"&gt;automaton&lt;/span&gt;&amp;nbsp;&lt;span style="color:#0000ff;"&gt;def&lt;/span&gt;&amp;nbsp;&lt;span style="color:#000000;"&gt;N&lt;/span&gt;&lt;span style="color:#402020;"&gt;()&lt;/span&gt;&lt;/html&gt;</y:NodeLabel>
                  <y:Fill color="#eeeeee"/>
                  <y:Shape type="rectangle"/>
                  <y:State closed="false"/>
                </y:GroupNode>
                <y:GroupNode>
                  <y:Geometry height="30.0" width="149.0"/>
                  <y:NodeLabel alignment="left" autoSizePolicy="node_width" backgroundColor="#40c0ff" fontStyle="plain" modelName="internal" modelPosition="t">&lt;html&gt;&amp;nbsp;&amp;nbsp;&amp;nbsp;&amp;nbsp;&amp;nbsp;&lt;span style="color:#0000ff;"&gt;automaton&lt;/span&gt;&amp;nbsp;&lt;span style="color:#0000ff;"&gt;def&lt;/span&gt;&amp;nbsp;&lt;span style="color:#000000;"&gt;N&lt;/span&gt;&lt;span style="color:#402020;"&gt;()&lt;/span&gt;&lt;/html&gt;</y:NodeLabel>
                  <y:Fill color="#cccccc"/>
                  <y:Shape type="rectangle"/>
                  <y:State closed="true"/>
                </y:GroupNode>
              </y:Realizers>
            </y:ProxyAutoBoundsNode>
          </data>
          <graph edgedefault="undirected" id="cif:N:">
            <node id="cif:N:p">
              <data key="dn">event p !?~</data>
              <data key="ng">
                <y:ShapeNode>
                  <y:Geometry width="69.0"/>
                  <y:NodeLabel alignment="center">&lt;html&gt;&lt;span style="color:#0000ff;"&gt;event&lt;/span&gt;&amp;nbsp;&lt;span style="color:#000000;"&gt;p&lt;/span&gt;&amp;nbsp;&lt;span style="color:#402020;"&gt;!?~&lt;/span&gt;&lt;/html&gt;</y:NodeLabel>
                  <y:BorderStyle type="dashed"/>
                  <y:Fill color="#ffe0c0"/>
                  <y:Shape type="octagon"/>
                </y:ShapeNode>
              </data>
            </node>
            <node id="cif:N::evtref1">
              <data key="dn">p</data>
              <data key="ng">
                <y:ShapeNode>
                  <y:Geometry height="30" width="30"/>
                  <y:NodeLabel alignment="center" fontSize="20">&lt;html&gt;&lt;/html&gt;</y:NodeLabel>
                  <y:Fill color="#ffc080"/>
                  <y:Shape type="ellipse"/>
                </y:ShapeNode>
              </data>
            </node>
          </graph>
        </node>
        <node id="cif:S" yfiles.foldertype="folder">
          <data key="dn">automaton def S()</data>
          <data key="ng">
            <y:ProxyAutoBoundsNode>
              <y:Realizers active="1">
                <y:GroupNode>
                  <y:NodeLabel alignment="left" autoSizePolicy="node_width" backgroundColor="#40c0ff" fontStyle="plain" modelName="internal" modelPosition="t">&lt;html&gt;&amp;nbsp;&amp;nbsp;&amp;nbsp;&amp;nbsp;&amp;nbsp;&lt;span style="color:#0000ff;"&gt;automaton&lt;/span&gt;&amp;nbsp;&lt;span style="color:#0000ff;"&gt;def&lt;/span&gt;&amp;nbsp;&lt;span style="color:#000000;"&gt;S&lt;/span&gt;&lt;span style="color:#402020;"&gt;()&lt;/span&gt;&lt;/html&gt;</y:NodeLabel>
                  <y:Fill color="#eeeeee"/>
                  <y:Shape type="rectangle"/>
                  <y:State closed="false"/>
                </y:GroupNode>
                <y:GroupNode>
                  <y:Geometry height="30.0" width="148.0"/>
                  <y:NodeLabel alignment="left" autoSizePolicy="node_width" backgroundColor="#40c0ff" fontStyle="plain" modelName="internal" modelPosition="t">&lt;html&gt;&amp;nbsp;&amp;nbsp;&amp;nbsp;&amp;nbsp;&amp;nbsp;&lt;span style="color:#0000ff;"&gt;automaton&lt;/span&gt;&amp;nbsp;&lt;span style="color:#0000ff;"&gt;def&lt;/span&gt;&amp;nbsp;&lt;span style="color:#000000;"&gt;S&lt;/span&gt;&lt;span style="color:#402020;"&gt;()&lt;/span&gt;&lt;/html&gt;</y:NodeLabel>
                  <y:Fill color="#cccccc"/>
                  <y:Shape type="rectangle"/>
                  <y:State closed="true"/>
                </y:GroupNode>
              </y:Realizers>
            </y:ProxyAutoBoundsNode>
          </data>
          <graph edgedefault="undirected" id="cif:S:">
            <node id="cif:S:p">
              <data key="dn">event p !</data>
              <data key="ng">
                <y:ShapeNode>
                  <y:Geometry width="55.0"/>
                  <y:NodeLabel alignment="center">&lt;html&gt;&lt;span style="color:#0000ff;"&gt;event&lt;/span&gt;&amp;nbsp;&lt;span style="color:#000000;"&gt;p&lt;/span&gt;&amp;nbsp;&lt;span style="color:#402020;"&gt;!&lt;/span&gt;&lt;/html&gt;</y:NodeLabel>
                  <y:BorderStyle type="dashed"/>
                  <y:Fill color="#ffe0c0"/>
                  <y:Shape type="octagon"/>
                </y:ShapeNode>
              </data>
            </node>
            <node id="cif:S::evtref2">
              <data key="dn">p !</data>
              <data key="ng">
                <y:ShapeNode>
                  <y:Geometry height="30" width="30"/>
                  <y:NodeLabel alignment="center" fontSize="20">&lt;html&gt;&lt;span style="color:#402020;"&gt;!&lt;/span&gt;&lt;/html&gt;</y:NodeLabel>
                  <y:Fill color="#ffc080"/>
                  <y:Shape type="ellipse"/>
                </y:ShapeNode>
              </data>
            </node>
          </graph>
        </node>
        <node id="cif:R" yfiles.foldertype="folder">
          <data key="dn">automaton def R()</data>
          <data key="ng">
            <y:ProxyAutoBoundsNode>
              <y:Realizers active="1">
                <y:GroupNode>
                  <y:NodeLabel alignment="left" autoSizePolicy="node_width" backgroundColor="#40c0ff" fontStyle="plain" modelName="internal" modelPosition="t">&lt;html&gt;&amp;nbsp;&amp;nbsp;&amp;nbsp;&amp;nbsp;&amp;nbsp;&lt;span style="color:#0000ff;"&gt;automaton&lt;/span&gt;&amp;nbsp;&lt;span style="color:#0000ff;"&gt;def&lt;/span&gt;&amp;nbsp;&lt;span style="color:#000000;"&gt;R&lt;/span&gt;&lt;span style="color:#402020;"&gt;()&lt;/span&gt;&lt;/html&gt;</y:NodeLabel>
                  <y:Fill color="#eeeeee"/>
                  <y:Shape type="rectangle"/>
                  <y:State closed="false"/>
                </y:GroupNode>
                <y:GroupNode>
                  <y:Geometry height="30.0" width="149.0"/>
                  <y:NodeLabel alignment="left" autoSizePolicy="node_width" backgroundColor="#40c0ff" fontStyle="plain" modelName="internal" modelPosition="t">&lt;html&gt;&amp;nbsp;&amp;nbsp;&amp;nbsp;&amp;nbsp;&amp;nbsp;&lt;span style="color:#0000ff;"&gt;automaton&lt;/span&gt;&amp;nbsp;&lt;span style="color:#0000ff;"&gt;def&lt;/span&gt;&amp;nbsp;&lt;span style="color:#000000;"&gt;R&lt;/span&gt;&lt;span style="color:#402020;"&gt;()&lt;/span&gt;&lt;/html&gt;</y:NodeLabel>
                  <y:Fill color="#cccccc"/>
                  <y:Shape type="rectangle"/>
                  <y:State closed="true"/>
                </y:GroupNode>
              </y:Realizers>
            </y:ProxyAutoBoundsNode>
          </data>
          <graph edgedefault="undirected" id="cif:R:">
            <node id="cif:R:p">
              <data key="dn">event p ?</data>
              <data key="ng">
                <y:ShapeNode>
                  <y:Geometry width="59.0"/>
                  <y:NodeLabel alignment="center">&lt;html&gt;&lt;span style="color:#0000ff;"&gt;event&lt;/span&gt;&amp;nbsp;&lt;span style="color:#000000;"&gt;p&lt;/span&gt;&amp;nbsp;&lt;span style="color:#402020;"&gt;?&lt;/span&gt;&lt;/html&gt;</y:NodeLabel>
                  <y:BorderStyle type="dashed"/>
                  <y:Fill color="#ffe0c0"/>
                  <y:Shape type="octagon"/>
                </y:ShapeNode>
              </data>
            </node>
            <node id="cif:R::evtref3">
              <data key="dn">p ?</data>
              <data key="ng">
                <y:ShapeNode>
                  <y:Geometry height="30" width="30"/>
                  <y:NodeLabel alignment="center" fontSize="20">&lt;html&gt;&lt;span style="color:#402020;"&gt;?&lt;/span&gt;&lt;/html&gt;</y:NodeLabel>
                  <y:Fill color="#ffc080"/>
                  <y:Shape type="ellipse"/>
                </y:ShapeNode>
              </data>
            </node>
          </graph>
        </node>
        <node id="cif:C" yfiles.foldertype="folder">
          <data key="dn">automaton def C()</data>
          <data key="ng">
            <y:ProxyAutoBoundsNode>
              <y:Realizers active="1">
                <y:GroupNode>
                  <y:NodeLabel alignment="left" autoSizePolicy="node_width" backgroundColor="#40c0ff" fontStyle="plain" modelName="internal" modelPosition="t">&lt;html&gt;&amp;nbsp;&amp;nbsp;&amp;nbsp;&amp;nbsp;&amp;nbsp;&lt;span style="color:#0000ff;"&gt;automaton&lt;/span&gt;&amp;nbsp;&lt;span style="color:#0000ff;"&gt;def&lt;/span&gt;&amp;nbsp;&lt;span style="color:#000000;"&gt;C&lt;/span&gt;&lt;span style="color:#402020;"&gt;()&lt;/span&gt;&lt;/html&gt;</y:NodeLabel>
                  <y:Fill color="#eeeeee"/>
                  <y:Shape type="rectangle"/>
                  <y:State closed="false"/>
                </y:GroupNode>
                <y:GroupNode>
                  <y:Geometry height="30.0" width="149.0"/>
                  <y:NodeLabel alignment="left" autoSizePolicy="node_width" backgroundColor="#40c0ff" fontStyle="plain" modelName="internal" modelPosition="t">&lt;html&gt;&amp;nbsp;&amp;nbsp;&amp;nbsp;&amp;nbsp;&amp;nbsp;&lt;span style="color:#0000ff;"&gt;automaton&lt;/span&gt;&amp;nbsp;&lt;span style="color:#0000ff;"&gt;def&lt;/span&gt;&amp;nbsp;&lt;span style="color:#000000;"&gt;C&lt;/span&gt;&lt;span style="color:#402020;"&gt;()&lt;/span&gt;&lt;/html&gt;</y:NodeLabel>
                  <y:Fill color="#cccccc"/>
                  <y:Shape type="rectangle"/>
                  <y:State closed="true"/>
                </y:GroupNode>
              </y:Realizers>
            </y:ProxyAutoBoundsNode>
          </data>
          <graph edgedefault="undirected" id="cif:C:">
            <node id="cif:C:p">
              <data key="dn">event p ~</data>
              <data key="ng">
                <y:ShapeNode>
                  <y:Geometry width="59.0"/>
                  <y:NodeLabel alignment="center">&lt;html&gt;&lt;span style="color:#0000ff;"&gt;event&lt;/span&gt;&amp;nbsp;&lt;span style="color:#000000;"&gt;p&lt;/span&gt;&amp;nbsp;&lt;span style="color:#402020;"&gt;~&lt;/span&gt;&lt;/html&gt;</y:NodeLabel>
                  <y:BorderStyle type="dashed"/>
                  <y:Fill color="#ffe0c0"/>
                  <y:Shape type="octagon"/>
                </y:ShapeNode>
              </data>
            </node>
            <node id="cif:C::evtref4">
              <data key="dn">p</data>
              <data key="ng">
                <y:ShapeNode>
                  <y:Geometry height="30" width="30"/>
                  <y:NodeLabel alignment="center" fontSize="20">&lt;html&gt;&lt;/html&gt;</y:NodeLabel>
                  <y:Fill color="#ffc080"/>
                  <y:Shape type="ellipse"/>
                </y:ShapeNode>
              </data>
            </node>
          </graph>
        </node>
        <node id="cif:SR" yfiles.foldertype="folder">
          <data key="dn">automaton def SR()</data>
          <data key="ng">
            <y:ProxyAutoBoundsNode>
              <y:Realizers active="1">
                <y:GroupNode>
                  <y:NodeLabel alignment="left" autoSizePolicy="node_width" backgroundColor="#40c0ff" fontStyle="plain" modelName="internal" modelPosition="t">&lt;html&gt;&amp;nbsp;&amp;nbsp;&amp;nbsp;&amp;nbsp;&amp;nbsp;&lt;span style="color:#0000ff;"&gt;automaton&lt;/span&gt;&amp;nbsp;&lt;span style="color:#0000ff;"&gt;def&lt;/span&gt;&amp;nbsp;&lt;span style="color:#000000;"&gt;SR&lt;/span&gt;&lt;span style="color:#402020;"&gt;()&lt;/span&gt;&lt;/html&gt;</y:NodeLabel>
                  <y:Fill color="#eeeeee"/>
                  <y:Shape type="rectangle"/>
                  <y:State closed="false"/>
                </y:GroupNode>
                <y:GroupNode>
                  <y:Geometry height="30.0" width="157.0"/>
                  <y:NodeLabel alignment="left" autoSizePolicy="node_width" backgroundColor="#40c0ff" fontStyle="plain" modelName="internal" modelPosition="t">&lt;html&gt;&amp;nbsp;&amp;nbsp;&amp;nbsp;&amp;nbsp;&amp;nbsp;&lt;span style="color:#0000ff;"&gt;automaton&lt;/span&gt;&amp;nbsp;&lt;span style="color:#0000ff;"&gt;def&lt;/span&gt;&amp;nbsp;&lt;span style="color:#000000;"&gt;SR&lt;/span&gt;&lt;span style="color:#402020;"&gt;()&lt;/span&gt;&lt;/html&gt;</y:NodeLabel>
                  <y:Fill color="#cccccc"/>
                  <y:Shape type="rectangle"/>
                  <y:State closed="true"/>
                </y:GroupNode>
              </y:Realizers>
            </y:ProxyAutoBoundsNode>
          </data>
          <graph edgedefault="undirected" id="cif:SR:">
            <node id="cif:SR:p">
              <data key="dn">event p !?</data>
              <data key="ng">
                <y:ShapeNode>
                  <y:Geometry width="62.0"/>
                  <y:NodeLabel alignment="center">&lt;html&gt;&lt;span style="color:#0000ff;"&gt;event&lt;/span&gt;&amp;nbsp;&lt;span style="color:#000000;"&gt;p&lt;/span&gt;&amp;nbsp;&lt;span style="color:#402020;"&gt;!?&lt;/span&gt;&lt;/html&gt;</y:NodeLabel>
                  <y:BorderStyle type="dashed"/>
                  <y:Fill color="#ffe0c0"/>
                  <y:Shape type="octagon"/>
                </y:ShapeNode>
              </data>
            </node>
            <node id="cif:SR::evtref5">
              <data key="dn">p ?</data>
              <data key="ng">
                <y:ShapeNode>
                  <y:Geometry height="30" width="30"/>
                  <y:NodeLabel alignment="center" fontSize="20">&lt;html&gt;&lt;span style="color:#402020;"&gt;?&lt;/span&gt;&lt;/html&gt;</y:NodeLabel>
                  <y:Fill color="#ffc080"/>
                  <y:Shape type="ellipse"/>
                </y:ShapeNode>
              </data>
            </node>
          </graph>
        </node>
        <node id="cif:SC" yfiles.foldertype="folder">
          <data key="dn">automaton def SC()</data>
          <data key="ng">
            <y:ProxyAutoBoundsNode>
              <y:Realizers active="1">
                <y:GroupNode>
                  <y:NodeLabel alignment="left" autoSizePolicy="node_width" backgroundColor="#40c0ff" fontStyle="plain" modelName="internal" modelPosition="t">&lt;html&gt;&amp;nbsp;&amp;nbsp;&amp;nbsp;&amp;nbsp;&amp;nbsp;&lt;span style="color:#0000ff;"&gt;automaton&lt;/span&gt;&amp;nbsp;&lt;span style="color:#0000ff;"&gt;def&lt;/span&gt;&amp;nbsp;&lt;span style="color:#000000;"&gt;SC&lt;/span&gt;&lt;span style="color:#402020;"&gt;()&lt;/span&gt;&lt;/html&gt;</y:NodeLabel>
                  <y:Fill color="#eeeeee"/>
                  <y:Shape type="rectangle"/>
                  <y:State closed="false"/>
                </y:GroupNode>
                <y:GroupNode>
                  <y:Geometry height="30.0" width="157.0"/>
                  <y:NodeLabel alignment="left" autoSizePolicy="node_width" backgroundColor="#40c0ff" fontStyle="plain" modelName="internal" modelPosition="t">&lt;html&gt;&amp;nbsp;&amp;nbsp;&amp;nbsp;&amp;nbsp;&amp;nbsp;&lt;span style="color:#0000ff;"&gt;automaton&lt;/span&gt;&amp;nbsp;&lt;span style="color:#0000ff;"&gt;def&lt;/span&gt;&amp;nbsp;&lt;span style="color:#000000;"&gt;SC&lt;/span&gt;&lt;span style="color:#402020;"&gt;()&lt;/span&gt;&lt;/html&gt;</y:NodeLabel>
                  <y:Fill color="#cccccc"/>
                  <y:Shape type="rectangle"/>
                  <y:State closed="true"/>
                </y:GroupNode>
              </y:Realizers>
            </y:ProxyAutoBoundsNode>
          </data>
          <graph edgedefault="undirected" id="cif:SC:">
            <node id="cif:SC:p">
              <data key="dn">event p !~</data>
              <data key="ng">
                <y:ShapeNode>
                  <y:Geometry width="62.0"/>
                  <y:NodeLabel alignment="center">&lt;html&gt;&lt;span style="color:#0000ff;"&gt;event&lt;/span&gt;&amp;nbsp;&lt;span style="color:#000000;"&gt;p&lt;/span&gt;&amp;nbsp;&lt;span style="color:#402020;"&gt;!~&lt;/span&gt;&lt;/html&gt;</y:NodeLabel>
                  <y:BorderStyle type="dashed"/>
                  <y:Fill color="#ffe0c0"/>
                  <y:Shape type="octagon"/>
                </y:ShapeNode>
              </data>
            </node>
            <node id="cif:SC::evtref6">
              <data key="dn">p</data>
              <data key="ng">
                <y:ShapeNode>
                  <y:Geometry height="30" width="30"/>
                  <y:NodeLabel alignment="center" fontSize="20">&lt;html&gt;&lt;/html&gt;</y:NodeLabel>
                  <y:Fill color="#ffc080"/>
                  <y:Shape type="ellipse"/>
                </y:ShapeNode>
              </data>
            </node>
          </graph>
        </node>
        <node id="cif:RC" yfiles.foldertype="folder">
          <data key="dn">automaton def RC()</data>
          <data key="ng">
            <y:ProxyAutoBoundsNode>
              <y:Realizers active="1">
                <y:GroupNode>
                  <y:NodeLabel alignment="left" autoSizePolicy="node_width" backgroundColor="#40c0ff" fontStyle="plain" modelName="internal" modelPosition="t">&lt;html&gt;&amp;nbsp;&amp;nbsp;&amp;nbsp;&amp;nbsp;&amp;nbsp;&lt;span style="color:#0000ff;"&gt;automaton&lt;/span&gt;&amp;nbsp;&lt;span style="color:#0000ff;"&gt;def&lt;/span&gt;&amp;nbsp;&lt;span style="color:#000000;"&gt;RC&lt;/span&gt;&lt;span style="color:#402020;"&gt;()&lt;/span&gt;&lt;/html&gt;</y:NodeLabel>
                  <y:Fill color="#eeeeee"/>
                  <y:Shape type="rectangle"/>
                  <y:State closed="false"/>
                </y:GroupNode>
                <y:GroupNode>
                  <y:Geometry height="30.0" width="158.0"/>
                  <y:NodeLabel alignment="left" autoSizePolicy="node_width" backgroundColor="#40c0ff" fontStyle="plain" modelName="internal" modelPosition="t">&lt;html&gt;&amp;nbsp;&amp;nbsp;&amp;nbsp;&amp;nbsp;&amp;nbsp;&lt;span style="color:#0000ff;"&gt;automaton&lt;/span&gt;&amp;nbsp;&lt;span style="color:#0000ff;"&gt;def&lt;/span&gt;&amp;nbsp;&lt;span style="color:#000000;"&gt;RC&lt;/span&gt;&lt;span style="color:#402020;"&gt;()&lt;/span&gt;&lt;/html&gt;</y:NodeLabel>
                  <y:Fill color="#cccccc"/>
                  <y:Shape type="rectangle"/>
                  <y:State closed="true"/>
                </y:GroupNode>
              </y:Realizers>
            </y:ProxyAutoBoundsNode>
          </data>
          <graph edgedefault="undirected" id="cif:RC:">
            <node id="cif:RC:p">
              <data key="dn">event p ?~</data>
              <data key="ng">
                <y:ShapeNode>
                  <y:Geometry width="66.0"/>
                  <y:NodeLabel alignment="center">&lt;html&gt;&lt;span style="color:#0000ff;"&gt;event&lt;/span&gt;&amp;nbsp;&lt;span style="color:#000000;"&gt;p&lt;/span&gt;&amp;nbsp;&lt;span style="color:#402020;"&gt;?~&lt;/span&gt;&lt;/html&gt;</y:NodeLabel>
                  <y:BorderStyle type="dashed"/>
                  <y:Fill color="#ffe0c0"/>
                  <y:Shape type="octagon"/>
                </y:ShapeNode>
              </data>
            </node>
            <node id="cif:RC::evtref7">
              <data key="dn">p</data>
              <data key="ng">
                <y:ShapeNode>
                  <y:Geometry height="30" width="30"/>
                  <y:NodeLabel alignment="center" fontSize="20">&lt;html&gt;&lt;/html&gt;</y:NodeLabel>
                  <y:Fill color="#ffc080"/>
                  <y:Shape type="ellipse"/>
                </y:ShapeNode>
              </data>
            </node>
          </graph>
        </node>
        <node id="cif:SRC" yfiles.foldertype="folder">
          <data key="dn">automaton def SRC()</data>
          <data key="ng">
            <y:ProxyAutoBoundsNode>
              <y:Realizers active="1">
                <y:GroupNode>
                  <y:NodeLabel alignment="left" autoSizePolicy="node_width" backgroundColor="#40c0ff" fontStyle="plain" modelName="internal" modelPosition="t">&lt;html&gt;&amp;nbsp;&amp;nbsp;&amp;nbsp;&amp;nbsp;&amp;nbsp;&lt;span style="color:#0000ff;"&gt;automaton&lt;/span&gt;&amp;nbsp;&lt;span style="color:#0000ff;"&gt;def&lt;/span&gt;&amp;nbsp;&lt;span style="color:#000000;"&gt;SRC&lt;/span&gt;&lt;span style="color:#402020;"&gt;()&lt;/span&gt;&lt;/html&gt;</y:NodeLabel>
                  <y:Fill color="#eeeeee"/>
                  <y:Shape type="rectangle"/>
                  <y:State closed="false"/>
                </y:GroupNode>
                <y:GroupNode>
                  <y:Geometry height="30.0" width="166.0"/>
                  <y:NodeLabel alignment="left" autoSizePolicy="node_width" backgroundColor="#40c0ff" fontStyle="plain" modelName="internal" modelPosition="t">&lt;html&gt;&amp;nbsp;&amp;nbsp;&amp;nbsp;&amp;nbsp;&amp;nbsp;&lt;span style="color:#0000ff;"&gt;automaton&lt;/span&gt;&amp;nbsp;&lt;span style="color:#0000ff;"&gt;def&lt;/span&gt;&amp;nbsp;&lt;span style="color:#000000;"&gt;SRC&lt;/span&gt;&lt;span style="color:#402020;"&gt;()&lt;/span&gt;&lt;/html&gt;</y:NodeLabel>
                  <y:Fill color="#cccccc"/>
                  <y:Shape type="rectangle"/>
                  <y:State closed="true"/>
                </y:GroupNode>
              </y:Realizers>
            </y:ProxyAutoBoundsNode>
          </data>
          <graph edgedefault="undirected" id="cif:SRC:">
            <node id="cif:SRC:p">
              <data key="dn">event p !?~</data>
              <data key="ng">
                <y:ShapeNode>
                  <y:Geometry width="69.0"/>
                  <y:NodeLabel alignment="center">&lt;html&gt;&lt;span style="color:#0000ff;"&gt;event&lt;/span&gt;&amp;nbsp;&lt;span style="color:#000000;"&gt;p&lt;/span&gt;&amp;nbsp;&lt;span style="color:#402020;"&gt;!?~&lt;/span&gt;&lt;/html&gt;</y:NodeLabel>
                  <y:BorderStyle type="dashed"/>
                  <y:Fill color="#ffe0c0"/>
                  <y:Shape type="octagon"/>
                </y:ShapeNode>
              </data>
            </node>
            <node id="cif:SRC::evtref8">
              <data key="dn">p</data>
              <data key="ng">
                <y:ShapeNode>
                  <y:Geometry height="30" width="30"/>
                  <y:NodeLabel alignment="center" fontSize="20">&lt;html&gt;&lt;/html&gt;</y:NodeLabel>
                  <y:Fill color="#ffc080"/>
                  <y:Shape type="ellipse"/>
                </y:ShapeNode>
              </data>
            </node>
          </graph>
        </node>
      </graph>
      <data key="dn">Component definitions</data>
      <data key="ng">
        <y:ProxyAutoBoundsNode>
          <y:Realizers active="1">
            <y:GroupNode>
              <y:NodeLabel alignment="left" autoSizePolicy="node_width" backgroundColor="#80ff40" modelName="internal" modelPosition="t">     Component definitions</y:NodeLabel>
              <y:Fill color="#eeeeee"/>
              <y:Shape type="rectangle"/>
              <y:State closed="false"/>
            </y:GroupNode>
            <y:GroupNode>
              <y:Geometry height="30.0" width="175.0"/>
              <y:NodeLabel alignment="left" autoSizePolicy="node_width" backgroundColor="#80ff40" modelName="internal" modelPosition="t">     Component definitions</y:NodeLabel>
              <y:Fill color="#cccccc"/>
              <y:Shape type="rectangle"/>
              <y:State closed="true"/>
            </y:GroupNode>
          </y:Realizers>
        </y:ProxyAutoBoundsNode>
      </data>
    </node>
    <node id="cif::box1" yfiles.foldertype="folder">
      <graph edgedefault="undirected" id="cif::box1:">
        <node id="cif:x" yfiles.foldertype="folder">
          <data key="dn">x: X()</data>
          <data key="ng">
            <y:ProxyAutoBoundsNode>
              <y:Realizers active="1">
                <y:GroupNode>
                  <y:NodeLabel alignment="left" autoSizePolicy="node_width" backgroundColor="#ff8000" fontStyle="plain" modelName="internal" modelPosition="t">&lt;html&gt;&amp;nbsp;&amp;nbsp;&amp;nbsp;&amp;nbsp;&amp;nbsp;&lt;span style="color:#000000;"&gt;x&lt;/span&gt;&lt;span style="color:#402020;"&gt;:&lt;/span&gt;&amp;nbsp;&lt;span style="color:#000000;"&gt;X&lt;/span&gt;&lt;span style="color:#402020;"&gt;()&lt;/span&gt;&lt;/html&gt;</y:NodeLabel>
                  <y:Fill color="#eeeeee"/>
                  <y:Shape type="rectangle"/>
                  <y:State closed="false"/>
                </y:GroupNode>
                <y:GroupNode>
                  <y:Geometry height="30.0" width="76.0"/>
                  <y:NodeLabel alignment="left" autoSizePolicy="node_width" backgroundColor="#ff8000" fontStyle="plain" modelName="internal" modelPosition="t">&lt;html&gt;&amp;nbsp;&amp;nbsp;&amp;nbsp;&amp;nbsp;&amp;nbsp;&lt;span style="color:#000000;"&gt;x&lt;/span&gt;&lt;span style="color:#402020;"&gt;:&lt;/span&gt;&amp;nbsp;&lt;span style="color:#000000;"&gt;X&lt;/span&gt;&lt;span style="color:#402020;"&gt;()&lt;/span&gt;&lt;/html&gt;</y:NodeLabel>
                  <y:Fill color="#cccccc"/>
                  <y:Shape type="rectangle"/>
                  <y:State closed="true"/>
                </y:GroupNode>
              </y:Realizers>
            </y:ProxyAutoBoundsNode>
          </data>
          <graph edgedefault="undirected" id="cif:x:">
            <node id="cif:x:p">
              <data key="dn">event p</data>
              <data key="ng">
                <y:ShapeNode>
                  <y:Geometry width="49.0"/>
                  <y:NodeLabel alignment="center">&lt;html&gt;&lt;span style="color:#0000ff;"&gt;event&lt;/span&gt;&amp;nbsp;&lt;span style="color:#000000;"&gt;p&lt;/span&gt;&lt;/html&gt;</y:NodeLabel>
                  <y:BorderStyle type="dashed"/>
                  <y:Fill color="#ffe0c0"/>
                  <y:Shape type="octagon"/>
                </y:ShapeNode>
              </data>
            </node>
          </graph>
        </node>
        <node id="cif:n" yfiles.foldertype="folder">
          <data key="dn">n: N()</data>
          <data key="ng">
            <y:ProxyAutoBoundsNode>
              <y:Realizers active="1">
                <y:GroupNode>
                  <y:NodeLabel alignment="left" autoSizePolicy="node_width" backgroundColor="#ff8000" fontStyle="plain" modelName="internal" modelPosition="t">&lt;html&gt;&amp;nbsp;&amp;nbsp;&amp;nbsp;&amp;nbsp;&amp;nbsp;&lt;span style="color:#000000;"&gt;n&lt;/span&gt;&lt;span style="color:#402020;"&gt;:&lt;/span&gt;&amp;nbsp;&lt;span style="color:#000000;"&gt;N&lt;/span&gt;&lt;span style="color:#402020;"&gt;()&lt;/span&gt;&lt;/html&gt;</y:NodeLabel>
                  <y:Fill color="#eeeeee"/>
                  <y:Shape type="rectangle"/>
                  <y:State closed="false"/>
                </y:GroupNode>
                <y:GroupNode>
                  <y:Geometry height="30.0" width="80.0"/>
                  <y:NodeLabel alignment="left" autoSizePolicy="node_width" backgroundColor="#ff8000" fontStyle="plain" modelName="internal" modelPosition="t">&lt;html&gt;&amp;nbsp;&amp;nbsp;&amp;nbsp;&amp;nbsp;&amp;nbsp;&lt;span style="color:#000000;"&gt;n&lt;/span&gt;&lt;span style="color:#402020;"&gt;:&lt;/span&gt;&amp;nbsp;&lt;span style="color:#000000;"&gt;N&lt;/span&gt;&lt;span style="color:#402020;"&gt;()&lt;/span&gt;&lt;/html&gt;</y:NodeLabel>
                  <y:Fill color="#cccccc"/>
                  <y:Shape type="rectangle"/>
                  <y:State closed="true"/>
                </y:GroupNode>
              </y:Realizers>
            </y:ProxyAutoBoundsNode>
          </data>
          <graph edgedefault="undirected" id="cif:n:">
            <node id="cif:n:p">
              <data key="dn">event p !?~</data>
              <data key="ng">
                <y:ShapeNode>
                  <y:Geometry width="69.0"/>
                  <y:NodeLabel alignment="center">&lt;html&gt;&lt;span style="color:#0000ff;"&gt;event&lt;/span&gt;&amp;nbsp;&lt;span style="color:#000000;"&gt;p&lt;/span&gt;&amp;nbsp;&lt;span style="color:#402020;"&gt;!?~&lt;/span&gt;&lt;/html&gt;</y:NodeLabel>
                  <y:BorderStyle type="dashed"/>
                  <y:Fill color="#ffe0c0"/>
                  <y:Shape type="octagon"/>
                </y:ShapeNode>
              </data>
            </node>
          </graph>
        </node>
        <node id="cif:s" yfiles.foldertype="folder">
          <data key="dn">s: S()</data>
          <data key="ng">
            <y:ProxyAutoBoundsNode>
              <y:Realizers active="1">
                <y:GroupNode>
                  <y:NodeLabel alignment="left" autoSizePolicy="node_width" backgroundColor="#ff8000" fontStyle="plain" modelName="internal" modelPosition="t">&lt;html&gt;&amp;nbsp;&amp;nbsp;&amp;nbsp;&amp;nbsp;&amp;nbsp;&lt;span style="color:#000000;"&gt;s&lt;/span&gt;&lt;span style="color:#402020;"&gt;:&lt;/span&gt;&amp;nbsp;&lt;span style="color:#000000;"&gt;S&lt;/span&gt;&lt;span style="color:#402020;"&gt;()&lt;/span&gt;&lt;/html&gt;</y:NodeLabel>
                  <y:Fill color="#eeeeee"/>
                  <y:Shape type="rectangle"/>
                  <y:State closed="false"/>
                </y:GroupNode>
                <y:GroupNode>
                  <y:Geometry height="30.0" width="79.0"/>
                  <y:NodeLabel alignment="left" autoSizePolicy="node_width" backgroundColor="#ff8000" fontStyle="plain" modelName="internal" modelPosition="t">&lt;html&gt;&amp;nbsp;&amp;nbsp;&amp;nbsp;&amp;nbsp;&amp;nbsp;&lt;span style="color:#000000;"&gt;s&lt;/span&gt;&lt;span style="color:#402020;"&gt;:&lt;/span&gt;&amp;nbsp;&lt;span style="color:#000000;"&gt;S&lt;/span&gt;&lt;span style="color:#402020;"&gt;()&lt;/span&gt;&lt;/html&gt;</y:NodeLabel>
                  <y:Fill color="#cccccc"/>
                  <y:Shape type="rectangle"/>
                  <y:State closed="true"/>
                </y:GroupNode>
              </y:Realizers>
            </y:ProxyAutoBoundsNode>
          </data>
          <graph edgedefault="undirected" id="cif:s:">
            <node id="cif:s:p">
              <data key="dn">event p !</data>
              <data key="ng">
                <y:ShapeNode>
                  <y:Geometry width="55.0"/>
                  <y:NodeLabel alignment="center">&lt;html&gt;&lt;span style="color:#0000ff;"&gt;event&lt;/span&gt;&amp;nbsp;&lt;span style="color:#000000;"&gt;p&lt;/span&gt;&amp;nbsp;&lt;span style="color:#402020;"&gt;!&lt;/span&gt;&lt;/html&gt;</y:NodeLabel>
                  <y:BorderStyle type="dashed"/>
                  <y:Fill color="#ffe0c0"/>
                  <y:Shape type="octagon"/>
                </y:ShapeNode>
              </data>
            </node>
          </graph>
        </node>
        <node id="cif:r" yfiles.foldertype="folder">
          <data key="dn">r: R()</data>
          <data key="ng">
            <y:ProxyAutoBoundsNode>
              <y:Realizers active="1">
                <y:GroupNode>
                  <y:NodeLabel alignment="left" autoSizePolicy="node_width" backgroundColor="#ff8000" fontStyle="plain" modelName="internal" modelPosition="t">&lt;html&gt;&amp;nbsp;&amp;nbsp;&amp;nbsp;&amp;nbsp;&amp;nbsp;&lt;span style="color:#000000;"&gt;r&lt;/span&gt;&lt;span style="color:#402020;"&gt;:&lt;/span&gt;&amp;nbsp;&lt;span style="color:#000000;"&gt;R&lt;/span&gt;&lt;span style="color:#402020;"&gt;()&lt;/span&gt;&lt;/html&gt;</y:NodeLabel>
                  <y:Fill color="#eeeeee"/>
                  <y:Shape type="rectangle"/>
                  <y:State closed="false"/>
                </y:GroupNode>
                <y:GroupNode>
                  <y:Geometry height="30.0" width="77.0"/>
                  <y:NodeLabel alignment="left" autoSizePolicy="node_width" backgroundColor="#ff8000" fontStyle="plain" modelName="internal" modelPosition="t">&lt;html&gt;&amp;nbsp;&amp;nbsp;&amp;nbsp;&amp;nbsp;&amp;nbsp;&lt;span style="color:#000000;"&gt;r&lt;/span&gt;&lt;span style="color:#402020;"&gt;:&lt;/span&gt;&amp;nbsp;&lt;span style="color:#000000;"&gt;R&lt;/span&gt;&lt;span style="color:#402020;"&gt;()&lt;/span&gt;&lt;/html&gt;</y:NodeLabel>
                  <y:Fill color="#cccccc"/>
                  <y:Shape type="rectangle"/>
                  <y:State closed="true"/>
                </y:GroupNode>
              </y:Realizers>
            </y:ProxyAutoBoundsNode>
          </data>
          <graph edgedefault="undirected" id="cif:r:">
            <node id="cif:r:p">
              <data key="dn">event p ?</data>
              <data key="ng">
                <y:ShapeNode>
                  <y:Geometry width="59.0"/>
                  <y:NodeLabel alignment="center">&lt;html&gt;&lt;span style="color:#0000ff;"&gt;event&lt;/span&gt;&amp;nbsp;&lt;span style="color:#000000;"&gt;p&lt;/span&gt;&amp;nbsp;&lt;span style="color:#402020;"&gt;?&lt;/span&gt;&lt;/html&gt;</y:NodeLabel>
                  <y:BorderStyle type="dashed"/>
                  <y:Fill color="#ffe0c0"/>
                  <y:Shape type="octagon"/>
                </y:ShapeNode>
              </data>
            </node>
          </graph>
        </node>
        <node id="cif:c" yfiles.foldertype="folder">
          <data key="dn">c: C()</data>
          <data key="ng">
            <y:ProxyAutoBoundsNode>
              <y:Realizers active="1">
                <y:GroupNode>
                  <y:NodeLabel alignment="left" autoSizePolicy="node_width" backgroundColor="#ff8000" fontStyle="plain" modelName="internal" modelPosition="t">&lt;html&gt;&amp;nbsp;&amp;nbsp;&amp;nbsp;&amp;nbsp;&amp;nbsp;&lt;span style="color:#000000;"&gt;c&lt;/span&gt;&lt;span style="color:#402020;"&gt;:&lt;/span&gt;&amp;nbsp;&lt;span style="color:#000000;"&gt;C&lt;/span&gt;&lt;span style="color:#402020;"&gt;()&lt;/span&gt;&lt;/html&gt;</y:NodeLabel>
                  <y:Fill color="#eeeeee"/>
                  <y:Shape type="rectangle"/>
                  <y:State closed="false"/>
                </y:GroupNode>
                <y:GroupNode>
                  <y:Geometry height="30.0" width="79.0"/>
                  <y:NodeLabel alignment="left" autoSizePolicy="node_width" backgroundColor="#ff8000" fontStyle="plain" modelName="internal" modelPosition="t">&lt;html&gt;&amp;nbsp;&amp;nbsp;&amp;nbsp;&amp;nbsp;&amp;nbsp;&lt;span style="color:#000000;"&gt;c&lt;/span&gt;&lt;span style="color:#402020;"&gt;:&lt;/span&gt;&amp;nbsp;&lt;span style="color:#000000;"&gt;C&lt;/span&gt;&lt;span style="color:#402020;"&gt;()&lt;/span&gt;&lt;/html&gt;</y:NodeLabel>
                  <y:Fill color="#cccccc"/>
                  <y:Shape type="rectangle"/>
                  <y:State closed="true"/>
                </y:GroupNode>
              </y:Realizers>
            </y:ProxyAutoBoundsNode>
          </data>
          <graph edgedefault="undirected" id="cif:c:">
            <node id="cif:c:p">
              <data key="dn">event p ~</data>
              <data key="ng">
                <y:ShapeNode>
                  <y:Geometry width="59.0"/>
                  <y:NodeLabel alignment="center">&lt;html&gt;&lt;span style="color:#0000ff;"&gt;event&lt;/span&gt;&amp;nbsp;&lt;span style="color:#000000;"&gt;p&lt;/span&gt;&amp;nbsp;&lt;span style="color:#402020;"&gt;~&lt;/span&gt;&lt;/html&gt;</y:NodeLabel>
                  <y:BorderStyle type="dashed"/>
                  <y:Fill color="#ffe0c0"/>
                  <y:Shape type="octagon"/>
                </y:ShapeNode>
              </data>
            </node>
          </graph>
        </node>
        <node id="cif:sr" yfiles.foldertype="folder">
          <data key="dn">sr: SR()</data>
          <data key="ng">
            <y:ProxyAutoBoundsNode>
              <y:Realizers active="1">
                <y:GroupNode>
                  <y:NodeLabel alignment="left" autoSizePolicy="node_width" backgroundColor="#ff8000" fontStyle="plain" modelName="internal" modelPosition="t">&lt;html&gt;&amp;nbsp;&amp;nbsp;&amp;nbsp;&amp;nbsp;&amp;nbsp;&lt;span style="color:#000000;"&gt;sr&lt;/span&gt;&lt;span style="color:#402020;"&gt;:&lt;/span&gt;&amp;nbsp;&lt;span style="color:#000000;"&gt;SR&lt;/span&gt;&lt;span style="color:#402020;"&gt;()&lt;/span&gt;&lt;/html&gt;</y:NodeLabel>
                  <y:Fill color="#eeeeee"/>
                  <y:Shape type="rectangle"/>
                  <y:State closed="false"/>
                </y:GroupNode>
                <y:GroupNode>
                  <y:Geometry height="30.0" width="92.0"/>
                  <y:NodeLabel alignment="left" autoSizePolicy="node_width" backgroundColor="#ff8000" fontStyle="plain" modelName="internal" modelPosition="t">&lt;html&gt;&amp;nbsp;&amp;nbsp;&amp;nbsp;&amp;nbsp;&amp;nbsp;&lt;span style="color:#000000;"&gt;sr&lt;/span&gt;&lt;span style="color:#402020;"&gt;:&lt;/span&gt;&amp;nbsp;&lt;span style="color:#000000;"&gt;SR&lt;/span&gt;&lt;span style="color:#402020;"&gt;()&lt;/span&gt;&lt;/html&gt;</y:NodeLabel>
                  <y:Fill color="#cccccc"/>
                  <y:Shape type="rectangle"/>
                  <y:State closed="true"/>
                </y:GroupNode>
              </y:Realizers>
            </y:ProxyAutoBoundsNode>
          </data>
          <graph edgedefault="undirected" id="cif:sr:">
            <node id="cif:sr:p">
              <data key="dn">event p !?</data>
              <data key="ng">
                <y:ShapeNode>
                  <y:Geometry width="62.0"/>
                  <y:NodeLabel alignment="center">&lt;html&gt;&lt;span style="color:#0000ff;"&gt;event&lt;/span&gt;&amp;nbsp;&lt;span style="color:#000000;"&gt;p&lt;/span&gt;&amp;nbsp;&lt;span style="color:#402020;"&gt;!?&lt;/span&gt;&lt;/html&gt;</y:NodeLabel>
                  <y:BorderStyle type="dashed"/>
                  <y:Fill color="#ffe0c0"/>
                  <y:Shape type="octagon"/>
                </y:ShapeNode>
              </data>
            </node>
          </graph>
        </node>
        <node id="cif:sc" yfiles.foldertype="folder">
          <data key="dn">sc: SC()</data>
          <data key="ng">
            <y:ProxyAutoBoundsNode>
              <y:Realizers active="1">
                <y:GroupNode>
                  <y:NodeLabel alignment="left" autoSizePolicy="node_width" backgroundColor="#ff8000" fontStyle="plain" modelName="internal" modelPosition="t">&lt;html&gt;&amp;nbsp;&amp;nbsp;&amp;nbsp;&amp;nbsp;&amp;nbsp;&lt;span style="color:#000000;"&gt;sc&lt;/span&gt;&lt;span style="color:#402020;"&gt;:&lt;/span&gt;&amp;nbsp;&lt;span style="color:#000000;"&gt;SC&lt;/span&gt;&lt;span style="color:#402020;"&gt;()&lt;/span&gt;&lt;/html&gt;</y:NodeLabel>
                  <y:Fill color="#eeeeee"/>
                  <y:Shape type="rectangle"/>
                  <y:State closed="false"/>
                </y:GroupNode>
                <y:GroupNode>
                  <y:Geometry height="30.0" width="94.0"/>
                  <y:NodeLabel alignment="left" autoSizePolicy="node_width" backgroundColor="#ff8000" fontStyle="plain" modelName="internal" modelPosition="t">&lt;html&gt;&amp;nbsp;&amp;nbsp;&amp;nbsp;&amp;nbsp;&amp;nbsp;&lt;span style="color:#000000;"&gt;sc&lt;/span&gt;&lt;span style="color:#402020;"&gt;:&lt;/span&gt;&amp;nbsp;&lt;span style="color:#000000;"&gt;SC&lt;/span&gt;&lt;span style="color:#402020;"&gt;()&lt;/span&gt;&lt;/html&gt;</y:NodeLabel>
                  <y:Fill color="#cccccc"/>
                  <y:Shape type="rectangle"/>
                  <y:State closed="true"/>
                </y:GroupNode>
              </y:Realizers>
            </y:ProxyAutoBoundsNode>
          </data>
          <graph edgedefault="undirected" id="cif:sc:">
            <node id="cif:sc:p">
              <data key="dn">event p !~</data>
              <data key="ng">
                <y:ShapeNode>
                  <y:Geometry width="62.0"/>
                  <y:NodeLabel alignment="center">&lt;html&gt;&lt;span style="color:#0000ff;"&gt;event&lt;/span&gt;&amp;nbsp;&lt;span style="color:#000000;"&gt;p&lt;/span&gt;&amp;nbsp;&lt;span style="color:#402020;"&gt;!~&lt;/span&gt;&lt;/html&gt;</y:NodeLabel>
                  <y:BorderStyle type="dashed"/>
                  <y:Fill color="#ffe0c0"/>
                  <y:Shape type="octagon"/>
                </y:ShapeNode>
              </data>
            </node>
          </graph>
        </node>
        <node id="cif:rc" yfiles.foldertype="folder">
          <data key="dn">rc: RC()</data>
          <data key="ng">
            <y:ProxyAutoBoundsNode>
              <y:Realizers active="1">
                <y:GroupNode>
                  <y:NodeLabel alignment="left" autoSizePolicy="node_width" backgroundColor="#ff8000" fontStyle="plain" modelName="internal" modelPosition="t">&lt;html&gt;&amp;nbsp;&amp;nbsp;&amp;nbsp;&amp;nbsp;&amp;nbsp;&lt;span style="color:#000000;"&gt;rc&lt;/span&gt;&lt;span style="color:#402020;"&gt;:&lt;/span&gt;&amp;nbsp;&lt;span style="color:#000000;"&gt;RC&lt;/span&gt;&lt;span style="color:#402020;"&gt;()&lt;/span&gt;&lt;/html&gt;</y:NodeLabel>
                  <y:Fill color="#eeeeee"/>
                  <y:Shape type="rectangle"/>
                  <y:State closed="false"/>
                </y:GroupNode>
                <y:GroupNode>
                  <y:Geometry height="30.0" width="92.0"/>
                  <y:NodeLabel alignment="left" autoSizePolicy="node_width" backgroundColor="#ff8000" fontStyle="plain" modelName="internal" modelPosition="t">&lt;html&gt;&amp;nbsp;&amp;nbsp;&amp;nbsp;&amp;nbsp;&amp;nbsp;&lt;span style="color:#000000;"&gt;rc&lt;/span&gt;&lt;span style="color:#402020;"&gt;:&lt;/span&gt;&amp;nbsp;&lt;span style="color:#000000;"&gt;RC&lt;/span&gt;&lt;span style="color:#402020;"&gt;()&lt;/span&gt;&lt;/html&gt;</y:NodeLabel>
                  <y:Fill color="#cccccc"/>
                  <y:Shape type="rectangle"/>
                  <y:State closed="true"/>
                </y:GroupNode>
              </y:Realizers>
            </y:ProxyAutoBoundsNode>
          </data>
          <graph edgedefault="undirected" id="cif:rc:">
            <node id="cif:rc:p">
              <data key="dn">event p ?~</data>
              <data key="ng">
                <y:ShapeNode>
                  <y:Geometry width="66.0"/>
                  <y:NodeLabel alignment="center">&lt;html&gt;&lt;span style="color:#0000ff;"&gt;event&lt;/span&gt;&amp;nbsp;&lt;span style="color:#000000;"&gt;p&lt;/span&gt;&amp;nbsp;&lt;span style="color:#402020;"&gt;?~&lt;/span&gt;&lt;/html&gt;</y:NodeLabel>
                  <y:BorderStyle type="dashed"/>
                  <y:Fill color="#ffe0c0"/>
                  <y:Shape type="octagon"/>
                </y:ShapeNode>
              </data>
            </node>
          </graph>
        </node>
        <node id="cif:src" yfiles.foldertype="folder">
          <data key="dn">src: SRC()</data>
          <data key="ng">
            <y:ProxyAutoBoundsNode>
              <y:Realizers active="1">
                <y:GroupNode>
                  <y:NodeLabel alignment="left" autoSizePolicy="node_width" backgroundColor="#ff8000" fontStyle="plain" modelName="internal" modelPosition="t">&lt;html&gt;&amp;nbsp;&amp;nbsp;&amp;nbsp;&amp;nbsp;&amp;nbsp;&lt;span style="color:#000000;"&gt;src&lt;/span&gt;&lt;span style="color:#402020;"&gt;:&lt;/span&gt;&amp;nbsp;&lt;span style="color:#000000;"&gt;SRC&lt;/span&gt;&lt;span style="color:#402020;"&gt;()&lt;/span&gt;&lt;/html&gt;</y:NodeLabel>
                  <y:Fill color="#eeeeee"/>
                  <y:Shape type="rectangle"/>
                  <y:State closed="false"/>
                </y:GroupNode>
                <y:GroupNode>
                  <y:Geometry height="30.0" width="107.0"/>
                  <y:NodeLabel alignment="left" autoSizePolicy="node_width" backgroundColor="#ff8000" fontStyle="plain" modelName="internal" modelPosition="t">&lt;html&gt;&amp;nbsp;&amp;nbsp;&amp;nbsp;&amp;nbsp;&amp;nbsp;&lt;span style="color:#000000;"&gt;src&lt;/span&gt;&lt;span style="color:#402020;"&gt;:&lt;/span&gt;&amp;nbsp;&lt;span style="color:#000000;"&gt;SRC&lt;/span&gt;&lt;span style="color:#402020;"&gt;()&lt;/span&gt;&lt;/html&gt;</y:NodeLabel>
                  <y:Fill color="#cccccc"/>
                  <y:Shape type="rectangle"/>
                  <y:State closed="true"/>
                </y:GroupNode>
              </y:Realizers>
            </y:ProxyAutoBoundsNode>
          </data>
          <graph edgedefault="undirected" id="cif:src:">
            <node id="cif:src:p">
              <data key="dn">event p !?~</data>
              <data key="ng">
                <y:ShapeNode>
                  <y:Geometry width="69.0"/>
                  <y:NodeLabel alignment="center">&lt;html&gt;&lt;span style="color:#0000ff;"&gt;event&lt;/span&gt;&amp;nbsp;&lt;span style="color:#000000;"&gt;p&lt;/span&gt;&amp;nbsp;&lt;span style="color:#402020;"&gt;!?~&lt;/span&gt;&lt;/html&gt;</y:NodeLabel>
                  <y:BorderStyle type="dashed"/>
                  <y:Fill color="#ffe0c0"/>
                  <y:Shape type="octagon"/>
                </y:ShapeNode>
              </data>
            </node>
          </graph>
        </node>
        <node id="cif:e">
          <data key="dn">event e !?~</data>
          <data key="ng">
            <y:ShapeNode>
              <y:Geometry width="69.0"/>
              <y:NodeLabel alignment="center">&lt;html&gt;&lt;span style="color:#0000ff;"&gt;event&lt;/span&gt;&amp;nbsp;&lt;span style="color:#000000;"&gt;e&lt;/span&gt;&amp;nbsp;&lt;span style="color:#402020;"&gt;!?~&lt;/span&gt;&lt;/html&gt;</y:NodeLabel>
              <y:BorderStyle width="2.0"/>
              <y:Fill color="#ffc000"/>
              <y:Shape type="rectangle"/>
            </y:ShapeNode>
          </data>
        </node>
      </graph>
      <data key="dn">Components</data>
      <data key="ng">
        <y:ProxyAutoBoundsNode>
          <y:Realizers active="1">
            <y:GroupNode>
              <y:NodeLabel alignment="left" autoSizePolicy="node_width" backgroundColor="#80ff40" modelName="internal" modelPosition="t">     Components</y:NodeLabel>
              <y:Fill color="#eeeeee"/>
              <y:Shape type="rectangle"/>
              <y:State closed="false"/>
            </y:GroupNode>
            <y:GroupNode>
              <y:Geometry height="30.0" width="122.0"/>
              <y:NodeLabel alignment="left" autoSizePolicy="node_width" backgroundColor="#80ff40" modelName="internal" modelPosition="t">     Components</y:NodeLabel>
              <y:Fill color="#cccccc"/>
              <y:Shape type="rectangle"/>
              <y:State closed="true"/>
            </y:GroupNode>
          </y:Realizers>
        </y:ProxyAutoBoundsNode>
      </data>
    </node>
    <edge directed="false" source="cif:X:p" target="cif:X::evtref0">
      <data key="eg">
        <y:PolyLineEdge>
          <y:Arrows source="none" target="none"/>
          <y:BendStyle smoothed="true"/>
        </y:PolyLineEdge>
      </data>
    </edge>
    <edge directed="false" source="cif:N:p" target="cif:N::evtref1">
      <data key="eg">
        <y:PolyLineEdge>
          <y:Arrows source="none" target="none"/>
          <y:BendStyle smoothed="true"/>
        </y:PolyLineEdge>
      </data>
    </edge>
    <edge directed="true" source="cif:S::evtref2" target="cif:S:p">
      <data key="eg">
        <y:PolyLineEdge>
          <y:Arrows source="none" target="arrow"/>
          <y:BendStyle smoothed="true"/>
        </y:PolyLineEdge>
      </data>
    </edge>
    <edge directed="true" source="cif:R:p" target="cif:R::evtref3">
      <data key="eg">
        <y:PolyLineEdge>
          <y:Arrows source="none" target="arrow"/>
          <y:BendStyle smoothed="true"/>
        </y:PolyLineEdge>
      </data>
    </edge>
    <edge directed="false" source="cif:C:p" target="cif:C::evtref4">
      <data key="eg">
        <y:PolyLineEdge>
          <y:Arrows source="none" target="none"/>
          <y:BendStyle smoothed="true"/>
        </y:PolyLineEdge>
      </data>
    </edge>
    <edge directed="true" source="cif:SR:p" target="cif:SR::evtref5">
      <data key="eg">
        <y:PolyLineEdge>
          <y:Arrows source="none" target="arrow"/>
          <y:BendStyle smoothed="true"/>
        </y:PolyLineEdge>
      </data>
    </edge>
    <edge directed="false" source="cif:SC:p" target="cif:SC::evtref6">
      <data key="eg">
        <y:PolyLineEdge>
          <y:Arrows source="none" target="none"/>
          <y:BendStyle smoothed="true"/>
        </y:PolyLineEdge>
      </data>
    </edge>
    <edge directed="false" source="cif:RC:p" target="cif:RC::evtref7">
      <data key="eg">
        <y:PolyLineEdge>
          <y:Arrows source="none" target="none"/>
          <y:BendStyle smoothed="true"/>
        </y:PolyLineEdge>
      </data>
    </edge>
    <edge directed="false" source="cif:SRC:p" target="cif:SRC::evtref8">
      <data key="eg">
        <y:PolyLineEdge>
          <y:Arrows source="none" target="none"/>
          <y:BendStyle smoothed="true"/>
        </y:PolyLineEdge>
      </data>
    </edge>
    <edge directed="false" source="cif:e" target="cif:x:p">
      <data key="eg">
        <y:PolyLineEdge>
          <y:Arrows source="none" target="none"/>
          <y:BendStyle smoothed="true"/>
        </y:PolyLineEdge>
      </data>
    </edge>
    <edge directed="false" source="cif:e" target="cif:n:p">
      <data key="eg">
        <y:PolyLineEdge>
          <y:Arrows source="none" target="none"/>
          <y:BendStyle smoothed="true"/>
        </y:PolyLineEdge>
      </data>
    </edge>
    <edge directed="true" source="cif:s:p" target="cif:e">
      <data key="eg">
        <y:PolyLineEdge>
          <y:Arrows source="none" target="arrow"/>
          <y:BendStyle smoothed="true"/>
        </y:PolyLineEdge>
      </data>
    </edge>
    <edge directed="true" source="cif:e" target="cif:r:p">
      <data key="eg">
        <y:PolyLineEdge>
          <y:Arrows source="none" target="arrow"/>
          <y:BendStyle smoothed="true"/>
        </y:PolyLineEdge>
      </data>
    </edge>
    <edge directed="false" source="cif:e" target="cif:c:p">
      <data key="eg">
        <y:PolyLineEdge>
          <y:Arrows source="none" target="none"/>
          <y:BendStyle smoothed="true"/>
        </y:PolyLineEdge>
      </data>
    </edge>
    <edge directed="false" source="cif:e" target="cif:sr:p">
      <data key="eg">
        <y:PolyLineEdge>
          <y:Arrows source="arrow" target="arrow"/>
          <y:BendStyle smoothed="true"/>
        </y:PolyLineEdge>
      </data>
    </edge>
    <edge directed="true" source="cif:sc:p" target="cif:e">
      <data key="eg">
        <y:PolyLineEdge>
          <y:Arrows source="none" target="arrow"/>
          <y:BendStyle smoothed="true"/>
        </y:PolyLineEdge>
      </data>
    </edge>
    <edge directed="true" source="cif:e" target="cif:rc:p">
      <data key="eg">
        <y:PolyLineEdge>
          <y:Arrows source="none" target="arrow"/>
          <y:BendStyle smoothed="true"/>
        </y:PolyLineEdge>
      </data>
    </edge>
    <edge directed="false" source="cif:e" target="cif:src:p">
      <data key="eg">
        <y:PolyLineEdge>
          <y:Arrows source="arrow" target="arrow"/>
          <y:BendStyle smoothed="true"/>
        </y:PolyLineEdge>
      </data>
    </edge>
  </graph>
</graphml>
