<?xml version="1.0" encoding="UTF-8" standalone="no"?>
<graphml xmlns:xsi="http://www.w3.org/2001/XMLSchema-instance" xmlns:y="http://www.yworks.com/xml/graphml" xsi:schemaLocation="http://graphml.graphdrawing.org/xmlns http://www.yworks.com/xml/schema/graphml/1.1/ygraphml.xsd" xmlns="http://graphml.graphdrawing.org/xmlns">
  <key for="node" id="ng" yfiles.type="nodegraphics"/>
  <key for="edge" id="eg" yfiles.type="edgegraphics"/>
  <key attr.name="description" attr.type="string" for="node" id="dn"/>
  <graph edgedefault="undirected" id="cif:">
    <edge directed="true" source="cif:aut:x" target="cif:aut:loc1">
      <data key="eg">
        <y:PolyLineEdge>
          <y:Arrows source="none" target="arrow"/>
          <y:BendStyle smoothed="true"/>
        </y:PolyLineEdge>
      </data>
    </edge>
    <edge directed="true" source="cif:aut:x" target="cif:aut:loc2">
      <data key="eg">
        <y:PolyLineEdge>
          <y:Arrows source="none" target="arrow"/>
          <y:BendStyle smoothed="true"/>
        </y:PolyLineEdge>
      </data>
    </edge>
    <edge directed="true" source="cif:aut:y" target="cif:aut:loc2">
      <data key="eg">
        <y:PolyLineEdge>
          <y:Arrows source="none" target="arrow"/>
          <y:BendStyle smoothed="true"/>
        </y:PolyLineEdge>
      </data>
    </edge>
    <edge directed="true" source="cif:aut:z" target="cif:aut:loc3">
      <data key="eg">
        <y:PolyLineEdge>
          <y:Arrows source="none" target="arrow"/>
          <y:BendStyle smoothed="true"/>
        </y:PolyLineEdge>
      </data>
    </edge>
    <edge directed="true" source="cif:aut:y" target="cif:aut:loc3">
      <data key="eg">
        <y:PolyLineEdge>
          <y:Arrows source="none" target="arrow"/>
          <y:BendStyle smoothed="true"/>
        </y:PolyLineEdge>
      </data>
    </edge>
    <edge directed="false" source="cif:aut:c_add" target="cif:aut::evtref0">
      <data key="eg">
        <y:PolyLineEdge>
          <y:Arrows source="none" target="none"/>
          <y:BendStyle smoothed="true"/>
        </y:PolyLineEdge>
      </data>
    </edge>
    <edge directed="false" source="cif:aut:c_remove" target="cif:aut::evtref1">
      <data key="eg">
        <y:PolyLineEdge>
          <y:Arrows source="none" target="none"/>
          <y:BendStyle smoothed="true"/>
        </y:PolyLineEdge>
      </data>
    </edge>
    <edge directed="false" source="cif:aut:e_update" target="cif:aut::evtref2">
      <data key="eg">
        <y:PolyLineEdge>
          <y:Arrows source="none" target="none"/>
          <y:BendStyle smoothed="true"/>
        </y:PolyLineEdge>
      </data>
    </edge>
    <edge directed="false" source="cif:aut:u_added" target="cif:aut::evtref3">
      <data key="eg">
        <y:PolyLineEdge>
          <y:Arrows source="none" target="none"/>
          <y:BendStyle smoothed="true"/>
        </y:PolyLineEdge>
      </data>
    </edge>
    <edge directed="false" source="cif:aut:u_removed" target="cif:aut::evtref4">
      <data key="eg">
        <y:PolyLineEdge>
          <y:Arrows source="none" target="none"/>
          <y:BendStyle smoothed="true"/>
        </y:PolyLineEdge>
      </data>
    </edge>
    <edge directed="true" source="cif:aut::evtref5" target="cif:aut:e_snd">
      <data key="eg">
        <y:PolyLineEdge>
          <y:Arrows source="none" target="arrow"/>
          <y:BendStyle smoothed="true"/>
        </y:PolyLineEdge>
      </data>
    </edge>
    <edge directed="true" source="cif:aut:e_rcv" target="cif:aut::evtref6">
      <data key="eg">
        <y:PolyLineEdge>
          <y:Arrows source="none" target="arrow"/>
          <y:BendStyle smoothed="true"/>
        </y:PolyLineEdge>
      </data>
    </edge>
    <node id="cif:aut" yfiles.foldertype="folder">
      <data key="dn">automaton aut</data>
      <data key="ng">
        <y:ProxyAutoBoundsNode>
          <y:Realizers active="1">
            <y:GroupNode>
              <y:NodeLabel alignment="left" autoSizePolicy="node_width" backgroundColor="#ff0000" fontStyle="plain" modelName="internal" modelPosition="t">&lt;html&gt;&amp;nbsp;&amp;nbsp;&amp;nbsp;&amp;nbsp;&amp;nbsp;&lt;span style="color:#0000ff;"&gt;automaton&lt;/span&gt;&amp;nbsp;&lt;span style="color:#000000;"&gt;aut&lt;/span&gt;&lt;/html&gt;</y:NodeLabel>
              <y:Fill color="#eeeeee"/>
              <y:Shape type="rectangle"/>
              <y:State closed="false"/>
            </y:GroupNode>
            <y:GroupNode>
              <y:Geometry height="30.0" width="129.0"/>
              <y:NodeLabel alignment="left" autoSizePolicy="node_width" backgroundColor="#ff0000" fontStyle="plain" modelName="internal" modelPosition="t">&lt;html&gt;&amp;nbsp;&amp;nbsp;&amp;nbsp;&amp;nbsp;&amp;nbsp;&lt;span style="color:#0000ff;"&gt;automaton&lt;/span&gt;&amp;nbsp;&lt;span style="color:#000000;"&gt;aut&lt;/span&gt;&lt;/html&gt;</y:NodeLabel>
              <y:Fill color="#cccccc"/>
              <y:Shape type="rectangle"/>
              <y:State closed="true"/>
            </y:GroupNode>
          </y:Realizers>
        </y:ProxyAutoBoundsNode>
      </data>
      <graph edgedefault="undirected" id="cif:aut:">
        <node id="cif:aut::evtref6">
          <data key="dn">e_rcv ?</data>
          <data key="ng">
            <y:ShapeNode>
              <y:Geometry height="30" width="30"/>
              <y:NodeLabel alignment="center" fontSize="20">&lt;html&gt;&lt;span style="color:#402020;"&gt;?&lt;/span&gt;&lt;/html&gt;</y:NodeLabel>
              <y:Fill color="#ffc080"/>
              <y:Shape type="ellipse"/>
            </y:ShapeNode>
          </data>
        </node>
        <node id="cif:aut::evtref5">
          <data key="dn">e_snd !</data>
          <data key="ng">
            <y:ShapeNode>
              <y:Geometry height="30" width="30"/>
              <y:NodeLabel alignment="center" fontSize="20">&lt;html&gt;&lt;span style="color:#402020;"&gt;!&lt;/span&gt;&lt;/html&gt;</y:NodeLabel>
              <y:Fill color="#ffc080"/>
              <y:Shape type="ellipse"/>
            </y:ShapeNode>
          </data>
        </node>
        <node id="cif:aut::evtref4">
          <data key="dn">u_removed</data>
          <data key="ng">
            <y:ShapeNode>
              <y:Geometry height="30" width="30"/>
              <y:NodeLabel alignment="center" fontSize="20">&lt;html&gt;&lt;/html&gt;</y:NodeLabel>
              <y:Fill color="#ffc080"/>
              <y:Shape type="ellipse"/>
            </y:ShapeNode>
          </data>
        </node>
        <node id="cif:aut::evtref3">
          <data key="dn">u_added</data>
          <data key="ng">
            <y:ShapeNode>
              <y:Geometry height="30" width="30"/>
              <y:NodeLabel alignment="center" fontSize="20">&lt;html&gt;&lt;/html&gt;</y:NodeLabel>
              <y:Fill color="#ffc080"/>
              <y:Shape type="ellipse"/>
            </y:ShapeNode>
          </data>
        </node>
        <node id="cif:aut::evtref2">
          <data key="dn">e_update</data>
          <data key="ng">
            <y:ShapeNode>
              <y:Geometry height="30" width="30"/>
              <y:NodeLabel alignment="center" fontSize="20">&lt;html&gt;&lt;/html&gt;</y:NodeLabel>
              <y:Fill color="#ffc080"/>
              <y:Shape type="ellipse"/>
            </y:ShapeNode>
          </data>
        </node>
        <node id="cif:aut::evtref1">
          <data key="dn">c_remove</data>
          <data key="ng">
            <y:ShapeNode>
              <y:Geometry height="30" width="30"/>
              <y:NodeLabel alignment="center" fontSize="20">&lt;html&gt;&lt;/html&gt;</y:NodeLabel>
              <y:Fill color="#ffc080"/>
              <y:Shape type="ellipse"/>
            </y:ShapeNode>
          </data>
        </node>
        <node id="cif:aut::evtref0">
          <data key="dn">c_add</data>
          <data key="ng">
            <y:ShapeNode>
              <y:Geometry height="30" width="30"/>
              <y:NodeLabel alignment="center" fontSize="20">&lt;html&gt;&lt;/html&gt;</y:NodeLabel>
              <y:Fill color="#ffc080"/>
              <y:Shape type="ellipse"/>
            </y:ShapeNode>
          </data>
        </node>
        <node id="cif:aut:loc4">
          <data key="dn">location loc4</data>
          <data key="ng">
            <y:ShapeNode>
              <y:Geometry width="79.0"/>
              <y:NodeLabel alignment="center">&lt;html&gt;&lt;span style="color:#0000ff;"&gt;location&lt;/span&gt;&amp;nbsp;&lt;span style="color:#000000;"&gt;loc4&lt;/span&gt;&lt;/html&gt;</y:NodeLabel>
              <y:BorderStyle width="2.0"/>
              <y:Fill color="#00c0ff"/>
              <y:Shape type="rectangle"/>
            </y:ShapeNode>
          </data>
        </node>
        <node id="cif:aut:loc3">
          <data key="dn">location loc3</data>
          <data key="ng">
            <y:ShapeNode>
              <y:Geometry width="79.0"/>
              <y:NodeLabel alignment="center">&lt;html&gt;&lt;span style="color:#0000ff;"&gt;location&lt;/span&gt;&amp;nbsp;&lt;span style="color:#000000;"&gt;loc3&lt;/span&gt;&lt;/html&gt;</y:NodeLabel>
              <y:BorderStyle width="2.0"/>
              <y:Fill color="#00c0ff"/>
              <y:Shape type="rectangle"/>
            </y:ShapeNode>
          </data>
        </node>
        <node id="cif:aut:loc2">
          <data key="dn">location loc2</data>
          <data key="ng">
            <y:ShapeNode>
              <y:Geometry width="79.0"/>
              <y:NodeLabel alignment="center">&lt;html&gt;&lt;span style="color:#0000ff;"&gt;location&lt;/span&gt;&amp;nbsp;&lt;span style="color:#000000;"&gt;loc2&lt;/span&gt;&lt;/html&gt;</y:NodeLabel>
              <y:BorderStyle width="2.0"/>
              <y:Fill color="#00c0ff"/>
              <y:Shape type="rectangle"/>
            </y:ShapeNode>
          </data>
        </node>
        <node id="cif:aut:loc1">
          <data key="dn">location loc1</data>
          <data key="ng">
            <y:ShapeNode>
              <y:Geometry width="79.0"/>
              <y:NodeLabel alignment="center">&lt;html&gt;&lt;span style="color:#0000ff;"&gt;location&lt;/span&gt;&amp;nbsp;&lt;span style="color:#000000;"&gt;loc1&lt;/span&gt;&lt;/html&gt;</y:NodeLabel>
              <y:BorderStyle width="2.0"/>
              <y:Fill color="#00c0ff"/>
              <y:Shape type="rectangle"/>
            </y:ShapeNode>
          </data>
        </node>
        <node id="cif:aut:z">
          <data key="dn">disc z</data>
          <data key="ng">
            <y:ShapeNode>
              <y:Geometry width="41.0"/>
              <y:NodeLabel alignment="center">&lt;html&gt;&lt;span style="color:#0000ff;"&gt;disc&lt;/span&gt;&amp;nbsp;&lt;span style="color:#000000;"&gt;z&lt;/span&gt;&lt;/html&gt;</y:NodeLabel>
              <y:BorderStyle width="2.0"/>
              <y:Fill color="#00c0ff"/>
              <y:Shape type="rectangle"/>
            </y:ShapeNode>
          </data>
        </node>
        <node id="cif:aut:y">
          <data key="dn">disc y</data>
          <data key="ng">
            <y:ShapeNode>
              <y:Geometry width="41.0"/>
              <y:NodeLabel alignment="center">&lt;html&gt;&lt;span style="color:#0000ff;"&gt;disc&lt;/span&gt;&amp;nbsp;&lt;span style="color:#000000;"&gt;y&lt;/span&gt;&lt;/html&gt;</y:NodeLabel>
              <y:BorderStyle width="2.0"/>
              <y:Fill color="#00c0ff"/>
              <y:Shape type="rectangle"/>
            </y:ShapeNode>
          </data>
        </node>
        <node id="cif:aut:x">
          <data key="dn">disc x</data>
          <data key="ng">
            <y:ShapeNode>
              <y:Geometry width="41.0"/>
              <y:NodeLabel alignment="center">&lt;html&gt;&lt;span style="color:#0000ff;"&gt;disc&lt;/span&gt;&amp;nbsp;&lt;span style="color:#000000;"&gt;x&lt;/span&gt;&lt;/html&gt;</y:NodeLabel>
              <y:BorderStyle width="2.0"/>
              <y:Fill color="#00c0ff"/>
              <y:Shape type="rectangle"/>
            </y:ShapeNode>
          </data>
        </node>
        <node id="cif:aut:e_rcv">
          <data key="dn">event e_rcv !?~</data>
          <data key="ng">
            <y:ShapeNode>
              <y:Geometry width="91.0"/>
              <y:NodeLabel alignment="center">&lt;html&gt;&lt;span style="color:#0000ff;"&gt;event&lt;/span&gt;&amp;nbsp;&lt;span style="color:#c06100;"&gt;e_rcv&lt;/span&gt;&amp;nbsp;&lt;span style="color:#402020;"&gt;!?~&lt;/span&gt;&lt;/html&gt;</y:NodeLabel>
              <y:BorderStyle width="2.0"/>
              <y:Fill color="#ffc000"/>
              <y:Shape type="rectangle"/>
            </y:ShapeNode>
          </data>
        </node>
        <node id="cif:aut:e_snd">
          <data key="dn">event e_snd !?~</data>
          <data key="ng">
            <y:ShapeNode>
              <y:Geometry width="97.0"/>
              <y:NodeLabel alignment="center">&lt;html&gt;&lt;span style="color:#0000ff;"&gt;event&lt;/span&gt;&amp;nbsp;&lt;span style="color:#c06100;"&gt;e_snd&lt;/span&gt;&amp;nbsp;&lt;span style="color:#402020;"&gt;!?~&lt;/span&gt;&lt;/html&gt;</y:NodeLabel>
              <y:BorderStyle width="2.0"/>
              <y:Fill color="#ffc000"/>
              <y:Shape type="rectangle"/>
            </y:ShapeNode>
          </data>
        </node>
        <node id="cif:aut:e_update">
          <data key="dn">event e_update</data>
          <data key="ng">
            <y:ShapeNode>
              <y:Geometry width="94.0"/>
              <y:NodeLabel alignment="center">&lt;html&gt;&lt;span style="color:#0000ff;"&gt;event&lt;/span&gt;&amp;nbsp;&lt;span style="color:#c06100;"&gt;e_update&lt;/span&gt;&lt;/html&gt;</y:NodeLabel>
              <y:BorderStyle width="2.0"/>
              <y:Fill color="#ffc000"/>
              <y:Shape type="rectangle"/>
            </y:ShapeNode>
          </data>
        </node>
        <node id="cif:aut:u_removed">
          <data key="dn">event u_removed</data>
          <data key="ng">
            <y:ShapeNode>
              <y:Geometry width="104.0"/>
              <y:NodeLabel alignment="center">&lt;html&gt;&lt;span style="color:#0000ff;"&gt;event&lt;/span&gt;&amp;nbsp;&lt;span style="color:#800000;"&gt;u_removed&lt;/span&gt;&lt;/html&gt;</y:NodeLabel>
              <y:BorderStyle width="2.0"/>
              <y:Fill color="#ffc000"/>
              <y:Shape type="rectangle"/>
            </y:ShapeNode>
          </data>
        </node>
        <node id="cif:aut:u_added">
          <data key="dn">event u_added</data>
          <data key="ng">
            <y:ShapeNode>
              <y:Geometry width="91.0"/>
              <y:NodeLabel alignment="center">&lt;html&gt;&lt;span style="color:#0000ff;"&gt;event&lt;/span&gt;&amp;nbsp;&lt;span style="color:#800000;"&gt;u_added&lt;/span&gt;&lt;/html&gt;</y:NodeLabel>
              <y:BorderStyle width="2.0"/>
              <y:Fill color="#ffc000"/>
              <y:Shape type="rectangle"/>
            </y:ShapeNode>
          </data>
        </node>
        <node id="cif:aut:c_remove">
          <data key="dn">event c_remove</data>
          <data key="ng">
            <y:ShapeNode>
              <y:Geometry width="96.0"/>
              <y:NodeLabel alignment="center">&lt;html&gt;&lt;span style="color:#0000ff;"&gt;event&lt;/span&gt;&amp;nbsp;&lt;span style="color:#006100;"&gt;c_remove&lt;/span&gt;&lt;/html&gt;</y:NodeLabel>
              <y:BorderStyle width="2.0"/>
              <y:Fill color="#ffc000"/>
              <y:Shape type="rectangle"/>
            </y:ShapeNode>
          </data>
        </node>
        <node id="cif:aut:c_add">
          <data key="dn">event c_add</data>
          <data key="ng">
            <y:ShapeNode>
              <y:Geometry width="76.0"/>
              <y:NodeLabel alignment="center">&lt;html&gt;&lt;span style="color:#0000ff;"&gt;event&lt;/span&gt;&amp;nbsp;&lt;span style="color:#006100;"&gt;c_add&lt;/span&gt;&lt;/html&gt;</y:NodeLabel>
              <y:BorderStyle width="2.0"/>
              <y:Fill color="#ffc000"/>
              <y:Shape type="rectangle"/>
            </y:ShapeNode>
          </data>
        </node>
      </graph>
    </node>
  </graph>
</graphml>
