Reading CIF file "datasynth/asgn_var_copy.cif".
Preprocessing CIF specification.
Converting CIF specification to internal format.

CIF variables and location pointers:
  Nr     Kind               Type       Name  Group  BDD vars  CIF values  BDD values  Values used
  -----  -----------------  ---------  ----  -----  --------  ----------  ----------  -----------
  1      discrete variable  int[0..4]  p.x   0      3 * 2     5 * 2       8 * 2       ~63%
  2      discrete variable  int[0..4]  p.y   1      3 * 2     5 * 2       8 * 2       ~63%
  3      discrete variable  int[0..3]  p.a   2      2 * 2     4 * 2       4 * 2       100%
  4      discrete variable  int[1..7]  p.b   3      3 * 2     7 * 2       8 * 2       ~88%
  5      discrete variable  int[3..6]  p.c   4      3 * 2     4 * 2       8 * 2       50%
  -----  -----------------  ---------  ----  -----  --------  ----------  ----------  -----------
  Total                                      5      28        50          72          ~69%

Applying automatic variable ordering:
  Number of hyperedges: 8

  Applying FORCE algorithm:
    Maximum number of iterations: 20

    Total span:                    8 (total)                 1.00 (avg/edge) [before]
    Total span:                    6 (total)                 0.75 (avg/edge) [iteration 1]
    Total span:                    6 (total)                 0.75 (avg/edge) [iteration 2]
    Total span:                    6 (total)                 0.75 (avg/edge) [after]

  Applying sliding window algorithm:
    Window length: 4

    Total span:                    6 (total)                 0.75 (avg/edge) [before]
    Total span:                    6 (total)                 0.75 (avg/edge) [after]

  Variable order changed.

CIF variables and location pointers:
  Nr     Kind               Type       Name  Group  BDD vars  CIF values  BDD values  Values used
  -----  -----------------  ---------  ----  -----  --------  ----------  ----------  -----------
  1      discrete variable  int[0..4]  p.x   0      3 * 2     5 * 2       8 * 2       ~63%
  2      discrete variable  int[0..4]  p.y   1      3 * 2     5 * 2       8 * 2       ~63%
  3      discrete variable  int[1..7]  p.b   2      3 * 2     7 * 2       8 * 2       ~88%
  4      discrete variable  int[0..3]  p.a   3      2 * 2     4 * 2       4 * 2       100%
  5      discrete variable  int[3..6]  p.c   4      3 * 2     4 * 2       8 * 2       50%
  -----  -----------------  ---------  ----  -----  --------  ----------  ----------  -----------
  Total                                      5      28        50          72          ~69%

Starting data-based synthesis.

Invariant (component state invariant):   p.y != 2
Invariant (components state invariant):  p.y != 2
Invariant (locations state invariant):   true
Invariant (system state invariant):      p.y != 2

Initial   (discrete variable 0):         true
Initial   (discrete variable 1):         true
Initial   (discrete variable 2):         true
Initial   (discrete variable 3):         true
Initial   (discrete variable 4):         true
Initial   (discrete variables):          <bdd 13n 81p>
Initial   (components init predicate):   true
Initial   (aut/locs init predicate):     p.y != 1
Initial   (auts/locs init predicate):    p.y != 1
Initial   (uncontrolled system):         <bdd 14n 81p>
Initial   (system, combined init/inv):   <bdd 14n 54p>

Marked    (components marker predicate): true
Marked    (aut/locs marker predicate):   p.y != 3
Marked    (auts/locs marker predicate):  p.y != 3
Marked    (uncontrolled system):         p.y != 3
Marked    (system, combined marked/inv): p.y = 0 or (p.y = 1 or p.y = 4)

State/event exclusion requirements:
  None

Uncontrolled system:
  State: (controlled-behavior: ?)
    Edge: (event: p.c1) (guard: true) (assignments: p.x := p.y)
    Edge: (event: p.c2) (guard: true) (assignments: p.a := p.b)
    Edge: (event: p.c3) (guard: true) (assignments: p.a := p.c)

Initialized controlled-behavior predicate using invariants: p.y != 2.

Extending controlled-behavior predicate using variable ranges.

Controlled behavior: p.y != 2 -> (1 <= p.x and p.x <= 3 or p.y != 2) and ((p.x != 2 or p.y != 2) and (p.x = 0 or p.x = 2 or (p.x = 4 or p.y != 2))) [range: true, variable: discrete variable "p.x" of type "int[0..4]" (group: 0, domain: 0+1, BDD variables: 3, CIF/BDD values: 5/8)].
Controlled behavior: (1 <= p.x and p.x <= 3 or p.y != 2) and ((p.x != 2 or p.y != 2) and (p.x = 0 or p.x = 2 or (p.x = 4 or p.y != 2))) -> (1 <= p.x and p.x <= 3 or p.y != 2) and ((p.x != 2 or p.y != 2) and (p.x = 0 or p.x = 2 or (p.x = 4 or p.y != 2))) [range: true, variable: discrete variable "p.y" of type "int[0..4]" (group: 1, domain: 2+3, BDD variables: 3, CIF/BDD values: 5/8)].
Controlled behavior: (1 <= p.x and p.x <= 3 or p.y != 2) and ((p.x != 2 or p.y != 2) and (p.x = 0 or p.x = 2 or (p.x = 4 or p.y != 2))) -> (1 <= p.x and p.x <= 3 or p.y != 2) and ((p.x != 2 or p.y != 2) and (p.x = 0 or p.x = 2 or (p.x = 4 or p.y != 2))) [range: true, variable: discrete variable "p.b" of type "int[1..7]" (group: 2, domain: 4+5, BDD variables: 3, CIF/BDD values: 7/8)].
Controlled behavior: (1 <= p.x and p.x <= 3 or p.y != 2) and ((p.x != 2 or p.y != 2) and (p.x = 0 or p.x = 2 or (p.x = 4 or p.y != 2))) -> <bdd 13n 54p> [range: true, variable: discrete variable "p.c" of type "int[3..6]" (group: 4, domain: 8+9, BDD variables: 3, CIF/BDD values: 4/8)].

Extended controlled-behavior predicate using variable ranges: <bdd 13n 54p>.

Restricting behavior using state/event exclusion requirements.

Round 1: started.

Round 1: computing backward controlled-behavior predicate.
Backward controlled-behavior: p.y != 3 [marker predicate]
Backward controlled-behavior: p.y != 3 -> <bdd 14n 54p> [restricted to current/previous controlled-behavior predicate: <bdd 13n 54p>]
Backward reachability: iteration 1.
Backward controlled-behavior: <bdd 14n 54p> [fixed point].
Controlled behavior: <bdd 13n 54p> -> <bdd 14n 54p>.

Round 1: computing backward uncontrolled bad-state predicate.
Backward uncontrolled bad-state: <bdd 14n 71p> [current/previous controlled behavior predicate]
Backward reachability: iteration 1.

Round 1: computing forward controlled-behavior predicate.
Forward controlled-behavior: <bdd 14n 81p> [initialization predicate]
Forward controlled-behavior: <bdd 14n 81p> -> <bdd 12n 27p> [restricted to current/previous controlled-behavior predicate: <bdd 14n 54p>]
Forward reachability: iteration 1.
Forward controlled-behavior: <bdd 12n 27p> [fixed point].
Controlled behavior: <bdd 14n 54p> -> <bdd 12n 27p>.

Round 1: finished, need another round.

Round 2: started.

Round 2: computing backward controlled-behavior predicate.
Backward controlled-behavior: p.y != 3 [marker predicate]
Backward controlled-behavior: p.y != 3 -> <bdd 12n 27p> [restricted to current/previous controlled-behavior predicate: <bdd 12n 27p>]
Backward reachability: iteration 1.
Backward controlled-behavior: <bdd 12n 27p> [fixed point].

Round 2: computing backward uncontrolled bad-state predicate.
Backward uncontrolled bad-state: <bdd 12n 38p> [current/previous controlled behavior predicate]
Backward reachability: iteration 1.

Round 2: finished, controlled behavior is stable.

Computing controlled system guards.

Edge (event: p.c1) (guard: true) (assignments: p.x := p.y): guard: true -> p.y != 2 and (p.y = 0 or (p.y = 2 or p.y = 4)).
Edge (event: p.c2) (guard: true) (assignments: p.a := p.b): guard: true -> (1 <= p.x and p.x <= 3 or (1 <= p.y and p.y <= 3 or p.b != 4)) and ((1 <= p.x and p.x <= 3 or (1 <= p.y and p.y <= 3 or p.b != 6)) and (1 <= p.x and p.x <= 3 or 1 <= p.y and p.y <= 3 or (1 <= p.b and p.b <= 4 or p.b = 6))) and ((1 <= p.x and p.x <= 3 or p.y != 2) and (1 <= p.x and p.x <= 3 or p.y = 0 or (p.y = 2 or p.y = 4)) and ((p.x != 2 or (1 <= p.y and p.y <= 3 or p.b != 4)) and (p.x != 2 or (1 <= p.y and p.y <= 3 or p.b != 6)))) and ((p.x != 2 or 1 <= p.y and p.y <= 3 or (1 <= p.b and p.b <= 4 or p.b = 6)) and (p.x != 2 or p.y != 2) and ((p.x != 2 or p.y = 0 or (p.y = 2 or p.y = 4)) and (p.x = 0 or p.x = 2 or (p.x = 4 or (1 <= p.y and p.y <= 3 or p.b != 4)))) and ((p.x = 0 or p.x = 2 or (p.x = 4 or (1 <= p.y and p.y <= 3 or p.b != 6))) and (p.x = 0 or (p.x = 2 or p.x = 4) or (1 <= p.y and p.y <= 3 or (1 <= p.b and p.b <= 4 or p.b = 6))) and ((p.x = 0 or p.x = 2 or (p.x = 4 or p.y != 2)) and (p.x = 0 or (p.x = 2 or p.x = 4) or (p.y = 0 or (p.y = 2 or p.y = 4)))))).
Edge (event: p.c3) (guard: true) (assignments: p.a := p.c): guard: true -> (p.x = 0 or p.x = 4) and (p.y = 0 or p.y = 4) and (p.b = 4 and p.c = 3) or (p.x = 0 or p.x = 4) and (p.y = 0 or p.y = 4) and ((p.b = 2 or p.b = 6) and p.c = 3) or ((p.x = 0 or p.x = 4) and (p.y = 0 or p.y = 4) and ((p.b = 1 or p.b = 3 or (p.b = 5 or p.b = 7)) and p.c = 3) or p.x = 2 and (p.y = 0 or p.y = 4) and (p.b = 4 and p.c = 3)) or (p.x = 2 and (p.y = 0 or p.y = 4) and ((p.b = 2 or p.b = 6) and p.c = 3) or p.x = 2 and (p.y = 0 or p.y = 4) and ((p.b = 1 or p.b = 3 or (p.b = 5 or p.b = 7)) and p.c = 3) or ((p.x = 1 or p.x = 3) and (p.y = 0 or p.y = 4) and (p.b = 4 and p.c = 3) or ((p.x = 1 or p.x = 3) and (p.y = 0 or p.y = 4) and ((p.b = 2 or p.b = 6) and p.c = 3) or (p.x = 1 or p.x = 3) and (p.y = 0 or p.y = 4) and ((p.b = 1 or p.b = 3 or (p.b = 5 or p.b = 7)) and p.c = 3)))).

Final synthesis result:
  State: (controlled-behavior: <bdd 12n 27p>)
    Edge: (event: p.c1) (guard: true -> p.y != 2 and (p.y = 0 or (p.y = 2 or p.y = 4))) (assignments: p.x := p.y)
    Edge: (event: p.c2) (guard: true -> (1 <= p.x and p.x <= 3 or (1 <= p.y and p.y <= 3 or p.b != 4)) and ((1 <= p.x and p.x <= 3 or (1 <= p.y and p.y <= 3 or p.b != 6)) and (1 <= p.x and p.x <= 3 or 1 <= p.y and p.y <= 3 or (1 <= p.b and p.b <= 4 or p.b = 6))) and ((1 <= p.x and p.x <= 3 or p.y != 2) and (1 <= p.x and p.x <= 3 or p.y = 0 or (p.y = 2 or p.y = 4)) and ((p.x != 2 or (1 <= p.y and p.y <= 3 or p.b != 4)) and (p.x != 2 or (1 <= p.y and p.y <= 3 or p.b != 6)))) and ((p.x != 2 or 1 <= p.y and p.y <= 3 or (1 <= p.b and p.b <= 4 or p.b = 6)) and (p.x != 2 or p.y != 2) and ((p.x != 2 or p.y = 0 or (p.y = 2 or p.y = 4)) and (p.x = 0 or p.x = 2 or (p.x = 4 or (1 <= p.y and p.y <= 3 or p.b != 4)))) and ((p.x = 0 or p.x = 2 or (p.x = 4 or (1 <= p.y and p.y <= 3 or p.b != 6))) and (p.x = 0 or (p.x = 2 or p.x = 4) or (1 <= p.y and p.y <= 3 or (1 <= p.b and p.b <= 4 or p.b = 6))) and ((p.x = 0 or p.x = 2 or (p.x = 4 or p.y != 2)) and (p.x = 0 or (p.x = 2 or p.x = 4) or (p.y = 0 or (p.y = 2 or p.y = 4))))))) (assignments: p.a := p.b)
    Edge: (event: p.c3) (guard: true -> (p.x = 0 or p.x = 4) and (p.y = 0 or p.y = 4) and (p.b = 4 and p.c = 3) or (p.x = 0 or p.x = 4) and (p.y = 0 or p.y = 4) and ((p.b = 2 or p.b = 6) and p.c = 3) or ((p.x = 0 or p.x = 4) and (p.y = 0 or p.y = 4) and ((p.b = 1 or p.b = 3 or (p.b = 5 or p.b = 7)) and p.c = 3) or p.x = 2 and (p.y = 0 or p.y = 4) and (p.b = 4 and p.c = 3)) or (p.x = 2 and (p.y = 0 or p.y = 4) and ((p.b = 2 or p.b = 6) and p.c = 3) or p.x = 2 and (p.y = 0 or p.y = 4) and ((p.b = 1 or p.b = 3 or (p.b = 5 or p.b = 7)) and p.c = 3) or ((p.x = 1 or p.x = 3) and (p.y = 0 or p.y = 4) and (p.b = 4 and p.c = 3) or ((p.x = 1 or p.x = 3) and (p.y = 0 or p.y = 4) and ((p.b = 2 or p.b = 6) and p.c = 3) or (p.x = 1 or p.x = 3) and (p.y = 0 or p.y = 4) and ((p.b = 1 or p.b = 3 or (p.b = 5 or p.b = 7)) and p.c = 3))))) (assignments: p.a := p.c)

Controlled system:                     exactly 1,120 states.

Initial (synthesis result):            <bdd 12n 27p>
Initial (uncontrolled system):         <bdd 14n 81p>
Initial (controlled system):           <bdd 12n 27p>
Initial (removed by supervisor):       <bdd 12n 27p>
Initial (added by supervisor):         <bdd 12n 38p>

Simplification of controlled system under the assumption of the uncontrolled system:
  Initial: <bdd 12n 27p> -> p.y = 0 or p.y = 4 [assume <bdd 14n 81p>].

Constructing output CIF specification.
Writing output CIF file "datasynth/asgn_var_copy.ctrlsys.real.cif".
