Reading CIF file "datasynth/multi_req_auts.cif".
Preprocessing CIF specification.
Converting CIF specification to internal format.

CIF variables and location pointers:
  Nr     Kind               Type        Name  Group  BDD vars  CIF values  BDD values  Values used
  -----  -----------------  ----------  ----  -----  --------  ----------  ----------  -----------
  1      discrete variable  int[0..13]  p.x   0      4 * 2     14 * 2      16 * 2      ~88%
  2      location pointer   n/a         r2    1      1 * 2     2 * 2       2 * 2       100%
  3      location pointer   n/a         r3    2      2 * 2     3 * 2       4 * 2       75%
  -----  -----------------  ----------  ----  -----  --------  ----------  ----------  -----------
  Total                                       3      14        38          44          ~86%

Applying automatic variable ordering:
  Number of hyperedges: 4

  Applying FORCE algorithm:
    Maximum number of iterations: 20

    Total span:                    3 (total)                 0.75 (avg/edge) [before]
    Total span:                    3 (total)                 0.75 (avg/edge) [iteration 1]
    Total span:                    3 (total)                 0.75 (avg/edge) [after]

  Applying sliding window algorithm:
    Window length: 3

    Total span:                    3 (total)                 0.75 (avg/edge) [before]
    Total span:                    3 (total)                 0.75 (avg/edge) [after]

  Variable order unchanged.

Starting data-based synthesis.

Invariant (components state invariant):  true
Invariant (locations state invariant):   true
Invariant (system state invariant):      true

Initial   (discrete variable 0):         p.x = 0
Initial   (discrete variables):          p.x = 0
Initial   (components init predicate):   true
Initial   (aut/locs init predicate):     true
Initial   (aut/locs init predicate):     r2.l1
Initial   (aut/locs init predicate):     r3.l1
Initial   (auts/locs init predicate):    r2.l1 and r3.l1
Initial   (uncontrolled system):         p.x = 0 and (r2.l1 and r3.l1)
Initial   (system, combined init/inv):   p.x = 0 and (r2.l1 and r3.l1)

Marked    (components marker predicate): true
Marked    (aut/locs marker predicate):   true
Marked    (aut/locs marker predicate):   r2.l1
Marked    (aut/locs marker predicate):   r3.l1
Marked    (auts/locs marker predicate):  r2.l1 and r3.l1
Marked    (uncontrolled system):         r2.l1 and r3.l1
Marked    (system, combined marked/inv): r2.l1 and r3.l1

State/event exclusion requirements:
  Event "a" needs:
    true
    true
  Event "b" needs:
    r2.l2
    r3.l3

Uncontrolled system:
  State: (controlled-behavior: ?)
    Edge: (event: a) (guard: (p.x = 0 or p.x = 4 or (p.x = 8 or p.x = 12)) and (r2.l1 and r3.l1) or (p.x = 2 or p.x = 10) and (r2.l1 and r3.l1) or (p.x = 6 and (r2.l1 and r3.l1) or ((p.x = 1 or p.x = 3 or (p.x = 9 or p.x = 11)) and (r2.l1 and r3.l1) or (p.x = 5 or p.x = 7) and (r2.l1 and r3.l1)))) (assignments: p.x := p.x + 1, r2 := r2.l2, r3 := r3.l2)
    Edge: (event: a) (guard: (p.x = 0 or p.x = 4 or (p.x = 8 or p.x = 12)) and (r2.l1 and r3.l2) or (p.x = 2 or p.x = 10) and (r2.l1 and r3.l2) or (p.x = 6 and (r2.l1 and r3.l2) or ((p.x = 1 or p.x = 3 or (p.x = 9 or p.x = 11)) and (r2.l1 and r3.l2) or (p.x = 5 or p.x = 7) and (r2.l1 and r3.l2)))) (assignments: p.x := p.x + 1, r2 := r2.l2, r3 := r3.l3)
    Edge: (event: a) (guard: (p.x = 0 or p.x = 4 or (p.x = 8 or p.x = 12)) and (r2.l1 and r3.l3) or (p.x = 2 or p.x = 10) and (r2.l1 and r3.l3) or (p.x = 6 and (r2.l1 and r3.l3) or ((p.x = 1 or p.x = 3 or (p.x = 9 or p.x = 11)) and (r2.l1 and r3.l3) or (p.x = 5 or p.x = 7) and (r2.l1 and r3.l3)))) (assignments: p.x := p.x + 1, r2 := r2.l2, r3 := r3.l1)
    Edge: (event: a) (guard: (p.x = 0 or p.x = 4 or (p.x = 8 or p.x = 12)) and (r2.l2 and r3.l1) or (p.x = 2 or p.x = 10) and (r2.l2 and r3.l1) or (p.x = 6 and (r2.l2 and r3.l1) or ((p.x = 1 or p.x = 3 or (p.x = 9 or p.x = 11)) and (r2.l2 and r3.l1) or (p.x = 5 or p.x = 7) and (r2.l2 and r3.l1)))) (assignments: p.x := p.x + 1, r2 := r2.l1, r3 := r3.l2)
    Edge: (event: a) (guard: (p.x = 0 or p.x = 4 or (p.x = 8 or p.x = 12)) and (r2.l2 and r3.l2) or (p.x = 2 or p.x = 10) and (r2.l2 and r3.l2) or (p.x = 6 and (r2.l2 and r3.l2) or ((p.x = 1 or p.x = 3 or (p.x = 9 or p.x = 11)) and (r2.l2 and r3.l2) or (p.x = 5 or p.x = 7) and (r2.l2 and r3.l2)))) (assignments: p.x := p.x + 1, r2 := r2.l1, r3 := r3.l3)
    Edge: (event: a) (guard: (p.x = 0 or p.x = 4 or (p.x = 8 or p.x = 12)) and (r2.l2 and r3.l3) or (p.x = 2 or p.x = 10) and (r2.l2 and r3.l3) or (p.x = 6 and (r2.l2 and r3.l3) or ((p.x = 1 or p.x = 3 or (p.x = 9 or p.x = 11)) and (r2.l2 and r3.l3) or (p.x = 5 or p.x = 7) and (r2.l2 and r3.l3)))) (assignments: p.x := p.x + 1, r2 := r2.l1, r3 := r3.l1)
    Edge: (event: b) (guard: r2.l2 and r3.l3)
    Edge: (event: b) (guard: r2.l2 and not r3.l3)
    Edge: (event: b) (guard: r2.l1 and r3.l3)
    Edge: (event: b) (guard: r2.l1 and not r3.l3)

Initialized controlled-behavior predicate using invariants: true.

Extending controlled-behavior predicate using variable ranges.

Controlled behavior: true -> true [range: true, variable: discrete variable "p.x" of type "int[0..13]" (group: 0, domain: 0+1, BDD variables: 4, CIF/BDD values: 14/16)].
Controlled behavior: true -> true [range: true, variable: location pointer for automaton "r3" (group: 2, domain: 4+5, BDD variables: 2, CIF/BDD values: 3/4)].

Extended controlled-behavior predicate using variable ranges: true.

Restricting behavior using state/event exclusion requirements.

Edge (event: b) (guard: r2.l2 and not r3.l3): guard: r2.l2 and not r3.l3 -> false [requirement: r2.l2 and r3.l3].
Edge (event: b) (guard: r2.l1 and r3.l3): guard: r2.l1 and r3.l3 -> false [requirement: r2.l2 and r3.l3].
Edge (event: b) (guard: r2.l1 and not r3.l3): guard: r2.l1 and not r3.l3 -> false [requirement: r2.l2 and r3.l3].

Restricted behavior using state/event exclusion requirements:
  State: (controlled-behavior: true)
    Edge: (event: a) (guard: (p.x = 0 or p.x = 4 or (p.x = 8 or p.x = 12)) and (r2.l1 and r3.l1) or (p.x = 2 or p.x = 10) and (r2.l1 and r3.l1) or (p.x = 6 and (r2.l1 and r3.l1) or ((p.x = 1 or p.x = 3 or (p.x = 9 or p.x = 11)) and (r2.l1 and r3.l1) or (p.x = 5 or p.x = 7) and (r2.l1 and r3.l1)))) (assignments: p.x := p.x + 1, r2 := r2.l2, r3 := r3.l2)
    Edge: (event: a) (guard: (p.x = 0 or p.x = 4 or (p.x = 8 or p.x = 12)) and (r2.l1 and r3.l2) or (p.x = 2 or p.x = 10) and (r2.l1 and r3.l2) or (p.x = 6 and (r2.l1 and r3.l2) or ((p.x = 1 or p.x = 3 or (p.x = 9 or p.x = 11)) and (r2.l1 and r3.l2) or (p.x = 5 or p.x = 7) and (r2.l1 and r3.l2)))) (assignments: p.x := p.x + 1, r2 := r2.l2, r3 := r3.l3)
    Edge: (event: a) (guard: (p.x = 0 or p.x = 4 or (p.x = 8 or p.x = 12)) and (r2.l1 and r3.l3) or (p.x = 2 or p.x = 10) and (r2.l1 and r3.l3) or (p.x = 6 and (r2.l1 and r3.l3) or ((p.x = 1 or p.x = 3 or (p.x = 9 or p.x = 11)) and (r2.l1 and r3.l3) or (p.x = 5 or p.x = 7) and (r2.l1 and r3.l3)))) (assignments: p.x := p.x + 1, r2 := r2.l2, r3 := r3.l1)
    Edge: (event: a) (guard: (p.x = 0 or p.x = 4 or (p.x = 8 or p.x = 12)) and (r2.l2 and r3.l1) or (p.x = 2 or p.x = 10) and (r2.l2 and r3.l1) or (p.x = 6 and (r2.l2 and r3.l1) or ((p.x = 1 or p.x = 3 or (p.x = 9 or p.x = 11)) and (r2.l2 and r3.l1) or (p.x = 5 or p.x = 7) and (r2.l2 and r3.l1)))) (assignments: p.x := p.x + 1, r2 := r2.l1, r3 := r3.l2)
    Edge: (event: a) (guard: (p.x = 0 or p.x = 4 or (p.x = 8 or p.x = 12)) and (r2.l2 and r3.l2) or (p.x = 2 or p.x = 10) and (r2.l2 and r3.l2) or (p.x = 6 and (r2.l2 and r3.l2) or ((p.x = 1 or p.x = 3 or (p.x = 9 or p.x = 11)) and (r2.l2 and r3.l2) or (p.x = 5 or p.x = 7) and (r2.l2 and r3.l2)))) (assignments: p.x := p.x + 1, r2 := r2.l1, r3 := r3.l3)
    Edge: (event: a) (guard: (p.x = 0 or p.x = 4 or (p.x = 8 or p.x = 12)) and (r2.l2 and r3.l3) or (p.x = 2 or p.x = 10) and (r2.l2 and r3.l3) or (p.x = 6 and (r2.l2 and r3.l3) or ((p.x = 1 or p.x = 3 or (p.x = 9 or p.x = 11)) and (r2.l2 and r3.l3) or (p.x = 5 or p.x = 7) and (r2.l2 and r3.l3)))) (assignments: p.x := p.x + 1, r2 := r2.l1, r3 := r3.l1)
    Edge: (event: b) (guard: r2.l2 and r3.l3)
    Edge: (event: b) (guard: r2.l2 and not r3.l3 -> false)
    Edge: (event: b) (guard: r2.l1 and r3.l3 -> false)
    Edge: (event: b) (guard: r2.l1 and not r3.l3 -> false)

Round 1: started.

Round 1: computing backward controlled-behavior predicate.
Backward controlled-behavior: r2.l1 and r3.l1 [marker predicate]
Backward controlled-behavior: r2.l1 and r3.l1 -> not(p.x = 2 or (p.x = 3 or p.x = 6) or (p.x = 7 or (p.x = 10 or p.x = 11))) and (r2.l1 and r3.l1) or ((p.x = 2 or p.x = 3 or (p.x = 10 or p.x = 11)) and (r2.l1 and r3.l1) or (p.x = 6 or p.x = 7) and (r2.l1 and r3.l1)) [restricted to current/previous controlled-behavior predicate: true]
Backward reachability: iteration 1.
Backward controlled-behavior: not(p.x = 2 or (p.x = 3 or p.x = 6) or (p.x = 7 or (p.x = 10 or p.x = 11))) and (r2.l1 and r3.l1) or ((p.x = 2 or p.x = 3 or (p.x = 10 or p.x = 11)) and (r2.l1 and r3.l1) or (p.x = 6 or p.x = 7) and (r2.l1 and r3.l1)) -> (p.x = 0 or p.x = 4 or (p.x = 8 or p.x = 12)) and (r2.l1 and r3.l1) or ((p.x = 0 or p.x = 4 or (p.x = 8 or p.x = 12)) and (r2.l2 and r3.l3) or (p.x = 2 or p.x = 10) and (r2.l1 and r3.l1)) or ((p.x = 2 or p.x = 10) and (r2.l2 and r3.l3) or p.x = 6 and (r2.l1 and r3.l1) or (p.x = 6 and (r2.l2 and r3.l3) or (p.x = 1 or p.x = 9) and (r2.l1 and r3.l1))) or ((p.x = 1 or p.x = 9) and (r2.l2 and r3.l3) or p.x = 5 and (r2.l1 and r3.l1) or (p.x = 5 and (r2.l2 and r3.l3) or p.x = 13 and (r2.l1 and r3.l1)) or ((p.x = 3 or p.x = 11) and (r2.l1 and r3.l1) or (p.x = 3 or p.x = 11) and (r2.l2 and r3.l3) or (p.x = 7 and (r2.l1 and r3.l1) or p.x = 7 and (r2.l2 and r3.l3)))) [backward reach with edge: (event: a) (guard: (p.x = 0 or p.x = 4 or (p.x = 8 or p.x = 12)) and (r2.l2 and r3.l3) or (p.x = 2 or p.x = 10) and (r2.l2 and r3.l3) or (p.x = 6 and (r2.l2 and r3.l3) or ((p.x = 1 or p.x = 3 or (p.x = 9 or p.x = 11)) and (r2.l2 and r3.l3) or (p.x = 5 or p.x = 7) and (r2.l2 and r3.l3)))) (assignments: p.x := p.x + 1, r2 := r2.l1, r3 := r3.l1), restricted to current/previous controlled-behavior predicate: true]
Backward reachability: iteration 2.
Backward controlled-behavior: (p.x = 0 or p.x = 4 or (p.x = 8 or p.x = 12)) and (r2.l1 and r3.l1) or ((p.x = 0 or p.x = 4 or (p.x = 8 or p.x = 12)) and (r2.l2 and r3.l3) or (p.x = 2 or p.x = 10) and (r2.l1 and r3.l1)) or ((p.x = 2 or p.x = 10) and (r2.l2 and r3.l3) or p.x = 6 and (r2.l1 and r3.l1) or (p.x = 6 and (r2.l2 and r3.l3) or (p.x = 1 or p.x = 9) and (r2.l1 and r3.l1))) or ((p.x = 1 or p.x = 9) and (r2.l2 and r3.l3) or p.x = 5 and (r2.l1 and r3.l1) or (p.x = 5 and (r2.l2 and r3.l3) or p.x = 13 and (r2.l1 and r3.l1)) or ((p.x = 3 or p.x = 11) and (r2.l1 and r3.l1) or (p.x = 3 or p.x = 11) and (r2.l2 and r3.l3) or (p.x = 7 and (r2.l1 and r3.l1) or p.x = 7 and (r2.l2 and r3.l3)))) -> (p.x = 0 or p.x = 8) and (r2.l1 and not r3.l3) or (p.x = 0 or p.x = 8) and (r2.l2 and r3.l3) or (p.x = 4 and (r2.l1 and not r3.l3) or p.x = 4 and (r2.l2 and r3.l3)) or (p.x = 12 and (r2.l1 and r3.l1) or p.x = 12 and (r2.l2 and r3.l3) or ((p.x = 2 or p.x = 10) and (r2.l1 and not r3.l3) or ((p.x = 2 or p.x = 10) and (r2.l2 and r3.l3) or p.x = 6 and (r2.l1 and not r3.l3)))) or (p.x = 6 and (r2.l2 and r3.l3) or (p.x = 1 or p.x = 9) and (r2.l1 and not r3.l3) or ((p.x = 1 or p.x = 9) and (r2.l2 and r3.l3) or (p.x = 5 and (r2.l1 and not r3.l3) or p.x = 5 and (r2.l2 and r3.l3))) or (p.x = 13 and (r2.l1 and r3.l1) or (p.x = 3 or p.x = 11) and (r2.l1 and not r3.l3) or ((p.x = 3 or p.x = 11) and (r2.l2 and r3.l3) or (p.x = 7 and (r2.l1 and not r3.l3) or p.x = 7 and (r2.l2 and r3.l3))))) [backward reach with edge: (event: a) (guard: (p.x = 0 or p.x = 4 or (p.x = 8 or p.x = 12)) and (r2.l1 and r3.l2) or (p.x = 2 or p.x = 10) and (r2.l1 and r3.l2) or (p.x = 6 and (r2.l1 and r3.l2) or ((p.x = 1 or p.x = 3 or (p.x = 9 or p.x = 11)) and (r2.l1 and r3.l2) or (p.x = 5 or p.x = 7) and (r2.l1 and r3.l2)))) (assignments: p.x := p.x + 1, r2 := r2.l2, r3 := r3.l3), restricted to current/previous controlled-behavior predicate: true]
Backward controlled-behavior: (p.x = 0 or p.x = 8) and (r2.l1 and not r3.l3) or (p.x = 0 or p.x = 8) and (r2.l2 and r3.l3) or (p.x = 4 and (r2.l1 and not r3.l3) or p.x = 4 and (r2.l2 and r3.l3)) or (p.x = 12 and (r2.l1 and r3.l1) or p.x = 12 and (r2.l2 and r3.l3) or ((p.x = 2 or p.x = 10) and (r2.l1 and not r3.l3) or ((p.x = 2 or p.x = 10) and (r2.l2 and r3.l3) or p.x = 6 and (r2.l1 and not r3.l3)))) or (p.x = 6 and (r2.l2 and r3.l3) or (p.x = 1 or p.x = 9) and (r2.l1 and not r3.l3) or ((p.x = 1 or p.x = 9) and (r2.l2 and r3.l3) or (p.x = 5 and (r2.l1 and not r3.l3) or p.x = 5 and (r2.l2 and r3.l3))) or (p.x = 13 and (r2.l1 and r3.l1) or (p.x = 3 or p.x = 11) and (r2.l1 and not r3.l3) or ((p.x = 3 or p.x = 11) and (r2.l2 and r3.l3) or (p.x = 7 and (r2.l1 and not r3.l3) or p.x = 7 and (r2.l2 and r3.l3))))) -> <bdd 20n 21p> [backward reach with edge: (event: a) (guard: (p.x = 0 or p.x = 4 or (p.x = 8 or p.x = 12)) and (r2.l2 and r3.l1) or (p.x = 2 or p.x = 10) and (r2.l2 and r3.l1) or (p.x = 6 and (r2.l2 and r3.l1) or ((p.x = 1 or p.x = 3 or (p.x = 9 or p.x = 11)) and (r2.l2 and r3.l1) or (p.x = 5 or p.x = 7) and (r2.l2 and r3.l1)))) (assignments: p.x := p.x + 1, r2 := r2.l1, r3 := r3.l2), restricted to current/previous controlled-behavior predicate: true]
Backward reachability: iteration 3.
Backward controlled-behavior: <bdd 20n 21p> -> <bdd 23n 31p> [backward reach with edge: (event: a) (guard: (p.x = 0 or p.x = 4 or (p.x = 8 or p.x = 12)) and (r2.l1 and r3.l3) or (p.x = 2 or p.x = 10) and (r2.l1 and r3.l3) or (p.x = 6 and (r2.l1 and r3.l3) or ((p.x = 1 or p.x = 3 or (p.x = 9 or p.x = 11)) and (r2.l1 and r3.l3) or (p.x = 5 or p.x = 7) and (r2.l1 and r3.l3)))) (assignments: p.x := p.x + 1, r2 := r2.l2, r3 := r3.l1), restricted to current/previous controlled-behavior predicate: true]
Backward controlled-behavior: <bdd 23n 31p> -> <bdd 24n 26p> [backward reach with edge: (event: a) (guard: (p.x = 0 or p.x = 4 or (p.x = 8 or p.x = 12)) and (r2.l2 and r3.l2) or (p.x = 2 or p.x = 10) and (r2.l2 and r3.l2) or (p.x = 6 and (r2.l2 and r3.l2) or ((p.x = 1 or p.x = 3 or (p.x = 9 or p.x = 11)) and (r2.l2 and r3.l2) or (p.x = 5 or p.x = 7) and (r2.l2 and r3.l2)))) (assignments: p.x := p.x + 1, r2 := r2.l1, r3 := r3.l3), restricted to current/previous controlled-behavior predicate: true]
Backward reachability: iteration 4.
Backward controlled-behavior: <bdd 24n 26p> [fixed point].
Controlled behavior: true -> <bdd 24n 26p>.

Round 1: computing backward uncontrolled bad-state predicate.
Backward uncontrolled bad-state: <bdd 24n 24p> [current/previous controlled behavior predicate]
Backward reachability: iteration 1.

Round 1: computing forward controlled-behavior predicate.
Forward controlled-behavior: p.x = 0 and (r2.l1 and r3.l1) [initialization predicate]
Forward reachability: iteration 1.
Forward controlled-behavior: p.x = 0 and (r2.l1 and r3.l1) -> p.x = 0 and (r2.l1 and r3.l1) or p.x = 1 and (r2.l2 and r3.l2) [forward reach with edge: (event: a) (guard: (p.x = 0 or p.x = 4 or (p.x = 8 or p.x = 12)) and (r2.l1 and r3.l1) or (p.x = 2 or p.x = 10) and (r2.l1 and r3.l1) or (p.x = 6 and (r2.l1 and r3.l1) or ((p.x = 1 or p.x = 3 or (p.x = 9 or p.x = 11)) and (r2.l1 and r3.l1) or (p.x = 5 or p.x = 7) and (r2.l1 and r3.l1)))) (assignments: p.x := p.x + 1, r2 := r2.l2, r3 := r3.l2), restricted to current/previous controlled-behavior predicate: <bdd 24n 26p>]
Forward controlled-behavior: p.x = 0 and (r2.l1 and r3.l1) or p.x = 1 and (r2.l2 and r3.l2) -> p.x = 0 and (r2.l1 and r3.l1) or (p.x = 2 and (r2.l1 and r3.l3) or p.x = 1 and (r2.l2 and r3.l2)) [forward reach with edge: (event: a) (guard: (p.x = 0 or p.x = 4 or (p.x = 8 or p.x = 12)) and (r2.l2 and r3.l2) or (p.x = 2 or p.x = 10) and (r2.l2 and r3.l2) or (p.x = 6 and (r2.l2 and r3.l2) or ((p.x = 1 or p.x = 3 or (p.x = 9 or p.x = 11)) and (r2.l2 and r3.l2) or (p.x = 5 or p.x = 7) and (r2.l2 and r3.l2)))) (assignments: p.x := p.x + 1, r2 := r2.l1, r3 := r3.l3), restricted to current/previous controlled-behavior predicate: <bdd 24n 26p>]
Forward reachability: iteration 2.
Forward controlled-behavior: p.x = 0 and (r2.l1 and r3.l1) or (p.x = 2 and (r2.l1 and r3.l3) or p.x = 1 and (r2.l2 and r3.l2)) -> p.x = 0 and (r2.l1 and r3.l1) or p.x = 2 and (r2.l1 and r3.l3) or (p.x = 1 and (r2.l2 and r3.l2) or p.x = 3 and (r2.l2 and r3.l1)) [forward reach with edge: (event: a) (guard: (p.x = 0 or p.x = 4 or (p.x = 8 or p.x = 12)) and (r2.l1 and r3.l3) or (p.x = 2 or p.x = 10) and (r2.l1 and r3.l3) or (p.x = 6 and (r2.l1 and r3.l3) or ((p.x = 1 or p.x = 3 or (p.x = 9 or p.x = 11)) and (r2.l1 and r3.l3) or (p.x = 5 or p.x = 7) and (r2.l1 and r3.l3)))) (assignments: p.x := p.x + 1, r2 := r2.l2, r3 := r3.l1), restricted to current/previous controlled-behavior predicate: <bdd 24n 26p>]
Forward controlled-behavior: p.x = 0 and (r2.l1 and r3.l1) or p.x = 2 and (r2.l1 and r3.l3) or (p.x = 1 and (r2.l2 and r3.l2) or p.x = 3 and (r2.l2 and r3.l1)) -> <bdd 22n 5p> [forward reach with edge: (event: a) (guard: (p.x = 0 or p.x = 4 or (p.x = 8 or p.x = 12)) and (r2.l2 and r3.l1) or (p.x = 2 or p.x = 10) and (r2.l2 and r3.l1) or (p.x = 6 and (r2.l2 and r3.l1) or ((p.x = 1 or p.x = 3 or (p.x = 9 or p.x = 11)) and (r2.l2 and r3.l1) or (p.x = 5 or p.x = 7) and (r2.l2 and r3.l1)))) (assignments: p.x := p.x + 1, r2 := r2.l1, r3 := r3.l2), restricted to current/previous controlled-behavior predicate: <bdd 24n 26p>]
Forward reachability: iteration 3.
Forward controlled-behavior: <bdd 22n 5p> -> <bdd 24n 6p> [forward reach with edge: (event: a) (guard: (p.x = 0 or p.x = 4 or (p.x = 8 or p.x = 12)) and (r2.l1 and r3.l2) or (p.x = 2 or p.x = 10) and (r2.l1 and r3.l2) or (p.x = 6 and (r2.l1 and r3.l2) or ((p.x = 1 or p.x = 3 or (p.x = 9 or p.x = 11)) and (r2.l1 and r3.l2) or (p.x = 5 or p.x = 7) and (r2.l1 and r3.l2)))) (assignments: p.x := p.x + 1, r2 := r2.l2, r3 := r3.l3), restricted to current/previous controlled-behavior predicate: <bdd 24n 26p>]
Forward controlled-behavior: <bdd 24n 6p> -> <bdd 24n 7p> [forward reach with edge: (event: a) (guard: (p.x = 0 or p.x = 4 or (p.x = 8 or p.x = 12)) and (r2.l2 and r3.l3) or (p.x = 2 or p.x = 10) and (r2.l2 and r3.l3) or (p.x = 6 and (r2.l2 and r3.l3) or ((p.x = 1 or p.x = 3 or (p.x = 9 or p.x = 11)) and (r2.l2 and r3.l3) or (p.x = 5 or p.x = 7) and (r2.l2 and r3.l3)))) (assignments: p.x := p.x + 1, r2 := r2.l1, r3 := r3.l1), restricted to current/previous controlled-behavior predicate: <bdd 24n 26p>]
Forward reachability: iteration 4.
Forward controlled-behavior: <bdd 24n 7p> -> <bdd 24n 8p> [forward reach with edge: (event: a) (guard: (p.x = 0 or p.x = 4 or (p.x = 8 or p.x = 12)) and (r2.l1 and r3.l1) or (p.x = 2 or p.x = 10) and (r2.l1 and r3.l1) or (p.x = 6 and (r2.l1 and r3.l1) or ((p.x = 1 or p.x = 3 or (p.x = 9 or p.x = 11)) and (r2.l1 and r3.l1) or (p.x = 5 or p.x = 7) and (r2.l1 and r3.l1)))) (assignments: p.x := p.x + 1, r2 := r2.l2, r3 := r3.l2), restricted to current/previous controlled-behavior predicate: <bdd 24n 26p>]
Forward controlled-behavior: <bdd 24n 8p> -> <bdd 25n 9p> [forward reach with edge: (event: a) (guard: (p.x = 0 or p.x = 4 or (p.x = 8 or p.x = 12)) and (r2.l2 and r3.l2) or (p.x = 2 or p.x = 10) and (r2.l2 and r3.l2) or (p.x = 6 and (r2.l2 and r3.l2) or ((p.x = 1 or p.x = 3 or (p.x = 9 or p.x = 11)) and (r2.l2 and r3.l2) or (p.x = 5 or p.x = 7) and (r2.l2 and r3.l2)))) (assignments: p.x := p.x + 1, r2 := r2.l1, r3 := r3.l3), restricted to current/previous controlled-behavior predicate: <bdd 24n 26p>]
Forward reachability: iteration 5.
Forward controlled-behavior: <bdd 25n 9p> -> <bdd 26n 10p> [forward reach with edge: (event: a) (guard: (p.x = 0 or p.x = 4 or (p.x = 8 or p.x = 12)) and (r2.l1 and r3.l3) or (p.x = 2 or p.x = 10) and (r2.l1 and r3.l3) or (p.x = 6 and (r2.l1 and r3.l3) or ((p.x = 1 or p.x = 3 or (p.x = 9 or p.x = 11)) and (r2.l1 and r3.l3) or (p.x = 5 or p.x = 7) and (r2.l1 and r3.l3)))) (assignments: p.x := p.x + 1, r2 := r2.l2, r3 := r3.l1), restricted to current/previous controlled-behavior predicate: <bdd 24n 26p>]
Forward controlled-behavior: <bdd 26n 10p> -> <bdd 26n 11p> [forward reach with edge: (event: a) (guard: (p.x = 0 or p.x = 4 or (p.x = 8 or p.x = 12)) and (r2.l2 and r3.l1) or (p.x = 2 or p.x = 10) and (r2.l2 and r3.l1) or (p.x = 6 and (r2.l2 and r3.l1) or ((p.x = 1 or p.x = 3 or (p.x = 9 or p.x = 11)) and (r2.l2 and r3.l1) or (p.x = 5 or p.x = 7) and (r2.l2 and r3.l1)))) (assignments: p.x := p.x + 1, r2 := r2.l1, r3 := r3.l2), restricted to current/previous controlled-behavior predicate: <bdd 24n 26p>]
Forward reachability: iteration 6.
Forward controlled-behavior: <bdd 26n 11p> -> <bdd 26n 12p> [forward reach with edge: (event: a) (guard: (p.x = 0 or p.x = 4 or (p.x = 8 or p.x = 12)) and (r2.l1 and r3.l2) or (p.x = 2 or p.x = 10) and (r2.l1 and r3.l2) or (p.x = 6 and (r2.l1 and r3.l2) or ((p.x = 1 or p.x = 3 or (p.x = 9 or p.x = 11)) and (r2.l1 and r3.l2) or (p.x = 5 or p.x = 7) and (r2.l1 and r3.l2)))) (assignments: p.x := p.x + 1, r2 := r2.l2, r3 := r3.l3), restricted to current/previous controlled-behavior predicate: <bdd 24n 26p>]
Forward controlled-behavior: <bdd 26n 12p> -> <bdd 26n 13p> [forward reach with edge: (event: a) (guard: (p.x = 0 or p.x = 4 or (p.x = 8 or p.x = 12)) and (r2.l2 and r3.l3) or (p.x = 2 or p.x = 10) and (r2.l2 and r3.l3) or (p.x = 6 and (r2.l2 and r3.l3) or ((p.x = 1 or p.x = 3 or (p.x = 9 or p.x = 11)) and (r2.l2 and r3.l3) or (p.x = 5 or p.x = 7) and (r2.l2 and r3.l3)))) (assignments: p.x := p.x + 1, r2 := r2.l1, r3 := r3.l1), restricted to current/previous controlled-behavior predicate: <bdd 24n 26p>]
Forward reachability: iteration 7.
Forward controlled-behavior: <bdd 26n 13p> [fixed point].
Controlled behavior: <bdd 24n 26p> -> <bdd 26n 13p>.

Round 1: finished, need another round.

Round 2: started.

Round 2: computing backward controlled-behavior predicate.
Backward controlled-behavior: r2.l1 and r3.l1 [marker predicate]
Backward controlled-behavior: r2.l1 and r3.l1 -> p.x = 0 and (r2.l1 and r3.l1) or (p.x = 12 and (r2.l1 and r3.l1) or p.x = 6 and (r2.l1 and r3.l1)) [restricted to current/previous controlled-behavior predicate: <bdd 26n 13p>]
Backward reachability: iteration 1.
Backward controlled-behavior: p.x = 0 and (r2.l1 and r3.l1) or (p.x = 12 and (r2.l1 and r3.l1) or p.x = 6 and (r2.l1 and r3.l1)) -> p.x = 0 and (r2.l1 and r3.l1) or p.x = 12 and (r2.l1 and r3.l1) or (p.x = 6 and (r2.l1 and r3.l1) or (p.x = 5 and (r2.l2 and r3.l3) or p.x = 11 and (r2.l2 and r3.l3))) [backward reach with edge: (event: a) (guard: (p.x = 0 or p.x = 4 or (p.x = 8 or p.x = 12)) and (r2.l2 and r3.l3) or (p.x = 2 or p.x = 10) and (r2.l2 and r3.l3) or (p.x = 6 and (r2.l2 and r3.l3) or ((p.x = 1 or p.x = 3 or (p.x = 9 or p.x = 11)) and (r2.l2 and r3.l3) or (p.x = 5 or p.x = 7) and (r2.l2 and r3.l3)))) (assignments: p.x := p.x + 1, r2 := r2.l1, r3 := r3.l1), restricted to current/previous controlled-behavior predicate: <bdd 26n 13p>]
Backward reachability: iteration 2.
Backward controlled-behavior: p.x = 0 and (r2.l1 and r3.l1) or p.x = 12 and (r2.l1 and r3.l1) or (p.x = 6 and (r2.l1 and r3.l1) or (p.x = 5 and (r2.l2 and r3.l3) or p.x = 11 and (r2.l2 and r3.l3))) -> p.x = 0 and (r2.l1 and r3.l1) or (p.x = 4 and (r2.l1 and r3.l2) or p.x = 12 and (r2.l1 and r3.l1)) or (p.x = 10 and (r2.l1 and r3.l2) or p.x = 6 and (r2.l1 and r3.l1) or (p.x = 5 and (r2.l2 and r3.l3) or p.x = 11 and (r2.l2 and r3.l3))) [backward reach with edge: (event: a) (guard: (p.x = 0 or p.x = 4 or (p.x = 8 or p.x = 12)) and (r2.l1 and r3.l2) or (p.x = 2 or p.x = 10) and (r2.l1 and r3.l2) or (p.x = 6 and (r2.l1 and r3.l2) or ((p.x = 1 or p.x = 3 or (p.x = 9 or p.x = 11)) and (r2.l1 and r3.l2) or (p.x = 5 or p.x = 7) and (r2.l1 and r3.l2)))) (assignments: p.x := p.x + 1, r2 := r2.l2, r3 := r3.l3), restricted to current/previous controlled-behavior predicate: <bdd 26n 13p>]
Backward controlled-behavior: p.x = 0 and (r2.l1 and r3.l1) or (p.x = 4 and (r2.l1 and r3.l2) or p.x = 12 and (r2.l1 and r3.l1)) or (p.x = 10 and (r2.l1 and r3.l2) or p.x = 6 and (r2.l1 and r3.l1) or (p.x = 5 and (r2.l2 and r3.l3) or p.x = 11 and (r2.l2 and r3.l3))) -> <bdd 22n 9p> [backward reach with edge: (event: a) (guard: (p.x = 0 or p.x = 4 or (p.x = 8 or p.x = 12)) and (r2.l2 and r3.l1) or (p.x = 2 or p.x = 10) and (r2.l2 and r3.l1) or (p.x = 6 and (r2.l2 and r3.l1) or ((p.x = 1 or p.x = 3 or (p.x = 9 or p.x = 11)) and (r2.l2 and r3.l1) or (p.x = 5 or p.x = 7) and (r2.l2 and r3.l1)))) (assignments: p.x := p.x + 1, r2 := r2.l1, r3 := r3.l2), restricted to current/previous controlled-behavior predicate: <bdd 26n 13p>]
Backward reachability: iteration 3.
Backward controlled-behavior: <bdd 22n 9p> -> <bdd 24n 11p> [backward reach with edge: (event: a) (guard: (p.x = 0 or p.x = 4 or (p.x = 8 or p.x = 12)) and (r2.l1 and r3.l3) or (p.x = 2 or p.x = 10) and (r2.l1 and r3.l3) or (p.x = 6 and (r2.l1 and r3.l3) or ((p.x = 1 or p.x = 3 or (p.x = 9 or p.x = 11)) and (r2.l1 and r3.l3) or (p.x = 5 or p.x = 7) and (r2.l1 and r3.l3)))) (assignments: p.x := p.x + 1, r2 := r2.l2, r3 := r3.l1), restricted to current/previous controlled-behavior predicate: <bdd 26n 13p>]
Backward controlled-behavior: <bdd 24n 11p> -> <bdd 26n 13p> [backward reach with edge: (event: a) (guard: (p.x = 0 or p.x = 4 or (p.x = 8 or p.x = 12)) and (r2.l2 and r3.l2) or (p.x = 2 or p.x = 10) and (r2.l2 and r3.l2) or (p.x = 6 and (r2.l2 and r3.l2) or ((p.x = 1 or p.x = 3 or (p.x = 9 or p.x = 11)) and (r2.l2 and r3.l2) or (p.x = 5 or p.x = 7) and (r2.l2 and r3.l2)))) (assignments: p.x := p.x + 1, r2 := r2.l1, r3 := r3.l3), restricted to current/previous controlled-behavior predicate: <bdd 26n 13p>]
Backward reachability: iteration 4.
Backward controlled-behavior: <bdd 26n 13p> [fixed point].

Round 2: computing backward uncontrolled bad-state predicate.
Backward uncontrolled bad-state: <bdd 26n 42p> [current/previous controlled behavior predicate]
Backward reachability: iteration 1.

Round 2: finished, controlled behavior is stable.

Computing controlled system guards.

Edge (event: a) (guard: (p.x = 0 or p.x = 4 or (p.x = 8 or p.x = 12)) and (r2.l1 and r3.l1) or (p.x = 2 or p.x = 10) and (r2.l1 and r3.l1) or (p.x = 6 and (r2.l1 and r3.l1) or ((p.x = 1 or p.x = 3 or (p.x = 9 or p.x = 11)) and (r2.l1 and r3.l1) or (p.x = 5 or p.x = 7) and (r2.l1 and r3.l1)))) (assignments: p.x := p.x + 1, r2 := r2.l2, r3 := r3.l2): guard: (p.x = 0 or p.x = 4 or (p.x = 8 or p.x = 12)) and (r2.l1 and r3.l1) or (p.x = 2 or p.x = 10) and (r2.l1 and r3.l1) or (p.x = 6 and (r2.l1 and r3.l1) or ((p.x = 1 or p.x = 3 or (p.x = 9 or p.x = 11)) and (r2.l1 and r3.l1) or (p.x = 5 or p.x = 7) and (r2.l1 and r3.l1))) -> p.x = 0 and (r2.l1 and r3.l1) or p.x = 6 and (r2.l1 and r3.l1).
Edge (event: a) (guard: (p.x = 0 or p.x = 4 or (p.x = 8 or p.x = 12)) and (r2.l1 and r3.l2) or (p.x = 2 or p.x = 10) and (r2.l1 and r3.l2) or (p.x = 6 and (r2.l1 and r3.l2) or ((p.x = 1 or p.x = 3 or (p.x = 9 or p.x = 11)) and (r2.l1 and r3.l2) or (p.x = 5 or p.x = 7) and (r2.l1 and r3.l2)))) (assignments: p.x := p.x + 1, r2 := r2.l2, r3 := r3.l3): guard: (p.x = 0 or p.x = 4 or (p.x = 8 or p.x = 12)) and (r2.l1 and r3.l2) or (p.x = 2 or p.x = 10) and (r2.l1 and r3.l2) or (p.x = 6 and (r2.l1 and r3.l2) or ((p.x = 1 or p.x = 3 or (p.x = 9 or p.x = 11)) and (r2.l1 and r3.l2) or (p.x = 5 or p.x = 7) and (r2.l1 and r3.l2))) -> p.x = 4 and (r2.l1 and r3.l2) or p.x = 10 and (r2.l1 and r3.l2).
Edge (event: a) (guard: (p.x = 0 or p.x = 4 or (p.x = 8 or p.x = 12)) and (r2.l1 and r3.l3) or (p.x = 2 or p.x = 10) and (r2.l1 and r3.l3) or (p.x = 6 and (r2.l1 and r3.l3) or ((p.x = 1 or p.x = 3 or (p.x = 9 or p.x = 11)) and (r2.l1 and r3.l3) or (p.x = 5 or p.x = 7) and (r2.l1 and r3.l3)))) (assignments: p.x := p.x + 1, r2 := r2.l2, r3 := r3.l1): guard: (p.x = 0 or p.x = 4 or (p.x = 8 or p.x = 12)) and (r2.l1 and r3.l3) or (p.x = 2 or p.x = 10) and (r2.l1 and r3.l3) or (p.x = 6 and (r2.l1 and r3.l3) or ((p.x = 1 or p.x = 3 or (p.x = 9 or p.x = 11)) and (r2.l1 and r3.l3) or (p.x = 5 or p.x = 7) and (r2.l1 and r3.l3))) -> p.x = 8 and (r2.l1 and r3.l3) or p.x = 2 and (r2.l1 and r3.l3).
Edge (event: a) (guard: (p.x = 0 or p.x = 4 or (p.x = 8 or p.x = 12)) and (r2.l2 and r3.l1) or (p.x = 2 or p.x = 10) and (r2.l2 and r3.l1) or (p.x = 6 and (r2.l2 and r3.l1) or ((p.x = 1 or p.x = 3 or (p.x = 9 or p.x = 11)) and (r2.l2 and r3.l1) or (p.x = 5 or p.x = 7) and (r2.l2 and r3.l1)))) (assignments: p.x := p.x + 1, r2 := r2.l1, r3 := r3.l2): guard: (p.x = 0 or p.x = 4 or (p.x = 8 or p.x = 12)) and (r2.l2 and r3.l1) or (p.x = 2 or p.x = 10) and (r2.l2 and r3.l1) or (p.x = 6 and (r2.l2 and r3.l1) or ((p.x = 1 or p.x = 3 or (p.x = 9 or p.x = 11)) and (r2.l2 and r3.l1) or (p.x = 5 or p.x = 7) and (r2.l2 and r3.l1))) -> p.x = 9 and (r2.l2 and r3.l1) or p.x = 3 and (r2.l2 and r3.l1).
Edge (event: a) (guard: (p.x = 0 or p.x = 4 or (p.x = 8 or p.x = 12)) and (r2.l2 and r3.l2) or (p.x = 2 or p.x = 10) and (r2.l2 and r3.l2) or (p.x = 6 and (r2.l2 and r3.l2) or ((p.x = 1 or p.x = 3 or (p.x = 9 or p.x = 11)) and (r2.l2 and r3.l2) or (p.x = 5 or p.x = 7) and (r2.l2 and r3.l2)))) (assignments: p.x := p.x + 1, r2 := r2.l1, r3 := r3.l3): guard: (p.x = 0 or p.x = 4 or (p.x = 8 or p.x = 12)) and (r2.l2 and r3.l2) or (p.x = 2 or p.x = 10) and (r2.l2 and r3.l2) or (p.x = 6 and (r2.l2 and r3.l2) or ((p.x = 1 or p.x = 3 or (p.x = 9 or p.x = 11)) and (r2.l2 and r3.l2) or (p.x = 5 or p.x = 7) and (r2.l2 and r3.l2))) -> p.x = 1 and (r2.l2 and r3.l2) or p.x = 7 and (r2.l2 and r3.l2).
Edge (event: a) (guard: (p.x = 0 or p.x = 4 or (p.x = 8 or p.x = 12)) and (r2.l2 and r3.l3) or (p.x = 2 or p.x = 10) and (r2.l2 and r3.l3) or (p.x = 6 and (r2.l2 and r3.l3) or ((p.x = 1 or p.x = 3 or (p.x = 9 or p.x = 11)) and (r2.l2 and r3.l3) or (p.x = 5 or p.x = 7) and (r2.l2 and r3.l3)))) (assignments: p.x := p.x + 1, r2 := r2.l1, r3 := r3.l1): guard: (p.x = 0 or p.x = 4 or (p.x = 8 or p.x = 12)) and (r2.l2 and r3.l3) or (p.x = 2 or p.x = 10) and (r2.l2 and r3.l3) or (p.x = 6 and (r2.l2 and r3.l3) or ((p.x = 1 or p.x = 3 or (p.x = 9 or p.x = 11)) and (r2.l2 and r3.l3) or (p.x = 5 or p.x = 7) and (r2.l2 and r3.l3))) -> p.x = 5 and (r2.l2 and r3.l3) or p.x = 11 and (r2.l2 and r3.l3).
Edge (event: b) (guard: r2.l2 and r3.l3): guard: r2.l2 and r3.l3 -> p.x = 5 and (r2.l2 and r3.l3) or p.x = 11 and (r2.l2 and r3.l3).

Final synthesis result:
  State: (controlled-behavior: <bdd 26n 13p>)
    Edge: (event: a) (guard: (p.x = 0 or p.x = 4 or (p.x = 8 or p.x = 12)) and (r2.l1 and r3.l1) or (p.x = 2 or p.x = 10) and (r2.l1 and r3.l1) or (p.x = 6 and (r2.l1 and r3.l1) or ((p.x = 1 or p.x = 3 or (p.x = 9 or p.x = 11)) and (r2.l1 and r3.l1) or (p.x = 5 or p.x = 7) and (r2.l1 and r3.l1))) -> p.x = 0 and (r2.l1 and r3.l1) or p.x = 6 and (r2.l1 and r3.l1)) (assignments: p.x := p.x + 1, r2 := r2.l2, r3 := r3.l2)
    Edge: (event: a) (guard: (p.x = 0 or p.x = 4 or (p.x = 8 or p.x = 12)) and (r2.l1 and r3.l2) or (p.x = 2 or p.x = 10) and (r2.l1 and r3.l2) or (p.x = 6 and (r2.l1 and r3.l2) or ((p.x = 1 or p.x = 3 or (p.x = 9 or p.x = 11)) and (r2.l1 and r3.l2) or (p.x = 5 or p.x = 7) and (r2.l1 and r3.l2))) -> p.x = 4 and (r2.l1 and r3.l2) or p.x = 10 and (r2.l1 and r3.l2)) (assignments: p.x := p.x + 1, r2 := r2.l2, r3 := r3.l3)
    Edge: (event: a) (guard: (p.x = 0 or p.x = 4 or (p.x = 8 or p.x = 12)) and (r2.l1 and r3.l3) or (p.x = 2 or p.x = 10) and (r2.l1 and r3.l3) or (p.x = 6 and (r2.l1 and r3.l3) or ((p.x = 1 or p.x = 3 or (p.x = 9 or p.x = 11)) and (r2.l1 and r3.l3) or (p.x = 5 or p.x = 7) and (r2.l1 and r3.l3))) -> p.x = 8 and (r2.l1 and r3.l3) or p.x = 2 and (r2.l1 and r3.l3)) (assignments: p.x := p.x + 1, r2 := r2.l2, r3 := r3.l1)
    Edge: (event: a) (guard: (p.x = 0 or p.x = 4 or (p.x = 8 or p.x = 12)) and (r2.l2 and r3.l1) or (p.x = 2 or p.x = 10) and (r2.l2 and r3.l1) or (p.x = 6 and (r2.l2 and r3.l1) or ((p.x = 1 or p.x = 3 or (p.x = 9 or p.x = 11)) and (r2.l2 and r3.l1) or (p.x = 5 or p.x = 7) and (r2.l2 and r3.l1))) -> p.x = 9 and (r2.l2 and r3.l1) or p.x = 3 and (r2.l2 and r3.l1)) (assignments: p.x := p.x + 1, r2 := r2.l1, r3 := r3.l2)
    Edge: (event: a) (guard: (p.x = 0 or p.x = 4 or (p.x = 8 or p.x = 12)) and (r2.l2 and r3.l2) or (p.x = 2 or p.x = 10) and (r2.l2 and r3.l2) or (p.x = 6 and (r2.l2 and r3.l2) or ((p.x = 1 or p.x = 3 or (p.x = 9 or p.x = 11)) and (r2.l2 and r3.l2) or (p.x = 5 or p.x = 7) and (r2.l2 and r3.l2))) -> p.x = 1 and (r2.l2 and r3.l2) or p.x = 7 and (r2.l2 and r3.l2)) (assignments: p.x := p.x + 1, r2 := r2.l1, r3 := r3.l3)
    Edge: (event: a) (guard: (p.x = 0 or p.x = 4 or (p.x = 8 or p.x = 12)) and (r2.l2 and r3.l3) or (p.x = 2 or p.x = 10) and (r2.l2 and r3.l3) or (p.x = 6 and (r2.l2 and r3.l3) or ((p.x = 1 or p.x = 3 or (p.x = 9 or p.x = 11)) and (r2.l2 and r3.l3) or (p.x = 5 or p.x = 7) and (r2.l2 and r3.l3))) -> p.x = 5 and (r2.l2 and r3.l3) or p.x = 11 and (r2.l2 and r3.l3)) (assignments: p.x := p.x + 1, r2 := r2.l1, r3 := r3.l1)
    Edge: (event: b) (guard: r2.l2 and r3.l3 -> p.x = 5 and (r2.l2 and r3.l3) or p.x = 11 and (r2.l2 and r3.l3))
    Edge: (event: b) (guard: r2.l2 and not r3.l3 -> false)
    Edge: (event: b) (guard: r2.l1 and r3.l3 -> false)
    Edge: (event: b) (guard: r2.l1 and not r3.l3 -> false)

Controlled system:                     exactly 13 states.

Initial (synthesis result):            <bdd 26n 13p>
Initial (uncontrolled system):         p.x = 0 and (r2.l1 and r3.l1)
Initial (controlled system):           p.x = 0 and (r2.l1 and r3.l1)
Initial (removed by supervisor):       false
Initial (added by supervisor):         true

Simplification of controlled system under the assumption of the plants:
  Event a: guard: <bdd 26n 12p> -> <bdd 23n 12p> [assume p.x != 13].

Constructing output CIF specification.
Writing output CIF file "datasynth/multi_req_auts.ctrlsys.real.cif".
