#FIG 3.2
################################################################################
# Copyright (c) 2010, 2020 Contributors to the Eclipse Foundation
#
# See the NOTICE file(s) distributed with this work for additional
# information regarding copyright ownership.
#
# This program and the accompanying materials are made available under the terms
# of the MIT License which is available at https://opensource.org/licenses/MIT
#
# SPDX-License-Identifier: MIT
################################################################################
Portrait
Center
Metric
A4      
100.00
Single
-2
1200 2
6 990 1395 1350 1755
2 2 0 1 0 7 35 -1 20 0.000 0 0 -1 0 0 5
	 1080 1485 1350 1485 1350 1755 1080 1755 1080 1485
2 2 0 1 0 7 36 -1 20 0.000 0 0 -1 0 0 5
	 1035 1440 1305 1440 1305 1710 1035 1710 1035 1440
2 2 0 1 0 7 37 -1 20 0.000 0 0 -1 0 0 5
	 990 1395 1260 1395 1260 1665 990 1665 990 1395
4 1 0 30 -1 2 12 0.0000 4 135 90 1215 1665 8\001
-6
1 4 0 1 0 7 49 -1 20 0.000 1 0.0000 1170 1147 158 158 1012 1147 1328 1147
1 4 0 1 0 7 49 -1 20 0.000 1 0.0000 1980 1147 158 158 1822 1147 2138 1147
1 4 0 1 0 7 49 -1 20 0.000 1 0.0000 2790 1147 158 158 2632 1147 2948 1147
1 4 0 1 0 7 49 -1 20 0.000 1 0.0000 3600 1147 158 158 3442 1147 3758 1147
1 4 0 1 0 7 49 -1 20 0.000 1 0.0000 5220 1147 158 158 5062 1147 5378 1147
1 4 0 1 0 7 49 -1 20 0.000 1 0.0000 4410 1147 158 158 4252 1147 4568 1147
2 3 0 1 0 7 48 -1 20 0.000 0 0 -1 0 0 8
	 1305 1125 1395 1080 1395 990 1665 990 1665 1170 1395 1170
	 1395 1125 1305 1125
2 1 0 1 0 7 50 -1 -1 0.000 0 0 -1 0 0 4
	 1350 1350 1260 1170 1080 1170 990 1350
2 3 0 1 0 7 48 -1 20 0.000 0 0 -1 0 0 8
	 2115 1125 2205 1080 2205 990 2475 990 2475 1170 2205 1170
	 2205 1125 2115 1125
2 1 0 1 0 7 50 -1 -1 0.000 0 0 -1 0 0 4
	 2160 1350 2070 1170 1890 1170 1800 1350
2 1 1 1 0 7 50 -1 -1 1.000 0 0 -1 0 0 2
	 1980 990 2025 855
2 3 0 1 0 7 48 -1 20 0.000 0 0 -1 0 0 8
	 2925 1125 3015 1080 3015 990 3285 990 3285 1170 3015 1170
	 3015 1125 2925 1125
2 1 0 1 0 7 50 -1 -1 0.000 0 0 -1 0 0 4
	 2970 1350 2880 1170 2700 1170 2610 1350
2 1 1 1 0 7 50 -1 -1 1.000 0 0 -1 0 0 2
	 2790 990 2835 855
2 3 0 1 0 7 48 -1 20 0.000 0 0 -1 0 0 8
	 3735 1125 3825 1080 3825 990 4095 990 4095 1170 3825 1170
	 3825 1125 3735 1125
2 1 0 1 0 7 50 -1 -1 0.000 0 0 -1 0 0 4
	 3780 1350 3690 1170 3510 1170 3420 1350
2 1 1 1 0 7 50 -1 -1 1.000 0 0 -1 0 0 2
	 3600 990 3645 855
2 3 0 1 0 7 48 -1 20 0.000 0 0 -1 0 0 8
	 4545 1125 4635 1080 4635 990 4905 990 4905 1170 4635 1170
	 4635 1125 4545 1125
2 1 0 1 0 7 50 -1 -1 0.000 0 0 -1 0 0 4
	 4590 1350 4500 1170 4320 1170 4230 1350
2 1 1 1 0 7 50 -1 -1 1.000 0 0 -1 0 0 2
	 4410 990 4455 855
2 1 0 1 0 7 50 -1 -1 0.000 0 0 -1 0 0 4
	 5400 1350 5310 1170 5130 1170 5040 1350
2 1 0 1 0 7 50 -1 -1 0.000 0 0 -1 0 0 2
	 810 1350 5580 1350
2 2 0 0 0 7 50 -1 20 0.000 0 0 -1 0 0 5
	 1620 720 1845 720 1845 810 1620 810 1620 720
2 2 0 1 0 7 50 -1 -1 0.000 0 0 -1 0 0 5
	 5085 1440 5355 1440 5355 1710 5085 1710 5085 1440
4 1 0 44 -1 -1 10 0.0000 4 105 75 1530 1125 8\001
4 1 0 44 -1 -1 10 0.0000 4 120 150 2340 1125 10\001
4 0 0 50 -1 -1 10 0.0000 4 105 165 2025 855 +2\001
4 1 0 44 -1 -1 10 0.0000 4 105 150 3150 1125 30\001
4 0 0 50 -1 -1 10 0.0000 4 105 150 2835 855 *3\001
4 1 0 44 -1 -1 10 0.0000 4 120 150 3960 1125 60\001
4 0 0 50 -1 -1 10 0.0000 4 105 150 3645 855 *2\001
4 1 0 44 -1 -1 10 0.0000 4 120 150 4770 1125 66\001
4 0 0 50 -1 -1 10 0.0000 4 120 165 4455 855 +6\001
4 1 0 44 -1 1 12 0.0000 4 120 105 1170 1197 R\001
4 1 0 44 -1 1 12 0.0000 4 120 210 1980 1197 C1\001
4 1 0 44 -1 1 12 0.0000 4 120 210 2790 1197 C2\001
4 1 0 44 -1 1 12 0.0000 4 120 150 5220 1196 W\001
4 1 0 44 -1 1 12 0.0000 4 120 210 4410 1197 C4\001
4 1 0 44 -1 1 12 0.0000 4 120 210 3600 1197 C3\001
4 1 0 50 -1 -1 12 0.0000 4 120 180 5220 1620 66\001
